﻿<?xml version="1.0" encoding="utf-8"?>
<!DOCTYPE svg PUBLIC "-//W3C//DTD SVG 1.0//EN" "http://www.w3.org/TR/2001/REC-SVG-20010904/DTD/svg10.dtd"[
	<!ENTITY ns_flows "http://ns.adobe.com/Flows/1.0/">
	<!ENTITY ns_svg "http://www.w3.org/2000/svg">
	<!ENTITY ns_xlink "http://www.w3.org/1999/xlink">
	<!ENTITY st0 "font-size:7px;font-family:'MS-PGothic';adobe-font-script:japanese;">
	<!ENTITY st1 "font-size:6px;font-family:'ArialMT';">
	<!-- White fill  -->
	<!ENTITY st2 "fill:#FFFFFF;stroke:#000000; stroke-width:1.41;stroke-linecap:round;stroke-linejoin:round;">
	<!-- Yellow fill  -->
	<!ENTITY st3 "fill:#FFFFCC;stroke:#FFFFCC; stroke-width:0.1;stroke-linecap:round;stroke-linejoin:round;">
	<!-- Gray fill  -->
	<!ENTITY st4 "fill:#CCCCCC;stroke:#CCCCCC; stroke-width:0.1;stroke-linecap:round;stroke-linejoin:round;">
	<!-- Light-blue fill -->
	<!ENTITY st5 "fill:#CCECF4;stroke:#000000; stroke-width:1.133;stroke-linecap:round;stroke-linejoin:round;">
	<!ENTITY st6 "fill:none;stroke-linecap:butt; stroke-linejoin:round;">
	<!ENTITY st7 "fill:none;stroke:#000000;stroke-linecap:round;stroke-linejoin:round;">
	<!ENTITY st8 "enable-background:new    ;">
	<!-- Black fill -->
	<!ENTITY st9 "fill:#000000;stroke:#000000; stroke-linecap:round;stroke-linejoin:round;">
	<!-- SRS note   -->
	<!ENTITY st10 "font-size:9px;font-family:'ArialMT';">
	<!ENTITY st11 "font-size:9px;font-family:'Svg Symbol';">
	<!ENTITY st12 "font-size:6px;font-family:'Svg Symbol';">
	<!ENTITY st13 "fill:none;stroke:#ff0000;stroke-linecap:round;stroke-linejoin:round;">
	<!-- Yellow fill  -->
	<!ENTITY st14 "fill:#FFFF00;stroke:#FFFF00; stroke-width:0.1;stroke-linecap:round;stroke-linejoin:round;">
	<!ENTITY st15 "font-size:6px;font-family:'MS-PGothic';adobe-font-script:japanese;">
	<!ENTITY st16 "1.00 0.00 0.00 1.00">
	<!ENTITY st17 "0.00 -1.00 1.00 0.00">
	<!ENTITY st18 "font-size:6px;font-family:'Arial';">
	<!ENTITY st19 "font-size:9px;font-family:'Arial';">
	<!ENTITY st20 "font-size:6px;font-family:'MS-PGothic','MS PGothic';adobe-font-script:japanese;">
	<!ENTITY st21 "font-size:7px;font-family:'MS-PGothic','MS PGothic';adobe-font-script:japanese;">
	<!ATTLIST svg
		xmlns:ewd CDATA #FIXED "http://shcl.co.jp/ewd"
		xmlns:a CDATA #FIXED "http://ns.adobe.com/AdobeSVGViewerExtensions/3.0/"
		ewd:ver CDATA #IMPLIED
	>
	<!ATTLIST a
		ewd:lineID CDATA #IMPLIED
		ewd:groupID CDATA #IMPLIED
		ewd:figtype CDATA #IMPLIED
		ewd:code CDATA #IMPLIED
		ewd:figID CDATA #IMPLIED
		ewd:pinNo CDATA #IMPLIED
		ewd:comment CDATA #IMPLIED >
	<!ATTLIST g
		ewd:lineID CDATA #IMPLIED
		ewd:groupID CDATA #IMPLIED
		ewd:figtype CDATA #IMPLIED
		ewd:code CDATA #IMPLIED
		ewd:figID CDATA #IMPLIED
		ewd:pinNo CDATA #IMPLIED
		ewd:comment CDATA #IMPLIED >
	<!ATTLIST text
		ewd:textID CDATA #IMPLIED >
	<!ATTLIST title
		ewd:textID CDATA #IMPLIED >
]>
<!-- Generator: Shintec Hozumi YS   -->
<svg onload="call_execInitLoadProc_svg('system')" style="overflow:visible;  enable-background:new 0 0 384.696 710.000" viewBox="0 0 384.696 710.000" height="710.000" width="384.696" xml:space="preserve" ewd:ver="2.1.2.9" xmlns="&ns_svg;" xmlns:a="http://ns.adobe.com/AdobeSVGViewerExtensions/3.0/" xmlns:ewd="http://shcl.co.jp/ewd" xmlns:xlink="&ns_xlink;">
<text style="&st18;" transform="matrix(&st17;  302.25  173.72 )">G</text><path style="stroke-width: 1.42 ;&st7;  " d=" M   212.46,   358.73  L   203.97,   358.73  " /><path style="stroke-width: 1.42 ;&st7;  " d=" M   314.45,   358.73  L   305.95,   358.73  " /><text style="&st18;" transform="matrix(&st17;  302.25  405.04 )">GR</text><text style="&st18;" transform="matrix(&st17;  302.25  309.69 )">G</text><text style="&st18;" transform="matrix(&st17;  200.27  402.83 )">R</text><text style="&st18;" transform="matrix(&st17;  200.27  309.35 )">R</text><text style="&st18;" transform="matrix(&st17;  200.27  122.38 )">R</text><text style="&st18;" transform="matrix(&st17;  200.27  207.36 )">R</text><path style="stroke-width: 1.42 ;&st7;  " d=" M   195.47,   554.19  L   203.97,   554.19  " /><text style="&st18;" transform="matrix(&st17;  200.27  619.64 )">W-B</text><text style="&st18;" transform="matrix(&st17;  200.27  517.65 )">W-B</text><path style="stroke-width: 1.42 ;&st7;  " d=" M   314.45,   236.22  L   309.48,   231.25  " /><path style="stroke-width: 1.42 ;&st7;  " d=" M   297.45,   243.27  L   302.42,   248.24  " /><path style="stroke-width: 1.42 ;&st7;  " d=" M   309.48,   248.24  L   314.45,   243.27  " /><path style="stroke-width: 1.42 ;&st7;  " d=" M   302.42,   231.25  L   297.45,   236.22  " /><g ewd:figtype="conn" ewd:figID="1" ewd:code="F3"><path style="stroke-width: 1.42 ;&st7;  " d=" M   186.97,   435.21  L   186.97,   477.71  L   322.95,   477.71  L   322.95,   435.21  L   186.97,   435.21  " /><g ewd:lineID="2"><text style="&st18;" transform="matrix(&st16;  197.78  485.9 )">1</text><text style="&st18;" transform="matrix(&st16;  201.86  474.01 )">E</text></g><g ewd:lineID="3"><text style="&st18;" transform="matrix(&st16;  197.78  431.52 )">7</text><text style="&st18;" transform="matrix(&st16;  201.78  442.85 )">B</text></g><g ewd:lineID="7"><text style="&st18;" transform="matrix(&st16;  299.76  431.52 )">6</text><text style="&st18;" transform="matrix(&st16;  299.3  442.85 )">ACC</text></g><g ewd:figtype="title"><text style="&st18;" transform="matrix(&st16;  325.2  445.66 )">F3</text><text style="&st18;" transform="matrix(&st16;  325.21  452.76 )" ewd:textID="1">Clock Assembly</text></g></g><g ewd:figtype="conn" ewd:figID="2" ewd:code="A61"><path style="stroke-width: 0.85 ;&st7;  " d=" M   203.97,   154.76  L   203.97,   171.76  " /><path style="stroke-width: 1.42 ;&st7;  " d=" M   195.47,   154.76  L   212.46,   154.76  L   212.46,   171.76  L   195.47,   171.76  L   195.47,   154.76  " /><text style="&st18;" transform="matrix(&st16;  197.78  179.95 )">9</text><text style="&st18;" transform="matrix(&st16;  194.68  151.07 )">11</text><g ewd:figtype="title"><text style="&st18;" transform="matrix(&st17;  220.36  174.66 )">A61</text><text style="&st18;" transform="matrix(&st17;  227.18  174.66 )" ewd:textID="2">No. 12 Junction <tspan x="0 " dy="6.0">Connector</tspan></text></g></g><g ewd:figtype="rb" ewd:figID="3" ewd:code="FUSE8"><path style="stroke-width: 0.85 ;&st7;  " d=" M   203.97,    78.27  L   203.97,    95.27  " /><path style="stroke-width: 1.42 ;&st7;  " d=" M   206.09,   103.77  L   201.84,   103.77  " /><path style="stroke-width: 1.42 ;&st7;  " d=" M   206.09,    95.27  L   201.84,    95.27  " /><path style="stroke-width: 1.42 ;&st7;   " d=" M   210.34,    99.52  C   210.34     97.17    208.44     95.27    206.09     95.27  " /><path style="stroke-width: 1.42 ;&st7;   " d=" M   206.09,   103.77  C   208.44    103.77    210.34    101.87    210.34     99.52  " /><path style="stroke-width: 1.42 ;&st7;   " d=" M   197.59,    99.52  C   197.59    101.87    199.49    103.77    201.84    103.77  " /><path style="stroke-width: 1.42 ;&st7;   " d=" M   201.84,    95.27  C   199.49     95.27    197.59     97.17    197.59     99.52  " /><path style="stroke-width: 0.28 ;&st9;  " d=" M   203.97,    90.37  L   201.13,    87.54  L   201.13,    91.79  L   203.97,    94.62  L   206.80,    91.79  L   206.80,    87.54  L   203.97,    90.37  " /><text style="&st18;" transform="matrix(&st16;  202.17  101.49 )">1</text><text style="&st18;" transform="matrix(&st16;  220.39  53.34 )">10A <tspan x="0 " dy="6.0">ECU-B </tspan><tspan x="0 " dy="6.0">NO.1</tspan></text><text style="&st18;" transform="matrix(&st16;  195.92  32.08 )">(BAT)</text><text style="&st18;" transform="matrix(&st16;  197.78  86.47 )">2</text><path style="stroke-width: 0.85 ;&st7;   " d=" M   205.38,    68.36  C   205.38     67.57    204.75     66.94    203.97     66.94  " /><path style="stroke-width: 0.85 ;&st7;   " d=" M   203.97,    66.94  C   203.18     66.94    202.55     67.57    202.55     68.36  " /><path style="stroke-width: 0.85 ;&st7;   " d=" M   202.55,    68.36  C   202.55     69.14    203.18     69.77    203.97     69.77  " /><path style="stroke-width: 0.85 ;&st7;   " d=" M   203.97,    69.77  C   204.75     69.77    205.38     69.14    205.38     68.36  " /><path style="stroke-width: 0.85 ;&st7;   " d=" M   205.38,    45.69  C   205.38     44.91    204.75     44.28    203.97     44.28  " /><path style="stroke-width: 0.85 ;&st7;   " d=" M   203.97,    44.28  C   203.18     44.28    202.55     44.91    202.55     45.69  " /><path style="stroke-width: 0.85 ;&st7;   " d=" M   202.55,    45.69  C   202.55     46.48    203.18     47.11    203.97     47.11  " /><path style="stroke-width: 0.85 ;&st7;   " d=" M   203.97,    47.11  C   204.75     47.11    205.38     46.48    205.38     45.69  " /><path style="stroke-width: 1.42 ;&st7;   " d=" M   203.97,    66.94  C   206.70     65.33    207.62     61.80    206.00     59.06  " /><path style="stroke-width: 1.42 ;&st7;   " d=" M   206.00,    59.06  C   205.48     58.18    204.85     57.55    203.97     57.03  " /><path style="stroke-width: 1.42 ;&st7;   " d=" M   203.97,    47.11  C   201.23     48.72    200.32     52.25    201.93     54.99  " /><path style="stroke-width: 1.42 ;&st7;   " d=" M   201.93,    54.99  C   202.45     55.87    203.08     56.51    203.97     57.03  " /><path style="stroke-width: 1.42 ;&st7;  " d=" M   191.22,    35.78  L   191.22,    78.27  L   216.71,    78.27  L   216.71,    35.78  L   191.22,    35.78  " /><path style="stroke-width: 0.85 ;&st7;  " d=" M   203.97,    69.77  L   203.97,    78.27  " /></g><g ewd:figtype="jb" ewd:figID="5" ewd:code="10"><path style="stroke-width: 1.42 ;&st7;  " d=" M   206.09,   282.24  L   201.84,   282.24  " /><path style="stroke-width: 1.42 ;&st7;  " d=" M   206.09,   273.74  L   201.84,   273.74  " /><path style="stroke-width: 1.42 ;&st7;  " d=" M   206.09,   239.75  L   201.84,   239.75  " /><path style="stroke-width: 1.42 ;&st7;  " d=" M   206.09,   231.25  L   201.84,   231.25  " /><path style="stroke-width: 1.42 ;&st7;   " d=" M   206.09,   282.24  C   208.44    282.24    210.34    280.34    210.34    277.99  " /><path style="stroke-width: 1.42 ;&st7;   " d=" M   197.59,   277.99  C   197.59    280.34    199.49    282.24    201.84    282.24  " /><path style="stroke-width: 1.42 ;&st7;   " d=" M   201.84,   273.74  C   199.49    273.74    197.59    275.64    197.59    277.99  " /><path style="stroke-width: 1.42 ;&st7;   " d=" M   210.34,   235.50  C   210.34    233.15    208.44    231.25    206.09    231.25  " /><path style="stroke-width: 1.42 ;&st7;   " d=" M   206.09,   239.75  C   208.44    239.75    210.34    237.84    210.34    235.50  " /><path style="stroke-width: 1.42 ;&st7;   " d=" M   197.59,   235.50  C   197.59    237.84    199.49    239.75    201.84    239.75  " /><path style="stroke-width: 1.42 ;&st7;   " d=" M   201.84,   231.25  C   199.49    231.25    197.59    233.15    197.59    235.50  " /><path style="stroke-width: 0.85 ;&st7;  " d=" M   203.97,   273.74  L   203.97,   239.75  " /><path style="stroke-width: 0.28 ;&st9;  " d=" M   203.97,   268.84  L   201.13,   266.01  L   201.13,   270.26  L   203.97,   273.09  L   206.80,   270.26  L   206.80,   266.01  L   203.97,   268.84  " /><path style="stroke-width: 0.28 ;&st9;  " d=" M   203.97,   244.64  L   206.80,   247.47  L   206.80,   243.22  L   203.97,   240.39  L   201.13,   243.22  L   201.13,   247.47  L   203.97,   244.64  " /><path style="stroke-width: 1.42 ;&st7;   " d=" M   210.34,   277.99  C   210.34    275.64    208.44    273.74    206.09    273.74  " /><text style="&st18;" transform="matrix(&st16;  193.46  279.96 )">7</text><text style="&st18;" transform="matrix(&st16;  200.03  279.96 )">6D</text><text style="&st18;" transform="matrix(&st16;  190.36  237.47 )">24</text><text style="&st18;" transform="matrix(&st16;  200.11  237.47 )">6A</text></g><g ewd:figtype="jb" ewd:figID="6" ewd:code="10"><path style="stroke-width: 0.85 ;&st7;  " d=" M   305.95,    69.77  L   305.95,    78.27  " /><path style="stroke-width: 1.42 ;&st7;  " d=" M   308.07,    95.27  L   303.82,    95.27  " /><path style="stroke-width: 1.42 ;&st7;  " d=" M   308.07,   103.77  L   303.82,   103.77  " /><path style="stroke-width: 0.85 ;&st7;  " d=" M   305.95,    78.27  L   305.95,    95.27  " /><path style="stroke-width: 1.42 ;&st7;   " d=" M   305.95,    47.11  C   303.21     48.72    302.30     52.25    303.91     54.99  " /><path style="stroke-width: 1.42 ;&st7;   " d=" M   303.91,    54.99  C   304.43     55.87    305.07     56.51    305.95     57.03  " /><path style="stroke-width: 1.42 ;&st7;   " d=" M   305.95,    66.94  C   308.69     65.33    309.60     61.80    307.99     59.06  " /><path style="stroke-width: 1.42 ;&st7;   " d=" M   307.99,    59.06  C   307.47     58.18    306.83     57.55    305.95     57.03  " /><path style="stroke-width: 0.85 ;&st7;   " d=" M   307.37,    45.69  C   307.37     44.91    306.73     44.28    305.95     44.28  " /><path style="stroke-width: 0.85 ;&st7;   " d=" M   305.95,    44.28  C   305.17     44.28    304.53     44.91    304.53     45.69  " /><path style="stroke-width: 0.85 ;&st7;   " d=" M   304.53,    45.69  C   304.53     46.48    305.17     47.11    305.95     47.11  " /><path style="stroke-width: 0.85 ;&st7;   " d=" M   305.95,    47.11  C   306.73     47.11    307.37     46.48    307.37     45.69  " /><path style="stroke-width: 0.85 ;&st7;   " d=" M   307.37,    68.36  C   307.37     67.57    306.73     66.94    305.95     66.94  " /><path style="stroke-width: 0.85 ;&st7;   " d=" M   305.95,    66.94  C   305.17     66.94    304.53     67.57    304.53     68.36  " /><path style="stroke-width: 0.85 ;&st7;   " d=" M   304.53,    68.36  C   304.53     69.14    305.17     69.77    305.95     69.77  " /><path style="stroke-width: 0.85 ;&st7;   " d=" M   305.95,    69.77  C   306.73     69.77    307.37     69.14    307.37     68.36  " /><path style="stroke-width: 1.42 ;&st7;   " d=" M   303.82,    95.27  C   301.48     95.27    299.57     97.17    299.57     99.52  " /><path style="stroke-width: 1.42 ;&st7;   " d=" M   299.57,    99.52  C   299.57    101.87    301.48    103.77    303.82    103.77  " /><path style="stroke-width: 1.42 ;&st7;   " d=" M   308.07,   103.77  C   310.42    103.77    312.32    101.87    312.32     99.52  " /><path style="stroke-width: 1.42 ;&st7;   " d=" M   312.32,    99.52  C   312.32     97.17    310.42     95.27    308.07     95.27  " /><path style="stroke-width: 0.28 ;&st9;  " d=" M   305.95,    90.37  L   303.12,    87.54  L   303.12,    91.79  L   305.95,    94.62  L   308.78,    91.79  L   308.78,    87.54  L   305.95,    90.37  " /><path style="stroke-width: 1.42 ;&st7;  " d=" M   293.20,    35.78  L   293.20,    78.27  L   318.70,    78.27  L   318.70,    35.78  L   293.20,    35.78  " /><text style="&st18;" transform="matrix(&st16;  299.76  86.47 )">2</text><text style="&st18;" transform="matrix(&st16;  322.37  56.17 )">7.5A <tspan x="0 " dy="6.0">ACC</tspan></text><text style="&st18;" transform="matrix(&st16;  302.02  101.49 )">6D</text><text style="&st18;" transform="matrix(&st16;  292.34  101.49 )">32</text><text style="&st18;" transform="matrix(&st16;  297.44  32.08 )">(ACC)</text></g><g ewd:figtype="w2w" ewd:figID="7" ewd:code="EF2"><path style="stroke-width: 1.42 ;&st7;  " d=" M   199.72,   545.13  L   203.97,   549.38  L   208.22,   545.13  " /><path style="stroke-width: 1.42 ;&st7;  " d=" M   208.22,   548.53  L   203.97,   552.78  L   199.72,   548.53  " /><text style="&st18;" transform="matrix(&st16;  191.33  560.41 )">6</text></g><g ewd:figtype="w2w" ewd:figID="8" ewd:code="EF2"><path style="stroke-width: 1.42 ;&st7;  " d=" M   208.22,   364.39  L   203.97,   360.14  L   199.72,   364.39  " /><path style="stroke-width: 1.42 ;&st7;  " d=" M   208.22,   367.79  L   203.97,   363.54  L   199.72,   367.79  " /><text style="&st18;" transform="matrix(&st16;  191.33  356.45 )">5</text></g><g ewd:figtype="w2w" ewd:figID="9" ewd:code="EF2"><path style="stroke-width: 1.42 ;&st7;  " d=" M   310.20,   364.39  L   305.95,   360.14  L   301.70,   364.39  " /><path style="stroke-width: 1.42 ;&st7;  " d=" M   310.20,   367.79  L   305.95,   363.54  L   301.70,   367.79  " /><text style="&st18;" transform="matrix(&st16;  293.32  356.45 )">4</text></g><g ewd:figtype="gp" ewd:figID="10" ewd:code="ED"><path style="stroke-width: 0.85 ;&st7;  " d=" M   202.55,   710.00  L   205.38,   710.00  " /><path style="stroke-width: 0.85 ;&st7;  " d=" M   201.13,   707.17  L   206.80,   707.17  " /><path style="stroke-width: 0.85 ;&st7;  " d=" M   199.72,   704.33  L   208.22,   704.33  " /><path style="stroke-width: 0.85 ;&st7;  " d=" M   195.47,   701.50  L   212.46,   701.50  " /><path style="stroke-width: 0.85 ;&st7;  " d=" M   203.97,   697.25  L   203.97,   701.50  " /></g></svg>