﻿<?xml version="1.0" encoding="utf-8"?>
<!DOCTYPE svg PUBLIC "-//W3C//DTD SVG 1.0//EN" "http://www.w3.org/TR/2001/REC-SVG-20010904/DTD/svg10.dtd"[
	<!ENTITY ns_flows "http://ns.adobe.com/Flows/1.0/">
	<!ENTITY ns_svg "http://www.w3.org/2000/svg">
	<!ENTITY ns_xlink "http://www.w3.org/1999/xlink">
	<!ENTITY st0 "font-size:7px;font-family:'MS-PGothic';adobe-font-script:japanese;">
	<!ENTITY st1 "font-size:6px;font-family:'ArialMT';">
	<!-- White fill  -->
	<!ENTITY st2 "fill:#FFFFFF;stroke:#000000; stroke-width:1.41;stroke-linecap:round;stroke-linejoin:round;">
	<!-- Yellow fill  -->
	<!ENTITY st3 "fill:#FFFFCC;stroke:#FFFFCC; stroke-width:0.1;stroke-linecap:round;stroke-linejoin:round;">
	<!-- Gray fill  -->
	<!ENTITY st4 "fill:#CCCCCC;stroke:#CCCCCC; stroke-width:0.1;stroke-linecap:round;stroke-linejoin:round;">
	<!-- Light-blue fill -->
	<!ENTITY st5 "fill:#CCECF4;stroke:#000000; stroke-width:1.133;stroke-linecap:round;stroke-linejoin:round;">
	<!ENTITY st6 "fill:none;stroke-linecap:butt; stroke-linejoin:round;">
	<!ENTITY st7 "fill:none;stroke:#000000;stroke-linecap:round;stroke-linejoin:round;">
	<!ENTITY st8 "enable-background:new    ;">
	<!-- Black fill -->
	<!ENTITY st9 "fill:#000000;stroke:#000000; stroke-linecap:round;stroke-linejoin:round;">
	<!-- SRS note   -->
	<!ENTITY st10 "font-size:9px;font-family:'ArialMT';">
	<!ENTITY st11 "font-size:9px;font-family:'Svg Symbol';">
	<!ENTITY st12 "font-size:6px;font-family:'Svg Symbol';">
	<!ENTITY st13 "fill:none;stroke:#ff0000;stroke-linecap:round;stroke-linejoin:round;">
	<!-- Yellow fill  -->
	<!ENTITY st14 "fill:#FFFF00;stroke:#FFFF00; stroke-width:0.1;stroke-linecap:round;stroke-linejoin:round;">
	<!ENTITY st15 "font-size:6px;font-family:'MS-PGothic';adobe-font-script:japanese;">
	<!ENTITY st16 "1.00 0.00 0.00 1.00">
	<!ENTITY st17 "0.00 -1.00 1.00 0.00">
	<!ENTITY st18 "font-size:6px;font-family:'Arial';">
	<!ENTITY st19 "font-size:9px;font-family:'Arial';">
	<!ENTITY st20 "font-size:6px;font-family:'MS-PGothic','MS PGothic';adobe-font-script:japanese;">
	<!ENTITY st21 "font-size:7px;font-family:'MS-PGothic','MS PGothic';adobe-font-script:japanese;">
	<!ATTLIST svg
		xmlns:ewd CDATA #FIXED "http://shcl.co.jp/ewd"
		xmlns:a CDATA #FIXED "http://ns.adobe.com/AdobeSVGViewerExtensions/3.0/"
		ewd:ver CDATA #IMPLIED
	>
	<!ATTLIST a
		ewd:lineID CDATA #IMPLIED
		ewd:groupID CDATA #IMPLIED
		ewd:figtype CDATA #IMPLIED
		ewd:code CDATA #IMPLIED
		ewd:figID CDATA #IMPLIED
		ewd:pinNo CDATA #IMPLIED
		ewd:comment CDATA #IMPLIED >
	<!ATTLIST g
		ewd:lineID CDATA #IMPLIED
		ewd:groupID CDATA #IMPLIED
		ewd:figtype CDATA #IMPLIED
		ewd:code CDATA #IMPLIED
		ewd:figID CDATA #IMPLIED
		ewd:pinNo CDATA #IMPLIED
		ewd:comment CDATA #IMPLIED >
	<!ATTLIST text
		ewd:textID CDATA #IMPLIED >
	<!ATTLIST title
		ewd:textID CDATA #IMPLIED >
]>
<!-- Generator: Shintec Hozumi YS   -->
<svg onload="call_execInitLoadProc_svg('system')" style="overflow:visible;  enable-background:new 0 0 5609.771 710.000" viewBox="0 0 5609.771 710.000" height="710.000" width="5609.771" xml:space="preserve" ewd:ver="2.1.2.9" xmlns="&ns_svg;" xmlns:a="http://ns.adobe.com/AdobeSVGViewerExtensions/3.0/" xmlns:ewd="http://shcl.co.jp/ewd" xmlns:xlink="&ns_xlink;">
<path style="stroke-width: 1.42 ;&st7;  " d=" M  5294.62,   239.75  L  5286.12,   239.75  " /><path style="stroke-width: 1.42 ;&st7;  " d=" M  5354.11,   239.75  L  5345.61,   239.75  " /><path style="stroke-width: 1.42 ;&st7;  " d=" M  5413.60,   239.75  L  5405.10,   239.75  " /><path style="stroke-width: 1.42 ;&st7;  " d=" M  5481.58,   227.72  L  5476.61,   222.75  " /><path style="stroke-width: 1.42 ;&st7;  " d=" M  5464.59,   234.78  L  5469.56,   239.75  " /><path style="stroke-width: 1.42 ;&st7;  " d=" M  5476.61,   239.75  L  5481.58,   234.78  " /><path style="stroke-width: 1.42 ;&st7;  " d=" M  5469.56,   222.75  L  5464.59,   227.72  " /><path style="stroke-width: 1.42 ;&st7;  " d=" M  5481.58,   567.66  L  5476.61,   562.69  " /><path style="stroke-width: 1.42 ;&st7;  " d=" M  5464.59,   574.72  L  5469.56,   579.69  " /><path style="stroke-width: 1.42 ;&st7;  " d=" M  5476.61,   579.69  L  5481.58,   574.72  " /><path style="stroke-width: 1.42 ;&st7;  " d=" M  5469.56,   562.69  L  5464.59,   567.66  " /><text style="&st18;" transform="matrix(&st17;  5069.96  130.95 )">B</text><text style="&st18;" transform="matrix(&st17;  5112.45  131.73 )">W</text><text style="&st18;" transform="matrix(&st17;  5469.39  294.52 )">LG</text><text style="&st18;" transform="matrix(&st17;  5469.39  538.9 )">W-B</text><text style="&st18;" transform="matrix(&st17;  5469.39  662.13 )">W-B</text><text style="&st18;" transform="matrix(&st17;  5469.39  167.04 )">LG</text><text style="&st18;" transform="matrix(&st17;  5401.4  166.5 )">SB</text><text style="&st18;" transform="matrix(&st17;  5401.4  276.98 )">SB</text><text style="&st18;" transform="matrix(&st17;  5222.93  165.72 )">W</text><text style="&st18;" transform="matrix(&st17;  5282.42  275.54 )">V</text><text style="&st18;" transform="matrix(&st17;  5282.42  165.06 )">V</text><text style="&st18;" transform="matrix(&st17;  5341.91  167.04 )">LG</text><text style="&st18;" transform="matrix(&st17;  5341.91  277.52 )">LG</text><text style="&st18;" transform="matrix(&st16;  5231.71  24.98 )">E31(A)</text><text style="&st18;" transform="matrix(&st16;  5231.72  32.08 )" ewd:textID="62">Main Body ECU</text><g ewd:figtype="conn" ewd:figID="5" ewd:code="L29"><path style="stroke-width: 1.42 ;&st7;  " d=" M  5456.09,   477.71  L  5498.58,   477.71  L  5498.58,   418.22  L  5456.09,   418.22  L  5456.09,   477.71  " /><path style="stroke-width: 0.85 ;&st7;  " d=" M  5473.08,   418.22  L  5473.08,   426.71  " /><path style="stroke-width: 0.85 ;&st7;  " d=" M  5473.08,   456.46  L  5473.08,   477.71  " /><path style="stroke-width: 0.85 ;&st7;   " d=" M  5474.50,   455.04  C  5474.50    454.26   5473.87    453.63   5473.09    453.63  " /><path style="stroke-width: 0.85 ;&st7;   " d=" M  5473.09,   453.63  C  5472.30    453.63   5471.67    454.26   5471.67    455.04  " /><path style="stroke-width: 0.85 ;&st7;   " d=" M  5471.67,   455.04  C  5471.67    455.82   5472.30    456.46   5473.09    456.46  " /><path style="stroke-width: 0.85 ;&st7;   " d=" M  5473.09,   456.46  C  5473.87    456.46   5474.50    455.82   5474.50    455.04  " /><path style="stroke-width: 0.85 ;&st7;   " d=" M  5474.50,   432.38  C  5474.50    431.60   5473.87    430.96   5473.09    430.96  " /><path style="stroke-width: 0.85 ;&st7;   " d=" M  5473.09,   430.96  C  5472.30    430.96   5471.67    431.60   5471.67    432.38  " /><path style="stroke-width: 0.85 ;&st7;   " d=" M  5471.67,   432.38  C  5471.67    433.16   5472.30    433.80   5473.09    433.80  " /><path style="stroke-width: 0.85 ;&st7;   " d=" M  5473.09,   433.80  C  5473.87    433.80   5474.50    433.16   5474.50    432.38  " /><path style="stroke-width: 1.42 ;&st7;  " d=" M  5473.09,   453.63  L  5478.75,   430.96  " /><path style="stroke-width: 0.85 ;&st7;  " d=" M  5473.09,   430.96  L  5473.09,   426.71  " /><text style="&st18;" transform="matrix(&st17;  5467.98  455.17 )" ewd:textID="23">Courtesy</text><text style="&st18;" transform="matrix(&st16;  5475.67  426.41 )">D+</text><text style="&st18;" transform="matrix(&st16;  5475.67  474.02 )">E</text><text style="&st18;" transform="matrix(&st16;  5466.9  485.9 )">2</text><text style="&st18;" transform="matrix(&st16;  5466.9  414.53 )">3</text><g ewd:figtype="title"><text style="&st18;" transform="matrix(&st17;  5506.19  480.6 )">L29</text><text style="&st18;" transform="matrix(&st17;  5513.3  480.61 )" ewd:textID="61">Luggage Compartment Door Lock Assembly</text></g></g><g ewd:figtype="conn" ewd:figID="6" ewd:code="L2"><path style="stroke-width: 0.85 ;&st7;   " d=" M  5406.51,   387.05  C  5406.51    386.27   5405.88    385.64   5405.10    385.64  " /><path style="stroke-width: 0.85 ;&st7;   " d=" M  5405.10,   385.64  C  5404.31    385.64   5403.68    386.27   5403.68    387.05  " /><path style="stroke-width: 0.85 ;&st7;   " d=" M  5403.68,   387.05  C  5403.68    387.84   5404.31    388.47   5405.10    388.47  " /><path style="stroke-width: 0.85 ;&st7;   " d=" M  5405.10,   388.47  C  5405.88    388.47   5406.51    387.84   5406.51    387.05  " /><path style="stroke-width: 0.85 ;&st7;   " d=" M  5406.51,   364.39  C  5406.51    363.61   5405.88    362.97   5405.10    362.97  " /><path style="stroke-width: 0.85 ;&st7;   " d=" M  5405.10,   362.97  C  5404.31    362.97   5403.68    363.61   5403.68    364.39  " /><path style="stroke-width: 0.85 ;&st7;   " d=" M  5403.68,   364.39  C  5403.68    365.17   5404.31    365.81   5405.10    365.81  " /><path style="stroke-width: 0.85 ;&st7;   " d=" M  5405.10,   365.81  C  5405.88    365.81   5406.51    365.17   5406.51    364.39  " /><path style="stroke-width: 1.42 ;&st7;  " d=" M  5405.10,   385.64  L  5410.76,   362.97  " /><path style="stroke-width: 0.85 ;&st7;  " d=" M  5405.10,   392.72  L  5405.10,   388.47  " /><path style="stroke-width: 0.85 ;&st7;  " d=" M  5405.10,   362.97  L  5405.10,   358.73  " /><path style="stroke-width: 1.42 ;&st7;  " d=" M  5413.59,   392.72  L  5413.59,   358.73  L  5396.60,   358.73  L  5396.60,   392.72  L  5413.59,   392.72  " /><text style="&st18;" transform="matrix(&st16;  5398.91  355.04 )">1</text><g ewd:figtype="title"><text style="&st18;" transform="matrix(&st17;  5421.21  395.62 )">L2</text><text style="&st18;" transform="matrix(&st17;  5428.31  395.63 )" ewd:textID="76">Rear Door Courtesy <tspan x="0 " dy="6.0">Light Switch Assembly LH</tspan></text></g></g><g ewd:figtype="conn" ewd:figID="7" ewd:code="L1"><path style="stroke-width: 0.85 ;&st7;   " d=" M  5228.04,   364.39  C  5228.04    363.61   5227.41    362.97   5226.63    362.97  " /><path style="stroke-width: 0.85 ;&st7;   " d=" M  5226.63,   362.97  C  5225.84    362.97   5225.21    363.61   5225.21    364.39  " /><path style="stroke-width: 0.85 ;&st7;   " d=" M  5225.21,   364.39  C  5225.21    365.17   5225.84    365.81   5226.63    365.81  " /><path style="stroke-width: 0.85 ;&st7;   " d=" M  5226.63,   365.81  C  5227.41    365.81   5228.04    365.17   5228.04    364.39  " /><path style="stroke-width: 0.85 ;&st7;   " d=" M  5228.04,   387.05  C  5228.04    386.27   5227.41    385.64   5226.63    385.64  " /><path style="stroke-width: 0.85 ;&st7;   " d=" M  5226.63,   385.64  C  5225.84    385.64   5225.21    386.27   5225.21    387.05  " /><path style="stroke-width: 0.85 ;&st7;   " d=" M  5225.21,   387.05  C  5225.21    387.84   5225.84    388.47   5226.63    388.47  " /><path style="stroke-width: 0.85 ;&st7;   " d=" M  5226.63,   388.47  C  5227.41    388.47   5228.04    387.84   5228.04    387.05  " /><path style="stroke-width: 0.85 ;&st7;  " d=" M  5226.63,   362.97  L  5226.63,   358.73  " /><path style="stroke-width: 0.85 ;&st7;  " d=" M  5226.63,   392.72  L  5226.63,   388.47  " /><path style="stroke-width: 1.42 ;&st7;  " d=" M  5226.63,   385.64  L  5232.29,   362.97  " /><path style="stroke-width: 1.42 ;&st7;  " d=" M  5235.12,   392.72  L  5235.12,   358.73  L  5218.13,   358.73  L  5218.13,   392.72  L  5235.12,   392.72  " /><text style="&st18;" transform="matrix(&st16;  5220.44  355.04 )">1</text><g ewd:figtype="title"><text style="&st18;" transform="matrix(&st17;  5249.84  395.63 )" ewd:textID="36">Front Door Courtesy <tspan x="0 " dy="6.0">Light Switch Assembly LH</tspan></text><text style="&st18;" transform="matrix(&st17;  5242.74  395.62 )">L1</text></g></g><g ewd:figtype="conn" ewd:figID="8" ewd:code="L37"><path style="stroke-width: 0.85 ;&st7;   " d=" M  5347.02,   387.05  C  5347.02    386.27   5346.39    385.64   5345.61    385.64  " /><path style="stroke-width: 0.85 ;&st7;   " d=" M  5345.61,   385.64  C  5344.82    385.64   5344.19    386.27   5344.19    387.05  " /><path style="stroke-width: 0.85 ;&st7;   " d=" M  5344.19,   387.05  C  5344.19    387.84   5344.82    388.47   5345.61    388.47  " /><path style="stroke-width: 0.85 ;&st7;   " d=" M  5345.61,   388.47  C  5346.39    388.47   5347.02    387.84   5347.02    387.05  " /><path style="stroke-width: 0.85 ;&st7;   " d=" M  5347.02,   364.39  C  5347.02    363.61   5346.39    362.97   5345.61    362.97  " /><path style="stroke-width: 0.85 ;&st7;   " d=" M  5345.61,   362.97  C  5344.82    362.97   5344.19    363.61   5344.19    364.39  " /><path style="stroke-width: 0.85 ;&st7;   " d=" M  5344.19,   364.39  C  5344.19    365.17   5344.82    365.81   5345.61    365.81  " /><path style="stroke-width: 0.85 ;&st7;   " d=" M  5345.61,   365.81  C  5346.39    365.81   5347.02    365.17   5347.02    364.39  " /><path style="stroke-width: 1.42 ;&st7;  " d=" M  5345.61,   385.64  L  5351.27,   362.97  " /><path style="stroke-width: 0.85 ;&st7;  " d=" M  5345.61,   392.72  L  5345.61,   388.47  " /><path style="stroke-width: 0.85 ;&st7;  " d=" M  5345.61,   362.97  L  5345.61,   358.73  " /><path style="stroke-width: 1.42 ;&st7;  " d=" M  5354.10,   392.72  L  5354.10,   358.73  L  5337.11,   358.73  L  5337.11,   392.72  L  5354.10,   392.72  " /><text style="&st18;" transform="matrix(&st16;  5339.42  355.04 )">1</text><g ewd:figtype="title"><text style="&st18;" transform="matrix(&st17;  5361.72  395.62 )">L37</text><text style="&st18;" transform="matrix(&st17;  5368.82  395.63 )" ewd:textID="77">Rear Door Courtesy <tspan x="0 " dy="6.0">Light Switch Assembly RH</tspan></text></g></g><g ewd:figtype="conn" ewd:figID="9" ewd:code="L36"><path style="stroke-width: 0.85 ;&st7;   " d=" M  5287.53,   387.05  C  5287.53    386.27   5286.90    385.64   5286.12    385.64  " /><path style="stroke-width: 0.85 ;&st7;   " d=" M  5286.12,   385.64  C  5285.33    385.64   5284.70    386.27   5284.70    387.05  " /><path style="stroke-width: 0.85 ;&st7;   " d=" M  5284.70,   387.05  C  5284.70    387.84   5285.33    388.47   5286.12    388.47  " /><path style="stroke-width: 0.85 ;&st7;   " d=" M  5286.12,   388.47  C  5286.90    388.47   5287.53    387.84   5287.53    387.05  " /><path style="stroke-width: 0.85 ;&st7;   " d=" M  5287.53,   364.39  C  5287.53    363.61   5286.90    362.97   5286.12    362.97  " /><path style="stroke-width: 0.85 ;&st7;   " d=" M  5286.12,   362.97  C  5285.33    362.97   5284.70    363.61   5284.70    364.39  " /><path style="stroke-width: 0.85 ;&st7;   " d=" M  5284.70,   364.39  C  5284.70    365.17   5285.33    365.81   5286.12    365.81  " /><path style="stroke-width: 0.85 ;&st7;   " d=" M  5286.12,   365.81  C  5286.90    365.81   5287.53    365.17   5287.53    364.39  " /><path style="stroke-width: 1.42 ;&st7;  " d=" M  5286.12,   385.64  L  5291.78,   362.97  " /><path style="stroke-width: 0.85 ;&st7;  " d=" M  5286.12,   392.72  L  5286.12,   388.47  " /><path style="stroke-width: 0.85 ;&st7;  " d=" M  5286.12,   362.97  L  5286.12,   358.73  " /><path style="stroke-width: 1.42 ;&st7;  " d=" M  5294.61,   392.72  L  5294.61,   358.73  L  5277.62,   358.73  L  5277.62,   392.72  L  5294.61,   392.72  " /><text style="&st18;" transform="matrix(&st16;  5279.93  355.04 )">1</text><g ewd:figtype="title"><text style="&st18;" transform="matrix(&st17;  5302.23  395.62 )">L36</text><text style="&st18;" transform="matrix(&st17;  5309.33  395.63 )" ewd:textID="37">Front Door Courtesy <tspan x="0 " dy="6.0">Light Switch Assembly RH</tspan></text></g></g><g ewd:figtype="conn" ewd:figID="23" ewd:code="E31"><g ewd:lineID="101"><text style="&st18;" transform="matrix(&st16;  5274.32  93.27 )">19</text><text style="&st18;" transform="matrix(&st16;  5283.81  93.27 )">A</text><path style="stroke-width: 1.42 ;&st7;   " d=" M  5290.65,    91.30  C  5290.65     88.80   5288.62     86.77   5286.12     86.77  " /><path style="stroke-width: 1.42 ;&st7;   " d=" M  5286.12,    86.77  C  5283.61     86.77   5281.58     88.80   5281.58     91.30  " /><path style="stroke-width: 1.42 ;&st7;   " d=" M  5281.58,    91.30  C  5281.58     93.81   5283.61     95.84   5286.12     95.84  " /><path style="stroke-width: 1.42 ;&st7;   " d=" M  5286.12,    95.84  C  5288.62     95.84   5290.65     93.81   5290.65     91.30  " /><text style="&st18;" transform="matrix(&st16;  5278.03  83.07 )">FRCY</text></g><g ewd:lineID="103"><text style="&st18;" transform="matrix(&st16;  5336.91  93.27 )">6</text><path style="stroke-width: 1.42 ;&st7;   " d=" M  5350.14,    91.30  C  5350.14     88.80   5348.11     86.77   5345.61     86.77  " /><path style="stroke-width: 1.42 ;&st7;   " d=" M  5345.61,    86.77  C  5343.10     86.77   5341.07     88.80   5341.07     91.30  " /><path style="stroke-width: 1.42 ;&st7;   " d=" M  5341.07,    91.30  C  5341.07     93.81   5343.10     95.84   5345.61     95.84  " /><path style="stroke-width: 1.42 ;&st7;   " d=" M  5345.61,    95.84  C  5348.11     95.84   5350.14     93.81   5350.14     91.30  " /><text style="&st18;" transform="matrix(&st16;  5343.3  93.27 )">A</text><text style="&st18;" transform="matrix(&st16;  5337.45  83.07 )">RCTY</text></g><g ewd:lineID="105"><text style="&st18;" transform="matrix(&st16;  5393.3  93.27 )">24</text><path style="stroke-width: 1.42 ;&st7;   " d=" M  5409.63,    91.30  C  5409.63     88.80   5407.60     86.77   5405.10     86.77  " /><path style="stroke-width: 1.42 ;&st7;   " d=" M  5405.10,    86.77  C  5402.59     86.77   5400.56     88.80   5400.56     91.30  " /><path style="stroke-width: 1.42 ;&st7;   " d=" M  5400.56,    91.30  C  5400.56     93.81   5402.59     95.84   5405.10     95.84  " /><path style="stroke-width: 1.42 ;&st7;   " d=" M  5405.10,    95.84  C  5407.60     95.84   5409.63     93.81   5409.63     91.30  " /><text style="&st18;" transform="matrix(&st16;  5402.79  93.27 )">A</text><text style="&st18;" transform="matrix(&st16;  5396.98  83.07 )">LCTY</text></g><g ewd:lineID="97"><text style="&st18;" transform="matrix(&st16;  5061.86  93.27 )">14</text><text style="&st18;" transform="matrix(&st16;  5071.35  93.27 )">A</text><path style="stroke-width: 1.42 ;&st7;   " d=" M  5078.18,    91.30  C  5078.18     88.80   5076.16     86.77   5073.65     86.77  " /><path style="stroke-width: 1.42 ;&st7;   " d=" M  5073.65,    86.77  C  5071.15     86.77   5069.12     88.80   5069.12     91.30  " /><path style="stroke-width: 1.42 ;&st7;   " d=" M  5069.12,    91.30  C  5069.12     93.81   5071.15     95.84   5073.65     95.84  " /><path style="stroke-width: 1.42 ;&st7;   " d=" M  5073.65,    95.84  C  5076.16     95.84   5078.18     93.81   5078.18     91.30  " /><text style="&st18;" transform="matrix(&st16;  5064.87  83.07 )">CANH</text></g><g ewd:lineID="98"><text style="&st18;" transform="matrix(&st16;  5104.35  93.27 )">13</text><path style="stroke-width: 1.42 ;&st7;   " d=" M  5120.68,    91.30  C  5120.68     88.80   5118.65     86.77   5116.15     86.77  " /><path style="stroke-width: 1.42 ;&st7;   " d=" M  5116.15,    86.77  C  5113.64     86.77   5111.61     88.80   5111.61     91.30  " /><path style="stroke-width: 1.42 ;&st7;   " d=" M  5111.61,    91.30  C  5111.61     93.81   5113.64     95.84   5116.15     95.84  " /><path style="stroke-width: 1.42 ;&st7;   " d=" M  5116.15,    95.84  C  5118.65     95.84   5120.68     93.81   5120.68     91.30  " /><text style="&st18;" transform="matrix(&st16;  5113.84  93.27 )">A</text><text style="&st18;" transform="matrix(&st16;  5107.79  83.07 )">CANL</text></g><g ewd:lineID="124"><text style="&st18;" transform="matrix(&st16;  5218.58  83.07 )">FLCY</text></g><g ewd:lineID="126"><text style="&st18;" transform="matrix(&st16;  5464.69  83.07 )">LGCY</text></g></g><g ewd:figtype="jb" ewd:figID="47" ewd:code="10"><path style="stroke-width: 1.42 ;&st7;   " d=" M  5233.00,   125.01  C  5233.00    122.67   5231.10    120.77   5228.75    120.77  " /><path style="stroke-width: 1.42 ;&st7;   " d=" M  5228.75,   129.26  C  5231.10    129.26   5233.00    127.36   5233.00    125.01  " /><path style="stroke-width: 1.42 ;&st7;   " d=" M  5220.25,   125.01  C  5220.25    127.36   5222.16    129.26   5224.50    129.26  " /><path style="stroke-width: 1.42 ;&st7;   " d=" M  5224.50,   120.77  C  5222.16    120.77   5220.25    122.67   5220.25    125.01  " /><path style="stroke-width: 1.42 ;&st7;  " d=" M  5228.75,   129.26  L  5224.50,   129.26  " /><path style="stroke-width: 1.42 ;&st7;  " d=" M  5228.75,   120.77  L  5224.50,   120.77  " /><path style="stroke-width: 0.28 ;&st9;  " d=" M  5226.62,   115.87  L  5223.79,   113.04  L  5223.79,   117.29  L  5226.62,   120.12  L  5229.46,   117.29  L  5229.46,   113.04  L  5226.62,   115.87  " /><path style="stroke-width: 0.85 ;&st7;  " d=" M  5226.62,    86.77  L  5226.62,   120.77  " /><text style="&st18;" transform="matrix(&st16;  5222.97  126.98 )">6E</text><text style="&st18;" transform="matrix(&st16;  5213.02  126.98 )">33</text><text style="&st18;" transform="matrix(&st16;  5220.44  94.96 )">2</text></g><g ewd:figtype="jb" ewd:figID="53" ewd:code="10"><path style="stroke-width: 0.28 ;&st9;  " d=" M  5473.08,   115.87  L  5470.25,   113.04  L  5470.25,   117.29  L  5473.08,   120.12  L  5475.92,   117.29  L  5475.92,   113.04  L  5473.08,   115.87  " /><path style="stroke-width: 0.85 ;&st7;  " d=" M  5473.08,    86.77  L  5473.08,   120.77  " /><path style="stroke-width: 1.42 ;&st7;   " d=" M  5598.44,   125.01  C  5598.44    122.67   5596.54    120.77   5594.19    120.77  " /><path style="stroke-width: 1.42 ;&st7;   " d=" M  5594.19,   129.26  C  5596.54    129.26   5598.44    127.36   5598.44    125.01  " /><path style="stroke-width: 1.42 ;&st7;   " d=" M  5585.69,   125.01  C  5585.69    127.36   5587.59    129.26   5589.94    129.26  " /><path style="stroke-width: 1.42 ;&st7;   " d=" M  5589.94,   120.77  C  5587.59    120.77   5585.69    122.67   5585.69    125.01  " /><path style="stroke-width: 1.42 ;&st7;   " d=" M  5470.96,   120.77  C  5468.61    120.77   5466.71    122.67   5466.71    125.01  " /><path style="stroke-width: 1.42 ;&st7;   " d=" M  5466.71,   125.01  C  5466.71    127.36   5468.61    129.26   5470.96    129.26  " /><path style="stroke-width: 1.42 ;&st7;   " d=" M  5475.21,   129.26  C  5477.56    129.26   5479.46    127.36   5479.46    125.01  " /><path style="stroke-width: 1.42 ;&st7;   " d=" M  5479.46,   125.01  C  5479.46    122.67   5477.56    120.77   5475.21    120.77  " /><path style="stroke-width: 1.42 ;&st7;  " d=" M  5594.19,   120.77  L  5589.94,   120.77  " /><path style="stroke-width: 1.42 ;&st7;  " d=" M  5594.19,   129.26  L  5589.94,   129.26  " /><path style="stroke-width: 1.42 ;&st7;  " d=" M  5475.21,   120.77  L  5470.96,   120.77  " /><path style="stroke-width: 1.42 ;&st7;  " d=" M  5475.21,   129.26  L  5470.96,   129.26  " /><path style="stroke-width: 0.28 ;&st9;  " d=" M  5592.06,   115.87  L  5589.23,   113.04  L  5589.23,   117.29  L  5592.06,   120.12  L  5594.90,   117.29  L  5594.90,   113.04  L  5592.06,   115.87  " /><path style="stroke-width: 0.85 ;&st7;  " d=" M  5592.06,    86.77  L  5592.06,   120.77  " /><text style="&st18;" transform="matrix(&st16;  5463.8  94.96 )">20</text><text style="&st18;" transform="matrix(&st16;  5459.48  126.98 )">38</text><text style="&st18;" transform="matrix(&st16;  5469.42  126.98 )">6E</text><text style="&st18;" transform="matrix(&st16;  5588.09  126.98 )">6C</text><text style="&st18;" transform="matrix(&st16;  5581.56  126.98 )">9</text><text style="&st18;" transform="matrix(&st16;  5582.78  94.96 )">11</text><path style="stroke-width: 1.42 ;&st7;   " d=" M  5555.95,   125.01  C  5555.95    122.67   5554.04    120.77   5551.70    120.77  " /><path style="stroke-width: 1.42 ;&st7;   " d=" M  5551.70,   129.26  C  5554.04    129.26   5555.95    127.36   5555.95    125.01  " /><path style="stroke-width: 1.42 ;&st7;   " d=" M  5543.20,   125.01  C  5543.20    127.36   5545.10    129.26   5547.45    129.26  " /><path style="stroke-width: 1.42 ;&st7;   " d=" M  5547.45,   120.77  C  5545.10    120.77   5543.20    122.67   5543.20    125.01  " /><path style="stroke-width: 1.42 ;&st7;  " d=" M  5551.70,   129.26  L  5547.45,   129.26  " /><path style="stroke-width: 1.42 ;&st7;  " d=" M  5551.70,   120.77  L  5547.45,   120.77  " /><path style="stroke-width: 0.28 ;&st9;  " d=" M  5549.57,   115.87  L  5546.74,   113.04  L  5546.74,   117.29  L  5549.57,   120.12  L  5552.40,   117.29  L  5552.40,   113.04  L  5549.57,   115.87  " /><path style="stroke-width: 0.85 ;&st7;  " d=" M  5549.57,    86.77  L  5549.57,   120.77  " /><text style="&st18;" transform="matrix(&st16;  5545.91  126.98 )">6E</text><text style="&st18;" transform="matrix(&st16;  5535.96  126.98 )">30</text><text style="&st18;" transform="matrix(&st16;  5540.29  94.96 )">12</text></g><g ewd:figtype="w2w" ewd:figID="75" ewd:code="EL4"><path style="stroke-width: 1.42 ;&st7;  " d=" M  5290.36,   248.81  L  5286.11,   244.56  L  5281.87,   248.81  " /><path style="stroke-width: 1.42 ;&st7;  " d=" M  5290.36,   245.41  L  5286.11,   241.16  L  5281.87,   245.41  " /><text style="&st18;" transform="matrix(&st16;  5270.38  237.47 )">12</text></g><g ewd:figtype="w2w" ewd:figID="76" ewd:code="EL4"><path style="stroke-width: 1.42 ;&st7;  " d=" M  5349.85,   248.81  L  5345.60,   244.56  L  5341.36,   248.81  " /><path style="stroke-width: 1.42 ;&st7;  " d=" M  5349.85,   245.41  L  5345.60,   241.16  L  5341.36,   245.41  " /><text style="&st18;" transform="matrix(&st16;  5329.87  237.47 )">13</text></g><g ewd:figtype="w2w" ewd:figID="77" ewd:code="EL1"><path style="stroke-width: 1.42 ;&st7;  " d=" M  5409.34,   248.81  L  5405.09,   244.56  L  5400.85,   248.81  " /><path style="stroke-width: 1.42 ;&st7;  " d=" M  5409.34,   245.41  L  5405.09,   241.16  L  5400.85,   245.41  " /><text style="&st18;" transform="matrix(&st16;  5389.36  237.47 )">19</text></g><g ewd:figtype="gp" ewd:figID="84" ewd:code="LB"><path style="stroke-width: 0.85 ;&st7;  " d=" M  5473.08,   697.25  L  5473.08,   701.50  " /><path style="stroke-width: 0.85 ;&st7;  " d=" M  5464.58,   701.50  L  5481.58,   701.50  " /><path style="stroke-width: 0.85 ;&st7;  " d=" M  5468.83,   704.33  L  5477.33,   704.33  " /><path style="stroke-width: 0.85 ;&st7;  " d=" M  5470.25,   707.17  L  5475.92,   707.17  " /><path style="stroke-width: 0.85 ;&st7;  " d=" M  5471.67,   710.00  L  5474.50,   710.00  " /></g><g ewd:figtype="annex" ewd:figID="107" ewd:code=" "><path style="stroke-width: 0.85 ;&st7;  " d=" M  5225.21,   409.72  L  5228.04,   409.72  " /><path style="stroke-width: 0.85 ;&st7;  " d=" M  5223.79,   406.88  L  5229.46,   406.88  " /><path style="stroke-width: 0.85 ;&st7;  " d=" M  5218.13,   401.22  L  5235.12,   401.22  " /><path style="stroke-width: 0.85 ;&st7;  " d=" M  5222.38,   404.05  L  5230.87,   404.05  " /><path style="stroke-width: 0.85 ;&st7;  " d=" M  5226.62,   392.72  L  5226.62,   401.22  " /></g><g ewd:figtype="annex" ewd:figID="108" ewd:code=" "><path style="stroke-width: 0.85 ;&st7;  " d=" M  5283.28,   406.88  L  5288.95,   406.88  " /><path style="stroke-width: 0.85 ;&st7;  " d=" M  5281.87,   404.05  L  5290.36,   404.05  " /><path style="stroke-width: 0.85 ;&st7;  " d=" M  5277.62,   401.22  L  5294.61,   401.22  " /><path style="stroke-width: 0.85 ;&st7;  " d=" M  5286.11,   392.72  L  5286.11,   401.22  " /><path style="stroke-width: 0.85 ;&st7;  " d=" M  5284.70,   409.72  L  5287.53,   409.72  " /></g><g ewd:figtype="annex" ewd:figID="109" ewd:code=" "><path style="stroke-width: 0.85 ;&st7;  " d=" M  5405.09,   392.72  L  5405.09,   401.22  " /><path style="stroke-width: 0.85 ;&st7;  " d=" M  5403.68,   409.72  L  5406.51,   409.72  " /><path style="stroke-width: 0.85 ;&st7;  " d=" M  5400.85,   404.05  L  5409.34,   404.05  " /><path style="stroke-width: 0.85 ;&st7;  " d=" M  5402.26,   406.88  L  5407.93,   406.88  " /><path style="stroke-width: 0.85 ;&st7;  " d=" M  5396.60,   401.22  L  5413.59,   401.22  " /></g><g ewd:figtype="annex" ewd:figID="110" ewd:code=" "><path style="stroke-width: 0.85 ;&st7;  " d=" M  5342.77,   406.88  L  5348.44,   406.88  " /><path style="stroke-width: 0.85 ;&st7;  " d=" M  5341.36,   404.05  L  5349.85,   404.05  " /><path style="stroke-width: 0.85 ;&st7;  " d=" M  5337.11,   401.22  L  5354.10,   401.22  " /><path style="stroke-width: 0.85 ;&st7;  " d=" M  5345.60,   392.72  L  5345.60,   401.22  " /><path style="stroke-width: 0.85 ;&st7;  " d=" M  5344.19,   409.72  L  5347.02,   409.72  " /></g></svg>