﻿<?xml version="1.0" encoding="utf-8"?>
<!DOCTYPE svg PUBLIC "-//W3C//DTD SVG 1.0//EN" "http://www.w3.org/TR/2001/REC-SVG-20010904/DTD/svg10.dtd"[
	<!ENTITY ns_flows "http://ns.adobe.com/Flows/1.0/">
	<!ENTITY ns_svg "http://www.w3.org/2000/svg">
	<!ENTITY ns_xlink "http://www.w3.org/1999/xlink">
	<!ENTITY st0 "font-size:7px;font-family:'MS-PGothic';adobe-font-script:japanese;">
	<!ENTITY st1 "font-size:6px;font-family:'ArialMT';">
	<!-- White fill  -->
	<!ENTITY st2 "fill:#FFFFFF;stroke:#000000; stroke-width:1.41;stroke-linecap:round;stroke-linejoin:round;">
	<!-- Yellow fill  -->
	<!ENTITY st3 "fill:#FFFFCC;stroke:#FFFFCC; stroke-width:0.1;stroke-linecap:round;stroke-linejoin:round;">
	<!-- Gray fill  -->
	<!ENTITY st4 "fill:#CCCCCC;stroke:#CCCCCC; stroke-width:0.1;stroke-linecap:round;stroke-linejoin:round;">
	<!-- Light-blue fill -->
	<!ENTITY st5 "fill:#CCECF4;stroke:#000000; stroke-width:1.133;stroke-linecap:round;stroke-linejoin:round;">
	<!ENTITY st6 "fill:none;stroke-linecap:butt; stroke-linejoin:round;">
	<!ENTITY st7 "fill:none;stroke:#000000;stroke-linecap:round;stroke-linejoin:round;">
	<!ENTITY st8 "enable-background:new    ;">
	<!-- Black fill -->
	<!ENTITY st9 "fill:#000000;stroke:#000000; stroke-linecap:round;stroke-linejoin:round;">
	<!-- SRS note   -->
	<!ENTITY st10 "font-size:9px;font-family:'ArialMT';">
	<!ENTITY st11 "font-size:9px;font-family:'Svg Symbol';">
	<!ENTITY st12 "font-size:6px;font-family:'Svg Symbol';">
	<!ENTITY st13 "fill:none;stroke:#ff0000;stroke-linecap:round;stroke-linejoin:round;">
	<!-- Yellow fill  -->
	<!ENTITY st14 "fill:#FFFF00;stroke:#FFFF00; stroke-width:0.1;stroke-linecap:round;stroke-linejoin:round;">
	<!ENTITY st15 "font-size:6px;font-family:'MS-PGothic';adobe-font-script:japanese;">
	<!ENTITY st16 "1.00 0.00 0.00 1.00">
	<!ENTITY st17 "0.00 -1.00 1.00 0.00">
	<!ENTITY st18 "font-size:6px;font-family:'Arial';">
	<!ENTITY st19 "font-size:9px;font-family:'Arial';">
	<!ENTITY st20 "font-size:6px;font-family:'MS-PGothic','MS PGothic';adobe-font-script:japanese;">
	<!ENTITY st21 "font-size:7px;font-family:'MS-PGothic','MS PGothic';adobe-font-script:japanese;">
	<!ATTLIST svg
		xmlns:ewd CDATA #FIXED "http://shcl.co.jp/ewd"
		xmlns:a CDATA #FIXED "http://ns.adobe.com/AdobeSVGViewerExtensions/3.0/"
		ewd:ver CDATA #IMPLIED
	>
	<!ATTLIST a
		ewd:lineID CDATA #IMPLIED
		ewd:groupID CDATA #IMPLIED
		ewd:figtype CDATA #IMPLIED
		ewd:code CDATA #IMPLIED
		ewd:figID CDATA #IMPLIED
		ewd:pinNo CDATA #IMPLIED
		ewd:comment CDATA #IMPLIED >
	<!ATTLIST g
		ewd:lineID CDATA #IMPLIED
		ewd:groupID CDATA #IMPLIED
		ewd:figtype CDATA #IMPLIED
		ewd:code CDATA #IMPLIED
		ewd:figID CDATA #IMPLIED
		ewd:pinNo CDATA #IMPLIED
		ewd:comment CDATA #IMPLIED >
	<!ATTLIST text
		ewd:textID CDATA #IMPLIED >
	<!ATTLIST title
		ewd:textID CDATA #IMPLIED >
]>
<!-- Generator: Shintec Hozumi YS   -->
<svg onload="call_execInitLoadProc_svg('system')" style="overflow:visible;  enable-background:new 0 0 7564.261 710.000" viewBox="0 0 7564.261 710.000" height="710.000" width="7564.261" xml:space="preserve" ewd:ver="2.1.2.9" xmlns="&ns_svg;" xmlns:a="http://ns.adobe.com/AdobeSVGViewerExtensions/3.0/" xmlns:ewd="http://shcl.co.jp/ewd" xmlns:xlink="&ns_xlink;">
<path style="stroke-width: 1.42 ;&st7;  " d=" M  3492.92,   503.20  L  3484.42,   503.20  " /><text style="&st18;" transform="matrix(&st17;  3140.78  445.32 )">R</text><text style="&st18;" transform="matrix(&st17;  3480.72  530.39 )">B</text><text style="&st18;" transform="matrix(&st17;  3251.26  445.28 )">L</text><text style="&st18;" transform="matrix(&st17;  3251.26  572.88 )">B</text><text style="&st18;" transform="matrix(&st17;  3353.24  445.28 )">L</text><text style="&st18;" transform="matrix(&st17;  3395.74  445.4 )">Y</text><text style="&st18;" transform="matrix(&st17;  3310.75  572.88 )">B</text><text style="&st18;" transform="matrix(&st17;  3310.75  445.32 )">R</text><text style="&st18;" transform="matrix(&st17;  3480.72  445.4 )">B</text><text style="&st18;" transform="matrix(&st17;  3438.23  296.56 )">L</text><text style="&st18;" transform="matrix(&st17;  3191.77  572.88 )">B</text><text style="&st18;" transform="matrix(&st17;  3191.77  445.28 )">L</text><text style="&st18;" transform="matrix(&st17;  3030.3  437.68 )">W</text><path style="stroke-width: 1.42 ;&st7;  " d=" M  3370.41,   222.75  L  3365.44,   227.72  " /><path style="stroke-width: 1.42 ;&st7;  " d=" M  3377.46,   239.75  L  3382.43,   234.78  " /><path style="stroke-width: 1.42 ;&st7;  " d=" M  3365.44,   234.78  L  3370.41,   239.75  " /><path style="stroke-width: 1.42 ;&st7;  " d=" M  3382.43,   227.72  L  3377.46,   222.75  " /><text style="&st18;" transform="matrix(&st17;  3370.24  194.69 )">B</text><text style="&st18;" transform="matrix(&st16;  3133.79  669.48 )">B</text><text style="&st18;" transform="matrix(&st17;  3370.24  262.68 )">B</text><text style="&st18;" transform="matrix(&st17;  3276.76  147.95 )">B</text><text style="&st18;" transform="matrix(&st17;  3336.25  148.22 )">G</text><text style="&st18;" transform="matrix(&st16;  3082.8  669.48 )">B</text><path style="stroke-width: 1.42 ;&st7;  " d=" M  3263.45,   635.65  L  3258.48,   630.68  " /><path style="stroke-width: 1.42 ;&st7;  " d=" M  3246.46,   642.71  L  3251.43,   647.68  " /><path style="stroke-width: 1.42 ;&st7;  " d=" M  3258.48,   647.68  L  3263.45,   642.71  " /><path style="stroke-width: 1.42 ;&st7;  " d=" M  3251.43,   630.68  L  3246.46,   635.65  " /><text style="&st18;" transform="matrix(&st16;  3328.04  367.78 )">ECM</text><text style="&st18;" transform="matrix(&st16;  3328.03  360.67 )">A40(A),B85(E)</text><g ewd:figtype="conn" ewd:figID="3" ewd:code="A40,B85"><g ewd:lineID="103"><text style="&st18;" transform="matrix(&st16;  3022.23  390.72 )">23</text><text style="&st18;" transform="matrix(&st16;  3031.69  390.72 )">A</text><path style="stroke-width: 1.42 ;&st7;   " d=" M  3038.53,   388.75  C  3038.53    386.25   3036.50    384.22   3033.99    384.22  " /><path style="stroke-width: 1.42 ;&st7;   " d=" M  3033.99,   384.22  C  3031.49    384.22   3029.46    386.25   3029.46    388.75  " /><path style="stroke-width: 1.42 ;&st7;   " d=" M  3029.46,   388.75  C  3029.46    391.26   3031.49    393.29   3033.99    393.29  " /><path style="stroke-width: 1.42 ;&st7;   " d=" M  3033.99,   393.29  C  3036.50    393.29   3038.53    391.26   3038.53    388.75  " /><text style="&st18;" transform="matrix(&st16;  3027.42  380.52 )">NSW</text></g><g ewd:lineID="104"><text style="&st18;" transform="matrix(&st16;  3132.71  390.72 )">60</text><path style="stroke-width: 1.42 ;&st7;   " d=" M  3149.01,   388.75  C  3149.01    386.25   3146.98    384.22   3144.47    384.22  " /><path style="stroke-width: 1.42 ;&st7;   " d=" M  3144.47,   384.22  C  3141.97    384.22   3139.94    386.25   3139.94    388.75  " /><path style="stroke-width: 1.42 ;&st7;   " d=" M  3139.94,   388.75  C  3139.94    391.26   3141.97    393.29   3144.47    393.29  " /><path style="stroke-width: 1.42 ;&st7;   " d=" M  3144.47,   393.29  C  3146.98    393.29   3149.01    391.26   3149.01    388.75  " /><text style="&st18;" transform="matrix(&st16;  3142.17  390.72 )">A</text><text style="&st18;" transform="matrix(&st16;  3138.33  380.52 )">RFC</text></g><g ewd:lineID="106"><text style="&st18;" transform="matrix(&st16;  3183.7  390.72 )">62</text><path style="stroke-width: 1.42 ;&st7;   " d=" M  3200.00,   388.75  C  3200.00    386.25   3197.97    384.22   3195.47    384.22  " /><path style="stroke-width: 1.42 ;&st7;   " d=" M  3195.47,   384.22  C  3192.96    384.22   3190.93    386.25   3190.93    388.75  " /><path style="stroke-width: 1.42 ;&st7;   " d=" M  3190.93,   388.75  C  3190.93    391.26   3192.96    393.29   3195.47    393.29  " /><path style="stroke-width: 1.42 ;&st7;   " d=" M  3195.47,   393.29  C  3197.97    393.29   3200.00    391.26   3200.00    388.75  " /><text style="&st18;" transform="matrix(&st16;  3193.36  390.72 )">E</text><text style="&st18;" transform="matrix(&st16;  3188.55  380.52 )">ACIS</text></g><g ewd:lineID="108"><text style="&st18;" transform="matrix(&st16;  3243.19  390.72 )">33</text><path style="stroke-width: 1.42 ;&st7;   " d=" M  3259.49,   388.75  C  3259.49    386.25   3257.46    384.22   3254.96    384.22  " /><path style="stroke-width: 1.42 ;&st7;   " d=" M  3254.96,   384.22  C  3252.45    384.22   3250.42    386.25   3250.42    388.75  " /><path style="stroke-width: 1.42 ;&st7;   " d=" M  3250.42,   388.75  C  3250.42    391.26   3252.45    393.29   3254.96    393.29  " /><path style="stroke-width: 1.42 ;&st7;   " d=" M  3254.96,   393.29  C  3257.46    393.29   3259.49    391.26   3259.49    388.75  " /><text style="&st18;" transform="matrix(&st16;  3252.85  390.72 )">E</text><text style="&st18;" transform="matrix(&st16;  3248.89  380.52 )">PRG</text></g><g ewd:lineID="113"><text style="&st18;" transform="matrix(&st16;  3302.68  390.72 )">27</text><path style="stroke-width: 1.42 ;&st7;   " d=" M  3318.98,   388.75  C  3318.98    386.25   3316.95    384.22   3314.45    384.22  " /><path style="stroke-width: 1.42 ;&st7;   " d=" M  3314.45,   384.22  C  3311.94    384.22   3309.91    386.25   3309.91    388.75  " /><path style="stroke-width: 1.42 ;&st7;   " d=" M  3309.91,   388.75  C  3309.91    391.26   3311.94    393.29   3314.45    393.29  " /><path style="stroke-width: 1.42 ;&st7;   " d=" M  3314.45,   393.29  C  3316.95    393.29   3318.98    391.26   3318.98    388.75  " /><text style="&st18;" transform="matrix(&st16;  3312.34  390.72 )">E</text><text style="&st18;" transform="matrix(&st16;  3306.29  380.52 )">HA1A</text></g><g ewd:lineID="114"><text style="&st18;" transform="matrix(&st16;  3342.07  390.72 )">132</text><path style="stroke-width: 1.42 ;&st7;   " d=" M  3361.47,   388.75  C  3361.47    386.25   3359.44    384.22   3356.94    384.22  " /><path style="stroke-width: 1.42 ;&st7;   " d=" M  3356.94,   384.22  C  3354.44    384.22   3352.41    386.25   3352.41    388.75  " /><path style="stroke-width: 1.42 ;&st7;   " d=" M  3352.41,   388.75  C  3352.41    391.26   3354.44    393.29   3356.94    393.29  " /><path style="stroke-width: 1.42 ;&st7;   " d=" M  3356.94,   393.29  C  3359.44    393.29   3361.47    391.26   3361.47    388.75  " /><text style="&st18;" transform="matrix(&st16;  3354.83  390.72 )">E</text><text style="&st18;" transform="matrix(&st16;  3349.48  380.52 )">A1A-</text></g><g ewd:lineID="115"><text style="&st18;" transform="matrix(&st16;  3384.56  390.72 )">100</text><text style="&st18;" transform="matrix(&st16;  3397.32  390.72 )">E</text><path style="stroke-width: 1.42 ;&st7;   " d=" M  3403.96,   388.75  C  3403.96    386.25   3401.94    384.22   3399.43    384.22  " /><path style="stroke-width: 1.42 ;&st7;   " d=" M  3399.43,   384.22  C  3396.93    384.22   3394.90    386.25   3394.90    388.75  " /><path style="stroke-width: 1.42 ;&st7;   " d=" M  3394.90,   388.75  C  3394.90    391.26   3396.93    393.29   3399.43    393.29  " /><path style="stroke-width: 1.42 ;&st7;   " d=" M  3399.43,   393.29  C  3401.94    393.29   3403.96    391.26   3403.96    388.75  " /><text style="&st18;" transform="matrix(&st16;  3391.97  380.52 )">A1A+</text></g><g ewd:lineID="116"><text style="&st18;" transform="matrix(&st16;  3430.13  339.16 )">34</text><text style="&st18;" transform="matrix(&st16;  3439.62  339.16 )">A</text><path style="stroke-width: 1.42 ;&st7;   " d=" M  3446.46,   337.20  C  3446.46    334.69   3444.43    332.66   3441.92    332.66  " /><path style="stroke-width: 1.42 ;&st7;   " d=" M  3441.92,   332.66  C  3439.42    332.66   3437.39    334.69   3437.39    337.20  " /><path style="stroke-width: 1.42 ;&st7;   " d=" M  3437.39,   337.20  C  3437.39    339.70   3439.42    341.73   3441.92    341.73  " /><path style="stroke-width: 1.42 ;&st7;   " d=" M  3441.92,   341.73  C  3444.43    341.73   3446.46    339.70   3446.46    337.20  " /><text style="&st18;" transform="matrix(&st16;  3434.89  349.36 )">ELS2</text></g><g ewd:lineID="118"><text style="&st18;" transform="matrix(&st16;  3469.55  390.72 )">122</text><path style="stroke-width: 1.42 ;&st7;   " d=" M  3488.95,   388.75  C  3488.95    386.25   3486.92    384.22   3484.42    384.22  " /><path style="stroke-width: 1.42 ;&st7;   " d=" M  3484.42,   384.22  C  3481.91    384.22   3479.89    386.25   3479.89    388.75  " /><path style="stroke-width: 1.42 ;&st7;   " d=" M  3479.89,   388.75  C  3479.89    391.26   3481.91    393.29   3484.42    393.29  " /><path style="stroke-width: 1.42 ;&st7;   " d=" M  3484.42,   393.29  C  3486.92    393.29   3488.95    391.26   3488.95    388.75  " /><text style="&st18;" transform="matrix(&st16;  3482.31  390.72 )">E</text><text style="&st18;" transform="matrix(&st16;  3476.45  380.52 )">KNK1</text></g></g><g ewd:figtype="rb" ewd:figID="12" ewd:code="FUSE35"><path style="stroke-width: 0.85 ;&st7;  " d=" M  3280.45,    78.27  L  3280.45,    95.27  " /><path style="stroke-width: 1.42 ;&st7;  " d=" M  3282.58,   103.77  L  3278.33,   103.77  " /><path style="stroke-width: 1.42 ;&st7;  " d=" M  3282.58,    95.27  L  3278.33,    95.27  " /><path style="stroke-width: 1.42 ;&st7;   " d=" M  3278.33,    95.27  C  3275.98     95.27   3274.08     97.17   3274.08     99.52  " /><path style="stroke-width: 1.42 ;&st7;   " d=" M  3274.08,    99.52  C  3274.08    101.87   3275.98    103.77   3278.33    103.77  " /><path style="stroke-width: 1.42 ;&st7;   " d=" M  3282.58,   103.77  C  3284.92    103.77   3286.83    101.87   3286.83     99.52  " /><path style="stroke-width: 1.42 ;&st7;   " d=" M  3286.83,    99.52  C  3286.83     97.17   3284.92     95.27   3282.58     95.27  " /><path style="stroke-width: 0.28 ;&st9;  " d=" M  3280.45,    90.37  L  3277.62,    87.54  L  3277.62,    91.79  L  3280.45,    94.62  L  3283.28,    91.79  L  3283.28,    87.54  L  3280.45,    90.37  " /><text style="&st18;" transform="matrix(&st16;  3296.88  56.17 )">30A <tspan x="0 " dy="6.0">DEF</tspan></text><text style="&st18;" transform="matrix(&st16;  3278.65  101.49 )">1</text><text style="&st18;" transform="matrix(&st16;  3274.27  86.47 )">2</text><text style="&st18;" transform="matrix(&st16;  3272.41  32.08 )">(BAT)</text><path style="stroke-width: 0.85 ;&st7;  " d=" M  3280.45,    69.77  L  3280.45,    78.27  " /><path style="stroke-width: 1.42 ;&st7;   " d=" M  3280.45,    47.11  C  3277.71     48.72   3276.80     52.25   3278.42     54.99  " /><path style="stroke-width: 1.42 ;&st7;   " d=" M  3278.42,    54.99  C  3278.93     55.87   3279.57     56.51   3280.45     57.03  " /><path style="stroke-width: 1.42 ;&st7;   " d=" M  3280.45,    66.94  C  3283.19     65.33   3284.10     61.80   3282.49     59.06  " /><path style="stroke-width: 1.42 ;&st7;   " d=" M  3282.49,    59.06  C  3281.97     58.18   3281.33     57.55   3280.45     57.03  " /><path style="stroke-width: 0.85 ;&st7;   " d=" M  3281.87,    45.69  C  3281.87     44.91   3281.23     44.28   3280.45     44.28  " /><path style="stroke-width: 0.85 ;&st7;   " d=" M  3280.45,    44.28  C  3279.67     44.28   3279.04     44.91   3279.04     45.69  " /><path style="stroke-width: 0.85 ;&st7;   " d=" M  3279.04,    45.69  C  3279.04     46.48   3279.67     47.11   3280.45     47.11  " /><path style="stroke-width: 0.85 ;&st7;   " d=" M  3280.45,    47.11  C  3281.23     47.11   3281.87     46.48   3281.87     45.69  " /><path style="stroke-width: 0.85 ;&st7;   " d=" M  3281.87,    68.36  C  3281.87     67.57   3281.23     66.94   3280.45     66.94  " /><path style="stroke-width: 0.85 ;&st7;   " d=" M  3280.45,    66.94  C  3279.67     66.94   3279.04     67.57   3279.04     68.36  " /><path style="stroke-width: 0.85 ;&st7;   " d=" M  3279.04,    68.36  C  3279.04     69.14   3279.67     69.77   3280.45     69.77  " /><path style="stroke-width: 0.85 ;&st7;   " d=" M  3280.45,    69.77  C  3281.23     69.77   3281.87     69.14   3281.87     68.36  " /><path style="stroke-width: 1.42 ;&st7;  " d=" M  3267.70,    35.78  L  3267.70,    78.27  L  3293.20,    78.27  L  3293.20,    35.78  L  3267.70,    35.78  " /></g><g ewd:figtype="rb" ewd:figID="13" ewd:code="1"><path style="stroke-width: 1.42 ;&st7;  " d=" M  3282.58,   180.26  L  3278.33,   180.26  " /><path style="stroke-width: 1.42 ;&st7;  " d=" M  3282.58,   188.75  L  3278.33,   188.75  " /><path style="stroke-width: 1.42 ;&st7;  " d=" M  3308.07,   180.26  L  3303.82,   180.26  " /><path style="stroke-width: 1.42 ;&st7;  " d=" M  3308.07,   188.75  L  3303.82,   188.75  " /><path style="stroke-width: 1.42 ;&st7;  " d=" M  3282.58,   256.74  L  3278.33,   256.74  " /><path style="stroke-width: 1.42 ;&st7;  " d=" M  3282.58,   265.24  L  3278.33,   265.24  " /><path style="stroke-width: 1.42 ;&st7;   " d=" M  3278.33,   180.26  C  3275.98    180.26   3274.08    182.16   3274.08    184.50  " /><path style="stroke-width: 1.42 ;&st7;   " d=" M  3274.08,   184.50  C  3274.08    186.85   3275.98    188.75   3278.33    188.75  " /><path style="stroke-width: 1.42 ;&st7;   " d=" M  3282.58,   188.75  C  3284.92    188.75   3286.83    186.85   3286.83    184.50  " /><path style="stroke-width: 1.42 ;&st7;   " d=" M  3286.83,   184.50  C  3286.83    182.16   3284.92    180.26   3282.58    180.26  " /><path style="stroke-width: 1.42 ;&st7;   " d=" M  3303.82,   180.26  C  3301.48    180.26   3299.57    182.16   3299.57    184.50  " /><path style="stroke-width: 1.42 ;&st7;   " d=" M  3299.57,   184.50  C  3299.57    186.85   3301.48    188.75   3303.82    188.75  " /><path style="stroke-width: 1.42 ;&st7;   " d=" M  3308.07,   188.75  C  3310.42    188.75   3312.32    186.85   3312.32    184.50  " /><path style="stroke-width: 1.42 ;&st7;   " d=" M  3312.32,   184.50  C  3312.32    182.16   3310.42    180.26   3308.07    180.26  " /><path style="stroke-width: 1.42 ;&st7;   " d=" M  3278.33,   256.74  C  3275.98    256.74   3274.08    258.64   3274.08    260.99  " /><path style="stroke-width: 1.42 ;&st7;   " d=" M  3274.08,   260.99  C  3274.08    263.34   3275.98    265.24   3278.33    265.24  " /><path style="stroke-width: 1.42 ;&st7;   " d=" M  3282.58,   265.24  C  3284.92    265.24   3286.83    263.34   3286.83    260.99  " /><path style="stroke-width: 1.42 ;&st7;   " d=" M  3286.83,   260.99  C  3286.83    258.64   3284.92    256.74   3282.58    256.74  " /><path style="stroke-width: 1.42 ;&st7;   " d=" M  3254.96,   239.75  C  3252.74    237.92   3249.61    237.98   3247.47    239.89  " /><path style="stroke-width: 1.42 ;&st7;   " d=" M  3305.95,   256.74  C  3308.16    258.56   3311.29    258.51   3313.43    256.60  " /><path style="stroke-width: 1.42 ;&st7;   " d=" M  3305.95,   256.74  C  3303.74    254.92   3300.60    254.98   3298.46    256.88  " /><path style="stroke-width: 1.42 ;&st7;   " d=" M  3254.96,   239.75  C  3257.17    241.57   3260.30    241.51   3262.44    239.60  " /><path style="stroke-width: 0.28 ;&st9;  " d=" M  3280.45,   193.65  L  3283.28,   196.48  L  3283.28,   192.23  L  3280.45,   189.40  L  3277.62,   192.23  L  3277.62,   196.48  L  3280.45,   193.65  " /><path style="stroke-width: 0.28 ;&st9;  " d=" M  3305.95,   193.65  L  3308.78,   196.48  L  3308.78,   192.23  L  3305.95,   189.40  L  3303.11,   192.23  L  3303.11,   196.48  L  3305.95,   193.65  " /><path style="stroke-width: 0.28 ;&st9;  " d=" M  3280.45,   251.85  L  3277.62,   249.01  L  3277.62,   253.26  L  3280.45,   256.10  L  3283.28,   253.26  L  3283.28,   249.01  L  3280.45,   251.85  " /><path style="stroke-width: 0.85 ;&st7;  " d=" M  3305.95,   239.75  L  3305.95,   256.74  " /><path style="stroke-width: 0.85 ;&st7;  " d=" M  3280.45,   239.75  L  3280.45,   256.74  " /><path style="stroke-width: 0.85 ;&st7;  " d=" M  3280.45,   188.75  L  3280.45,   205.75  " /><path style="stroke-width: 0.85 ;&st7;  " d=" M  3271.95,   222.75  L  3254.95,   222.75  L  3254.95,   239.75  " /><path style="stroke-width: 0.85 ;&st7;  " d=" M  3305.95,   205.75  L  3305.95,   188.75  " /><text style="&st18;" transform="matrix(&st16;  3274.27  247.94 )">3</text><text style="&st18;" transform="matrix(&st16;  3299.76  247.94 )">2</text><text style="&st18;" transform="matrix(&st16;  3265.77  219.06 )">4</text><text style="&st18;" transform="matrix(&st16;  3274.27  202.06 )">5</text><text style="&st18;" transform="matrix(&st16;  3299.76  202.06 )">1</text><text style="&st18;" transform="matrix(&st16;  3278.65  186.47 )">1</text><text style="&st18;" transform="matrix(&st16;  3304.15  186.47 )">1</text><text style="&st18;" transform="matrix(&st16;  3278.65  262.96 )">1</text><text style="&st18;" transform="matrix(&st16;  3316.71  221.89 )" ewd:textID="20">DEF <tspan x="0 " dy="6.0">Relay</tspan></text><path style="stroke-width: 1.42 ;&st7;  " d=" M  3280.45,   232.66  L  3274.79,   210.00  " /><path style="stroke-width: 0.85 ;&st7;  " d=" M  3280.45,   235.50  L  3280.45,   239.75  " /><path style="stroke-width: 0.85 ;&st7;  " d=" M  3271.95,   222.75  L  3274.79,   222.75  " /><path style="stroke-width: 0.85 ;&st7;  " d=" M  3280.45,   205.75  L  3280.45,   210.00  " /><path style="stroke-width: 0.85 ;&st7;  " d=" M  3305.95,   205.75  L  3305.95,   214.25  " /><path style="stroke-width: 0.85 ;&st7;  " d=" M  3305.95,   231.25  L  3305.95,   239.75  " /><path style="stroke-width: 0.85 ;&st7;   " d=" M  3277.62,   222.75  C  3277.62    221.97   3276.98    221.33   3276.20    221.33  " /><path style="stroke-width: 0.85 ;&st7;   " d=" M  3276.20,   221.33  C  3275.42    221.33   3274.79    221.97   3274.79    222.75  " /><path style="stroke-width: 0.85 ;&st7;   " d=" M  3274.79,   222.75  C  3274.79    223.53   3275.42    224.16   3276.20    224.16  " /><path style="stroke-width: 0.85 ;&st7;   " d=" M  3276.20,   224.16  C  3276.98    224.16   3277.62    223.53   3277.62    222.75  " /><path style="stroke-width: 0.85 ;&st7;   " d=" M  3281.87,   234.08  C  3281.87    233.30   3281.23    232.66   3280.45    232.66  " /><path style="stroke-width: 0.85 ;&st7;   " d=" M  3280.45,   232.66  C  3279.67    232.66   3279.04    233.30   3279.04    234.08  " /><path style="stroke-width: 0.85 ;&st7;   " d=" M  3279.04,   234.08  C  3279.04    234.86   3279.67    235.50   3280.45    235.50  " /><path style="stroke-width: 0.85 ;&st7;   " d=" M  3280.45,   235.50  C  3281.23    235.50   3281.87    234.86   3281.87    234.08  " /><path style="stroke-width: 0.85 ;&st7;   " d=" M  3281.87,   211.42  C  3281.87    210.63   3281.23    210.00   3280.45    210.00  " /><path style="stroke-width: 0.85 ;&st7;   " d=" M  3280.45,   210.00  C  3279.67    210.00   3279.04    210.63   3279.04    211.42  " /><path style="stroke-width: 0.85 ;&st7;   " d=" M  3279.04,   211.42  C  3279.04    212.20   3279.67    212.83   3280.45    212.83  " /><path style="stroke-width: 0.85 ;&st7;   " d=" M  3280.45,   212.83  C  3281.23    212.83   3281.87    212.20   3281.87    211.42  " /><path style="stroke-width: 0.85 ;&st7;   " d=" M  3303.42,   220.27  C  3304.79    221.67   3307.03    221.69   3308.43    220.32  " /><path style="stroke-width: 0.85 ;&st7;   " d=" M  3308.43,   220.32  C  3309.82    218.95   3309.85    216.71   3308.48    215.31  " /><path style="stroke-width: 0.85 ;&st7;   " d=" M  3308.48,   215.31  C  3307.78    214.60   3306.94    214.25   3305.95    214.25  " /><path style="stroke-width: 0.85 ;&st7;   " d=" M  3303.42,   225.23  C  3304.79    226.62   3307.03    226.65   3308.43    225.28  " /><path style="stroke-width: 0.85 ;&st7;   " d=" M  3308.43,   225.28  C  3309.82    223.91   3309.85    221.67   3308.48    220.27  " /><path style="stroke-width: 0.85 ;&st7;   " d=" M  3308.48,   220.27  C  3307.11    218.87   3304.87    218.85   3303.47    220.22  " /><path style="stroke-width: 0.85 ;&st7;   " d=" M  3303.47,   220.22  C  3303.45    220.24   3303.44    220.25   3303.42    220.27  " /><path style="stroke-width: 0.85 ;&st7;   " d=" M  3305.95,   231.25  C  3307.90    231.25   3309.49    229.66   3309.49    227.71  " /><path style="stroke-width: 0.85 ;&st7;   " d=" M  3309.49,   227.71  C  3309.49    225.75   3307.90    224.16   3305.95    224.16  " /><path style="stroke-width: 0.85 ;&st7;   " d=" M  3305.95,   224.16  C  3304.96    224.16   3304.11    224.52   3303.42    225.23  " /><path style="stroke-width: 1.42 ;&st7;  " d=" M  3271.95,   205.75  L  3314.44,   205.75  L  3314.44,   239.75  L  3271.95,   239.75  L  3271.95,   205.75  " /></g><g ewd:figtype="rb" ewd:figID="14" ewd:code="FUSE4"><path style="stroke-width: 1.42 ;&st7;  " d=" M  3444.05,   273.74  L  3439.80,   273.74  " /><path style="stroke-width: 1.42 ;&st7;  " d=" M  3444.05,   265.24  L  3439.80,   265.24  " /><path style="stroke-width: 0.85 ;&st7;  " d=" M  3441.92,   248.24  L  3441.92,   265.24  " /><path style="stroke-width: 1.42 ;&st7;  " d=" M  3444.05,   180.26  L  3439.80,   180.26  " /><path style="stroke-width: 1.42 ;&st7;  " d=" M  3444.05,   188.75  L  3439.80,   188.75  " /><path style="stroke-width: 1.42 ;&st7;   " d=" M  3439.80,   265.24  C  3437.45    265.24   3435.55    267.14   3435.55    269.49  " /><path style="stroke-width: 1.42 ;&st7;   " d=" M  3435.55,   269.49  C  3435.55    271.84   3437.45    273.74   3439.80    273.74  " /><path style="stroke-width: 1.42 ;&st7;   " d=" M  3444.05,   273.74  C  3446.40    273.74   3448.30    271.84   3448.30    269.49  " /><path style="stroke-width: 1.42 ;&st7;   " d=" M  3448.30,   269.49  C  3448.30    267.14   3446.40    265.24   3444.05    265.24  " /><path style="stroke-width: 1.42 ;&st7;   " d=" M  3439.80,   180.26  C  3437.45    180.26   3435.55    182.16   3435.55    184.50  " /><path style="stroke-width: 1.42 ;&st7;   " d=" M  3435.55,   184.50  C  3435.55    186.85   3437.45    188.75   3439.80    188.75  " /><path style="stroke-width: 1.42 ;&st7;   " d=" M  3444.05,   188.75  C  3446.40    188.75   3448.30    186.85   3448.30    184.50  " /><path style="stroke-width: 1.42 ;&st7;   " d=" M  3448.30,   184.50  C  3448.30    182.16   3446.40    180.26   3444.05    180.26  " /><path style="stroke-width: 0.28 ;&st9;  " d=" M  3441.92,   260.35  L  3439.09,   257.51  L  3439.09,   261.76  L  3441.92,   264.60  L  3444.76,   261.76  L  3444.76,   257.51  L  3441.92,   260.35  " /><path style="stroke-width: 0.28 ;&st9;  " d=" M  3441.92,   193.65  L  3444.76,   196.48  L  3444.76,   192.23  L  3441.92,   189.40  L  3439.09,   192.23  L  3439.09,   196.48  L  3441.92,   193.65  " /><path style="stroke-width: 0.85 ;&st7;  " d=" M  3441.92,   188.75  L  3441.92,   205.75  " /><text style="&st18;" transform="matrix(&st16;  3458.35  226.14 )">10A <tspan x="0 " dy="6.0">DEF-S</tspan></text><text style="&st18;" transform="matrix(&st16;  3440.12  271.46 )">1</text><text style="&st18;" transform="matrix(&st16;  3435.74  256.44 )">2</text><text style="&st18;" transform="matrix(&st16;  3440.12  186.47 )">1</text><text style="&st18;" transform="matrix(&st16;  3435.74  202.06 )">1</text><path style="stroke-width: 0.85 ;&st7;  " d=" M  3441.92,   239.75  L  3441.92,   248.24  " /><path style="stroke-width: 1.42 ;&st7;   " d=" M  3441.92,   217.08  C  3439.19    218.70   3438.28    222.22   3439.89    224.96  " /><path style="stroke-width: 1.42 ;&st7;   " d=" M  3439.89,   224.96  C  3440.41    225.84   3441.04    226.48   3441.92    227.00  " /><path style="stroke-width: 1.42 ;&st7;   " d=" M  3441.92,   236.91  C  3444.66    235.30   3445.57    231.77   3443.96    229.03  " /><path style="stroke-width: 1.42 ;&st7;   " d=" M  3443.96,   229.03  C  3443.44    228.15   3442.81    227.52   3441.92    227.00  " /><path style="stroke-width: 0.85 ;&st7;   " d=" M  3443.34,   215.67  C  3443.34    214.88   3442.71    214.25   3441.92    214.25  " /><path style="stroke-width: 0.85 ;&st7;   " d=" M  3441.92,   214.25  C  3441.14    214.25   3440.51    214.88   3440.51    215.67  " /><path style="stroke-width: 0.85 ;&st7;   " d=" M  3440.51,   215.67  C  3440.51    216.45   3441.14    217.08   3441.92    217.08  " /><path style="stroke-width: 0.85 ;&st7;   " d=" M  3441.92,   217.08  C  3442.71    217.08   3443.34    216.45   3443.34    215.67  " /><path style="stroke-width: 0.85 ;&st7;   " d=" M  3443.34,   238.33  C  3443.34    237.55   3442.71    236.91   3441.92    236.91  " /><path style="stroke-width: 0.85 ;&st7;   " d=" M  3441.92,   236.91  C  3441.14    236.91   3440.51    237.55   3440.51    238.33  " /><path style="stroke-width: 0.85 ;&st7;   " d=" M  3440.51,   238.33  C  3440.51    239.11   3441.14    239.75   3441.92    239.75  " /><path style="stroke-width: 0.85 ;&st7;   " d=" M  3441.92,   239.75  C  3442.71    239.75   3443.34    239.11   3443.34    238.33  " /><path style="stroke-width: 1.42 ;&st7;  " d=" M  3429.18,   205.75  L  3429.18,   248.24  L  3454.67,   248.24  L  3454.67,   205.75  L  3429.18,   205.75  " /><path style="stroke-width: 0.85 ;&st7;  " d=" M  3441.92,   205.75  L  3441.92,   214.25  " /></g><g ewd:figtype="conn" ewd:figID="45" ewd:code="A31"><path style="stroke-width: 1.42 ;&st7;  " d=" M  3127.48,   486.20  L  3127.48,   520.20  L  3161.47,   520.20  L  3161.47,   486.20  L  3127.48,   486.20  " /><text style="&st18;" transform="matrix(&st16;  3135.78  483.64 )">2</text><path style="stroke-width: 1.42 ;&st7;   " d=" M  3149.01,   481.67  C  3149.01    479.17   3146.98    477.14   3144.47    477.14  " /><path style="stroke-width: 1.42 ;&st7;   " d=" M  3144.47,   477.14  C  3141.97    477.14   3139.94    479.17   3139.94    481.67  " /><path style="stroke-width: 1.42 ;&st7;   " d=" M  3139.94,   481.67  C  3139.94    484.17   3141.97    486.20   3144.47    486.20  " /><path style="stroke-width: 1.42 ;&st7;   " d=" M  3144.47,   486.20  C  3146.98    486.20   3149.01    484.17   3149.01    481.67  " /><text style="&st18;" transform="matrix(&st16;  3142.17  483.64 )">A</text><text style="&st18;" transform="matrix(&st16;  3141.78  493.84 )">SI</text><g ewd:figtype="title"><text style="&st18;" transform="matrix(&st16;  3124.06  528.09 )">A31(A)</text><text style="&st18;" transform="matrix(&st16;  3124.07  534.92 )" ewd:textID="18">Cooling Fan <tspan x="0 " dy="6.0">ECU</tspan></text></g></g><g ewd:figtype="conn" ewd:figID="46" ewd:code="B42"><path style="stroke-width: 0.85 ;&st7;  " d=" M  3195.47,   528.70  L  3195.47,   537.20  " /><path style="stroke-width: 0.85 ;&st7;  " d=" M  3195.47,   503.20  L  3195.47,   511.70  " /><path style="stroke-width: 0.85 ;&st7;   " d=" M  3192.94,   517.72  C  3194.31    519.12   3196.55    519.14   3197.94    517.77  " /><path style="stroke-width: 0.85 ;&st7;   " d=" M  3197.94,   517.77  C  3199.34    516.40   3199.36    514.16   3198.00    512.76  " /><path style="stroke-width: 0.85 ;&st7;   " d=" M  3198.00,   512.76  C  3197.30    512.05   3196.46    511.70   3195.47    511.70  " /><path style="stroke-width: 0.85 ;&st7;   " d=" M  3192.94,   522.68  C  3194.31    524.07   3196.55    524.10   3197.94    522.73  " /><path style="stroke-width: 0.85 ;&st7;   " d=" M  3197.94,   522.73  C  3199.34    521.36   3199.36    519.12   3198.00    517.72  " /><path style="stroke-width: 0.85 ;&st7;   " d=" M  3198.00,   517.72  C  3196.63    516.32   3194.38    516.30   3192.99    517.67  " /><path style="stroke-width: 0.85 ;&st7;   " d=" M  3192.99,   517.67  C  3192.97    517.69   3192.95    517.70   3192.94    517.72  " /><path style="stroke-width: 0.85 ;&st7;   " d=" M  3195.47,   528.70  C  3197.42    528.70   3199.01    527.11   3199.01    525.16  " /><path style="stroke-width: 0.85 ;&st7;   " d=" M  3199.01,   525.16  C  3199.01    523.20   3197.42    521.61   3195.47    521.61  " /><path style="stroke-width: 0.85 ;&st7;   " d=" M  3195.47,   521.61  C  3194.48    521.61   3193.63    521.97   3192.94    522.68  " /><path style="stroke-width: 1.42 ;&st7;  " d=" M  3203.96,   537.20  L  3203.96,   503.20  L  3186.97,   503.20  L  3186.97,   537.20  L  3203.96,   537.20  " /><text style="&st18;" transform="matrix(&st16;  3189.28  545.39 )">2</text><text style="&st18;" transform="matrix(&st16;  3189.28  499.51 )">1</text><g ewd:figtype="title"><text style="&st18;" transform="matrix(&st17;  3211.86  540.09 )">B42</text><text style="&st18;" transform="matrix(&st17;  3218.68  540.1 )" ewd:textID="48">No. 1 Vacuum Switching <tspan x="0 " dy="6.0">Valve Assembly (ACIS)</tspan></text></g></g><g ewd:figtype="conn" ewd:figID="47" ewd:code="B19"><path style="stroke-width: 0.85 ;&st7;  " d=" M  3254.96,   528.70  L  3254.96,   537.20  " /><path style="stroke-width: 0.85 ;&st7;  " d=" M  3254.96,   503.20  L  3254.96,   511.70  " /><path style="stroke-width: 0.85 ;&st7;   " d=" M  3254.96,   528.70  C  3256.91    528.70   3258.50    527.11   3258.50    525.16  " /><path style="stroke-width: 0.85 ;&st7;   " d=" M  3258.50,   525.16  C  3258.50    523.20   3256.91    521.61   3254.96    521.61  " /><path style="stroke-width: 0.85 ;&st7;   " d=" M  3254.96,   521.61  C  3253.97    521.61   3253.12    521.97   3252.43    522.68  " /><path style="stroke-width: 0.85 ;&st7;   " d=" M  3252.43,   522.68  C  3253.80    524.07   3256.04    524.10   3257.43    522.73  " /><path style="stroke-width: 0.85 ;&st7;   " d=" M  3257.43,   522.73  C  3258.83    521.36   3258.85    519.12   3257.49    517.72  " /><path style="stroke-width: 0.85 ;&st7;   " d=" M  3257.49,   517.72  C  3256.12    516.32   3253.87    516.30   3252.48    517.67  " /><path style="stroke-width: 0.85 ;&st7;   " d=" M  3252.48,   517.67  C  3252.46    517.69   3252.44    517.70   3252.43    517.72  " /><path style="stroke-width: 0.85 ;&st7;   " d=" M  3252.43,   517.72  C  3253.80    519.12   3256.04    519.14   3257.43    517.77  " /><path style="stroke-width: 0.85 ;&st7;   " d=" M  3257.43,   517.77  C  3258.83    516.40   3258.85    514.16   3257.49    512.76  " /><path style="stroke-width: 0.85 ;&st7;   " d=" M  3257.49,   512.76  C  3256.79    512.05   3255.95    511.70   3254.96    511.70  " /><path style="stroke-width: 1.42 ;&st7;  " d=" M  3263.45,   537.20  L  3263.45,   503.20  L  3246.46,   503.20  L  3246.46,   537.20  L  3263.45,   537.20  " /><text style="&st18;" transform="matrix(&st16;  3248.77  545.39 )">2</text><text style="&st18;" transform="matrix(&st16;  3248.77  499.51 )">1</text><g ewd:figtype="title"><text style="&st18;" transform="matrix(&st17;  3278.17  540.1 )" ewd:textID="57">Purge VSV (No. 1 Vacuum <tspan x="0 " dy="6.0">Switching Valve Assembly)</tspan></text><text style="&st18;" transform="matrix(&st17;  3271.35  540.09 )">B19</text></g></g><g ewd:figtype="conn" ewd:figID="48" ewd:code="B17"><path style="stroke-width: 1.42 ;&st7;  " d=" M  3297.45,   511.70  L  3297.45,   545.69  L  3416.43,   545.69  L  3416.43,   511.70  L  3297.45,   511.70  " /><g ewd:lineID="109"><text style="&st18;" transform="matrix(&st16;  3308.26  553.89 )">2</text><text style="&st18;" transform="matrix(&st16;  3310.71  542.0 )">+B</text></g><g ewd:lineID="113"><text style="&st18;" transform="matrix(&st16;  3308.26  508.01 )">1</text><text style="&st18;" transform="matrix(&st16;  3306.29  519.33 )">HA1A</text></g><g ewd:lineID="114"><text style="&st18;" transform="matrix(&st16;  3350.75  508.01 )">4</text><text style="&st18;" transform="matrix(&st16;  3349.48  519.33 )">A1A-</text></g><g ewd:lineID="115"><text style="&st18;" transform="matrix(&st16;  3393.25  508.01 )">3</text><text style="&st18;" transform="matrix(&st16;  3391.97  519.33 )">A1A+</text></g><g ewd:figtype="title"><text style="&st18;" transform="matrix(&st16;  3328.04  560.41 )" ewd:textID="5">Air Fuel Ratio Sensor <tspan x="0 " dy="6.0">(Bank 1 Sensor 1)</tspan></text><text style="&st18;" transform="matrix(&st16;  3328.03  553.3 )">B17</text></g></g><g ewd:figtype="jb" ewd:figID="92" ewd:code="3"><path style="stroke-width: 0.85 ;&st7;  " d=" M  3339.94,    69.77  L  3339.94,    78.27  " /><path style="stroke-width: 1.42 ;&st7;  " d=" M  3342.07,    95.27  L  3337.82,    95.27  " /><path style="stroke-width: 1.42 ;&st7;  " d=" M  3342.07,   103.77  L  3337.82,   103.77  " /><path style="stroke-width: 0.85 ;&st7;  " d=" M  3339.94,    78.27  L  3339.94,    95.27  " /><path style="stroke-width: 1.42 ;&st7;   " d=" M  3339.94,    47.11  C  3337.20     48.72   3336.29     52.25   3337.91     54.99  " /><path style="stroke-width: 1.42 ;&st7;   " d=" M  3337.91,    54.99  C  3338.42     55.87   3339.06     56.51   3339.94     57.03  " /><path style="stroke-width: 1.42 ;&st7;   " d=" M  3339.94,    66.94  C  3342.68     65.33   3343.59     61.80   3341.98     59.06  " /><path style="stroke-width: 1.42 ;&st7;   " d=" M  3341.98,    59.06  C  3341.46     58.18   3340.82     57.55   3339.94     57.03  " /><path style="stroke-width: 0.85 ;&st7;   " d=" M  3341.36,    45.69  C  3341.36     44.91   3340.72     44.28   3339.94     44.28  " /><path style="stroke-width: 0.85 ;&st7;   " d=" M  3339.94,    44.28  C  3339.16     44.28   3338.53     44.91   3338.53     45.69  " /><path style="stroke-width: 0.85 ;&st7;   " d=" M  3338.53,    45.69  C  3338.53     46.48   3339.16     47.11   3339.94     47.11  " /><path style="stroke-width: 0.85 ;&st7;   " d=" M  3339.94,    47.11  C  3340.72     47.11   3341.36     46.48   3341.36     45.69  " /><path style="stroke-width: 0.85 ;&st7;   " d=" M  3341.36,    68.36  C  3341.36     67.57   3340.72     66.94   3339.94     66.94  " /><path style="stroke-width: 0.85 ;&st7;   " d=" M  3339.94,    66.94  C  3339.16     66.94   3338.53     67.57   3338.53     68.36  " /><path style="stroke-width: 0.85 ;&st7;   " d=" M  3338.53,    68.36  C  3338.53     69.14   3339.16     69.77   3339.94     69.77  " /><path style="stroke-width: 0.85 ;&st7;   " d=" M  3339.94,    69.77  C  3340.72     69.77   3341.36     69.14   3341.36     68.36  " /><path style="stroke-width: 1.42 ;&st7;   " d=" M  3337.82,    95.27  C  3335.47     95.27   3333.57     97.17   3333.57     99.52  " /><path style="stroke-width: 1.42 ;&st7;   " d=" M  3333.57,    99.52  C  3333.57    101.87   3335.47    103.77   3337.82    103.77  " /><path style="stroke-width: 1.42 ;&st7;   " d=" M  3342.07,   103.77  C  3344.41    103.77   3346.32    101.87   3346.32     99.52  " /><path style="stroke-width: 1.42 ;&st7;   " d=" M  3346.32,    99.52  C  3346.32     97.17   3344.41     95.27   3342.07     95.27  " /><path style="stroke-width: 0.28 ;&st9;  " d=" M  3339.94,    90.37  L  3337.11,    87.54  L  3337.11,    91.79  L  3339.94,    94.62  L  3342.77,    91.79  L  3342.77,    87.54  L  3339.94,    90.37  " /><path style="stroke-width: 1.42 ;&st7;  " d=" M  3327.19,    35.78  L  3327.19,    78.27  L  3352.69,    78.27  L  3352.69,    35.78  L  3327.19,    35.78  " /><text style="&st18;" transform="matrix(&st16;  3356.37  56.17 )">7.5A <tspan x="0 " dy="6.0">HTR-IG</tspan></text><text style="&st18;" transform="matrix(&st16;  3336.09  101.49 )">3A</text><text style="&st18;" transform="matrix(&st16;  3326.33  101.49 )">50</text><text style="&st18;" transform="matrix(&st16;  3333.76  86.47 )">2</text><text style="&st18;" transform="matrix(&st16;  3334.73  32.08 )">(IG)</text></g><g ewd:figtype="w2w" ewd:figID="116" ewd:code="BD1"><path style="stroke-width: 1.42 ;&st7;  " d=" M  3488.67,   512.27  L  3484.42,   508.02  L  3480.17,   512.27  " /><path style="stroke-width: 1.42 ;&st7;  " d=" M  3488.67,   508.87  L  3484.42,   504.62  L  3480.17,   508.87  " /><text style="&st18;" transform="matrix(&st16;  3471.79  500.92 )">2</text></g><g ewd:code=" " ewd:figID="172" ewd:comment=" " ewd:figtype="sh"><path style="stroke-width: 0.85 ;&st7; stroke-dasharray:3, 1.5;" d=" M  3433.42,   460.71  L  3433.42,   426.71  L  3339.94,   426.71  L  3339.94,   460.71  L  3433.42,   460.71  " /><path style="stroke-width: 0.85 ;&st7;  " d=" M  3432.23,   459.71  L  3431.96,   460.18  L  3431.87,   460.71  L  3431.96,   461.24  L  3432.23,   461.71  L  3432.65,   462.06  L  3433.16,   462.24  L  3433.69,   462.24  L  3434.20,   462.06  L  3434.62,   461.71  L  3434.89,   461.24  L  3434.98,   460.71  L  3434.89,   460.18  L  3434.62,   459.71  L  3434.20,   459.36  L  3433.69,   459.17  L  3433.16,   459.17  L  3432.65,   459.36  L  3432.23,   459.71  L  3432.63,   460.42  L  3432.63,   461.00  L  3433.00,   461.44  L  3433.57,   461.54  L  3434.08,   461.26  L  3434.27,   460.71  L  3434.08,   460.16  L  3433.57,   459.87  L  3433.00,   459.97  L  3433.42,   460.71  " /><g ewd:code="" ewd:figID="175" ewd:comment=" " ewd:figtype="commref"><text style="&st18;" transform="matrix(&st17;  3336.25  455.95 )" ewd:textID="1">(Shielded)</text></g></g><g ewd:code=" " ewd:figID="171" ewd:comment=" " ewd:figtype="sh"><path style="stroke-width: 0.85 ;&st7; stroke-dasharray:3, 1.5;" d=" M  3560.90,   460.71  L  3467.42,   460.71  L  3467.42,   426.71  L  3569.40,   426.71  L  3569.40,   452.21  " /><g ewd:code="" ewd:figID="173" ewd:comment=" " ewd:figtype="commref"><text style="&st18;" transform="matrix(&st17;  3463.73  455.95 )" ewd:textID="1">(Shielded)</text></g></g></svg>