﻿<?xml version="1.0" encoding="utf-8"?>
<!DOCTYPE svg PUBLIC "-//W3C//DTD SVG 1.0//EN" "http://www.w3.org/TR/2001/REC-SVG-20010904/DTD/svg10.dtd"[
	<!ENTITY ns_flows "http://ns.adobe.com/Flows/1.0/">
	<!ENTITY ns_svg "http://www.w3.org/2000/svg">
	<!ENTITY ns_xlink "http://www.w3.org/1999/xlink">
	<!ENTITY st0 "font-size:7px;font-family:'MS-PGothic';adobe-font-script:japanese;">
	<!ENTITY st1 "font-size:6px;font-family:'ArialMT';">
	<!-- White fill  -->
	<!ENTITY st2 "fill:#FFFFFF;stroke:#000000; stroke-width:1.41;stroke-linecap:round;stroke-linejoin:round;">
	<!-- Yellow fill  -->
	<!ENTITY st3 "fill:#FFFFCC;stroke:#FFFFCC; stroke-width:0.1;stroke-linecap:round;stroke-linejoin:round;">
	<!-- Gray fill  -->
	<!ENTITY st4 "fill:#CCCCCC;stroke:#CCCCCC; stroke-width:0.1;stroke-linecap:round;stroke-linejoin:round;">
	<!-- Light-blue fill -->
	<!ENTITY st5 "fill:#CCECF4;stroke:#000000; stroke-width:1.133;stroke-linecap:round;stroke-linejoin:round;">
	<!ENTITY st6 "fill:none;stroke-linecap:butt; stroke-linejoin:round;">
	<!ENTITY st7 "fill:none;stroke:#000000;stroke-linecap:round;stroke-linejoin:round;">
	<!ENTITY st8 "enable-background:new    ;">
	<!-- Black fill -->
	<!ENTITY st9 "fill:#000000;stroke:#000000; stroke-linecap:round;stroke-linejoin:round;">
	<!-- SRS note   -->
	<!ENTITY st10 "font-size:9px;font-family:'ArialMT';">
	<!ENTITY st11 "font-size:9px;font-family:'Svg Symbol';">
	<!ENTITY st12 "font-size:6px;font-family:'Svg Symbol';">
	<!ENTITY st13 "fill:none;stroke:#ff0000;stroke-linecap:round;stroke-linejoin:round;">
	<!-- Yellow fill  -->
	<!ENTITY st14 "fill:#FFFF00;stroke:#FFFF00; stroke-width:0.1;stroke-linecap:round;stroke-linejoin:round;">
	<!ENTITY st15 "font-size:6px;font-family:'MS-PGothic';adobe-font-script:japanese;">
	<!ENTITY st16 "1.00 0.00 0.00 1.00">
	<!ENTITY st17 "0.00 -1.00 1.00 0.00">
	<!ENTITY st18 "font-size:6px;font-family:'Arial';">
	<!ENTITY st19 "font-size:9px;font-family:'Arial';">
	<!ENTITY st20 "font-size:6px;font-family:'MS-PGothic','MS PGothic';adobe-font-script:japanese;">
	<!ENTITY st21 "font-size:7px;font-family:'MS-PGothic','MS PGothic';adobe-font-script:japanese;">
	<!ATTLIST svg
		xmlns:ewd CDATA #FIXED "http://shcl.co.jp/ewd"
		xmlns:a CDATA #FIXED "http://ns.adobe.com/AdobeSVGViewerExtensions/3.0/"
		ewd:ver CDATA #IMPLIED
	>
	<!ATTLIST a
		ewd:lineID CDATA #IMPLIED
		ewd:groupID CDATA #IMPLIED
		ewd:figtype CDATA #IMPLIED
		ewd:code CDATA #IMPLIED
		ewd:figID CDATA #IMPLIED
		ewd:pinNo CDATA #IMPLIED
		ewd:comment CDATA #IMPLIED >
	<!ATTLIST g
		ewd:lineID CDATA #IMPLIED
		ewd:groupID CDATA #IMPLIED
		ewd:figtype CDATA #IMPLIED
		ewd:code CDATA #IMPLIED
		ewd:figID CDATA #IMPLIED
		ewd:pinNo CDATA #IMPLIED
		ewd:comment CDATA #IMPLIED >
	<!ATTLIST text
		ewd:textID CDATA #IMPLIED >
	<!ATTLIST title
		ewd:textID CDATA #IMPLIED >
]>
<!-- Generator: Shintec Hozumi YS   -->
<svg onload="call_execInitLoadProc_svg('system')" style="overflow:visible;  enable-background:new 0 0 935.552 710.000" viewBox="0 0 935.552 710.000" height="710.000" width="935.552" xml:space="preserve" ewd:ver="2.1.2.9" xmlns="&ns_svg;" xmlns:a="http://ns.adobe.com/AdobeSVGViewerExtensions/3.0/" xmlns:ewd="http://shcl.co.jp/ewd" xmlns:xlink="&ns_xlink;">
<text style="&st18;" transform="matrix(&st17;  914.15  422.0 )">LG</text><path style="stroke-width: 1.42 ;&st7;  " d=" M   914.32,   367.22  L   909.35,   372.20  " /><path style="stroke-width: 1.42 ;&st7;  " d=" M   926.35,   372.20  L   921.37,   367.22  " /><path style="stroke-width: 1.42 ;&st7;  " d=" M   909.35,   379.25  L   914.32,   384.22  " /><path style="stroke-width: 1.42 ;&st7;  " d=" M   921.37,   384.22  L   926.35,   379.25  " /><text style="&st18;" transform="matrix(&st17;  914.15  324.26 )">LG</text><text style="&st18;" transform="matrix(&st17;  565.71  190.56 )">V</text><text style="&st18;" transform="matrix(&st17;  616.7  191.22 )">W</text><text style="&st18;" transform="matrix(&st17;  565.71  407.27 )">V</text><text style="&st18;" transform="matrix(&st17;  565.71  318.04 )">V</text><text style="&st18;" transform="matrix(&st17;  565.71  509.16 )">W-B</text><text style="&st18;" transform="matrix(&st17;  565.71  662.13 )">W-B</text><path style="stroke-width: 1.42 ;&st7;  " d=" M   730.88,   460.71  L   739.38,   460.71  " /><path style="stroke-width: 1.42 ;&st7;  " d=" M   790.37,   460.71  L   798.87,   460.71  " /><text style="&st18;" transform="matrix(&st17;  735.68  326.23 )">P</text><text style="&st18;" transform="matrix(&st17;  747.01  329.44 )">(*1)</text><text style="&st18;" transform="matrix(&st17;  795.17  328.51 )">LG</text><text style="&st18;" transform="matrix(&st17;  806.5  329.44 )">(*1)</text><text style="&st18;" transform="matrix(&st17;  693.19  326.23 )">P</text><text style="&st18;" transform="matrix(&st17;  704.52  329.44 )">(*2)</text><text style="&st18;" transform="matrix(&st17;  837.66  328.51 )">LG</text><text style="&st18;" transform="matrix(&st17;  849.0  329.44 )">(*2)</text><text style="&st18;" transform="matrix(&st17;  735.68  428.21 )">P</text><text style="&st18;" transform="matrix(&st17;  747.01  431.43 )">(*1)</text><text style="&st18;" transform="matrix(&st17;  795.17  430.5 )">LG</text><text style="&st18;" transform="matrix(&st17;  806.5  431.43 )">(*1)</text><text style="&st18;" transform="matrix(&st17;  735.68  496.2 )">P</text><text style="&st18;" transform="matrix(&st17;  795.17  498.49 )">LG</text><text style="&st18;" transform="matrix(&st16;  744.46  220.73 )">E94</text><text style="&st18;" transform="matrix(&st16;  744.47  227.55 )" ewd:textID="9">Transponder Key ECU Assembly</text><g ewd:figtype="conn" ewd:figID="1" ewd:code="E110"><path style="stroke-width: 1.42 ;&st7;  " d=" M   569.40,   462.12  L   575.07,   439.46  " /><path style="stroke-width: 0.85 ;&st7;  " d=" M   569.40,   469.21  L   569.40,   464.96  " /><path style="stroke-width: 0.85 ;&st7;  " d=" M   569.40,   439.46  L   569.40,   435.21  " /><path style="stroke-width: 0.85 ;&st7;   " d=" M   570.82,   440.88  C   570.82    440.10    570.19    439.46    569.40    439.46  " /><path style="stroke-width: 0.85 ;&st7;   " d=" M   569.40,   439.46  C   568.62    439.46    567.99    440.10    567.99    440.88  " /><path style="stroke-width: 0.85 ;&st7;   " d=" M   567.99,   440.88  C   567.99    441.66    568.62    442.29    569.40    442.29  " /><path style="stroke-width: 0.85 ;&st7;   " d=" M   569.40,   442.29  C   570.19    442.29    570.82    441.66    570.82    440.88  " /><path style="stroke-width: 0.85 ;&st7;   " d=" M   570.82,   463.54  C   570.82    462.76    570.19    462.12    569.40    462.12  " /><path style="stroke-width: 0.85 ;&st7;   " d=" M   569.40,   462.12  C   568.62    462.12    567.99    462.76    567.99    463.54  " /><path style="stroke-width: 0.85 ;&st7;   " d=" M   567.99,   463.54  C   567.99    464.32    568.62    464.96    569.40    464.96  " /><path style="stroke-width: 0.85 ;&st7;   " d=" M   569.40,   464.96  C   570.19    464.96    570.82    464.32    570.82    463.54  " /><path style="stroke-width: 1.42 ;&st7;  " d=" M   577.90,   469.21  L   577.90,   435.21  L   560.91,   435.21  L   560.91,   469.21  L   577.90,   469.21  " /><text style="&st18;" transform="matrix(&st16;  563.22  431.52 )">1</text><text style="&st18;" transform="matrix(&st16;  563.22  477.4 )">2</text><g ewd:figtype="title"><text style="&st18;" transform="matrix(&st17;  585.51  472.11 )">E110</text><text style="&st18;" transform="matrix(&st17;  592.62  472.11 )" ewd:textID="10">Un-Lock Warning <tspan x="0 " dy="6.0">Switch Assembly</tspan></text></g></g><g ewd:figtype="conn" ewd:figID="2" ewd:code="E119"><path style="stroke-width: 1.42 ;&st7;  " d=" M   722.38,   358.73  L   722.38,   392.72  L   815.86,   392.72  L   815.86,   358.73  L   722.38,   358.73  " /><g ewd:lineID="15"><text style="&st18;" transform="matrix(&st16;  733.19  400.91 )">8</text><text style="&st18;" transform="matrix(&st16;  731.76  389.02 )">BLK3</text></g><g ewd:lineID="17"><text style="&st18;" transform="matrix(&st16;  733.19  355.04 )">2</text><text style="&st18;" transform="matrix(&st16;  731.76  366.36 )">BLK4</text></g><g ewd:lineID="19"><text style="&st18;" transform="matrix(&st16;  792.68  400.91 )">7</text><text style="&st18;" transform="matrix(&st16;  791.25  389.02 )">BLK2</text></g><g ewd:lineID="21"><text style="&st18;" transform="matrix(&st16;  792.68  355.04 )">1</text><text style="&st18;" transform="matrix(&st16;  791.25  366.36 )">BLK1</text></g><g ewd:figtype="title"><text style="&st18;" transform="matrix(&st17;  823.76  395.62 )">E119</text><text style="&st18;" transform="matrix(&st17;  830.58  395.63 )" ewd:textID="6">Telephone Transceiver</text></g></g><g ewd:figtype="conn" ewd:figID="3" ewd:code="E13"><path style="stroke-width: 1.42 ;&st7;  " d=" M   900.85,   460.71  L   900.85,   494.70  L   934.84,   494.70  L   934.84,   460.71  L   900.85,   460.71  " /><text style="&st18;" transform="matrix(&st16;  911.66  457.02 )">7</text><text style="&st18;" transform="matrix(&st16;  913.33  468.34 )">SIL</text><g ewd:figtype="title"><text style="&st18;" transform="matrix(&st16;  897.44  502.6 )">E13</text><text style="&st18;" transform="matrix(&st16;  897.44  509.42 )">DLC3</text></g></g><g ewd:figtype="conn" ewd:figID="5" ewd:code="E94"><g ewd:lineID="11"><text style="&st18;" transform="matrix(&st16;  563.22  290.43 )">3</text><text style="&st18;" transform="matrix(&st16;  562.84  278.54 )">KSW</text></g><g ewd:lineID="12"><text style="&st18;" transform="matrix(&st16;  563.22  227.56 )">4</text><text style="&st18;" transform="matrix(&st16;  561.56  238.88 )">ANT1</text></g><g ewd:lineID="13"><text style="&st18;" transform="matrix(&st16;  611.11  227.56 )">15</text><text style="&st18;" transform="matrix(&st16;  612.55  238.88 )">ANT2</text></g><g ewd:lineID="16,17"><text style="&st18;" transform="matrix(&st16;  730.09  290.43 )">13</text><text style="&st18;" transform="matrix(&st16;  732.15  278.54 )">EFIO</text></g><g ewd:lineID="20,21"><text style="&st18;" transform="matrix(&st16;  789.58  290.43 )">12</text><text style="&st18;" transform="matrix(&st16;  793.11  278.54 )">EFII</text></g><g ewd:lineID="23"><text style="&st18;" transform="matrix(&st16;  911.66  290.43 )">9</text><text style="&st18;" transform="matrix(&st16;  915.46  278.54 )">D</text></g></g><g ewd:figtype="conn" ewd:figID="7" ewd:code="E93"><path style="stroke-width: 0.85 ;&st7;  " d=" M   577.90,   112.27  L   586.40,   112.27  " /><path style="stroke-width: 0.85 ;&st7;  " d=" M   603.40,   112.27  L   611.90,   112.27  " /><path style="stroke-width: 0.85 ;&st7;   " d=" M   592.42,   114.80  C   593.82    113.43    593.84    111.18    592.47    109.79  " /><path style="stroke-width: 0.85 ;&st7;   " d=" M   592.47,   109.79  C   591.10    108.39    588.86    108.37    587.46    109.74  " /><path style="stroke-width: 0.85 ;&st7;   " d=" M   587.46,   109.74  C   586.76    110.43    586.40    111.28    586.40    112.27  " /><path style="stroke-width: 0.85 ;&st7;   " d=" M   597.38,   114.80  C   598.78    113.43    598.80    111.18    597.43    109.79  " /><path style="stroke-width: 0.85 ;&st7;   " d=" M   597.43,   109.79  C   596.06    108.39    593.82    108.37    592.42    109.74  " /><path style="stroke-width: 0.85 ;&st7;   " d=" M   592.42,   109.74  C   591.02    111.11    591.00    113.35    592.37    114.75  " /><path style="stroke-width: 0.85 ;&st7;   " d=" M   592.37,   114.75  C   592.39    114.76    592.40    114.78    592.42    114.80  " /><path style="stroke-width: 0.85 ;&st7;   " d=" M   603.40,   112.27  C   603.40    110.31    601.81    108.73    599.86    108.73  " /><path style="stroke-width: 0.85 ;&st7;   " d=" M   599.86,   108.73  C   597.90    108.73    596.32    110.31    596.32    112.27  " /><path style="stroke-width: 0.85 ;&st7;   " d=" M   596.32,   112.27  C   596.32    113.26    596.67    114.10    597.38    114.80  " /><path style="stroke-width: 0.85 ;&st7;  " d=" M   620.40,   129.26  L   620.40,   146.26  " /><path style="stroke-width: 1.42 ;&st7;  " d=" M   543.91,    95.27  L   543.91,   146.26  L   645.89,   146.26  L   645.89,    95.27  L   543.91,    95.27  " /><path style="stroke-width: 0.85 ;&st7;  " d=" M   569.40,   129.26  L   569.40,   146.26  " /><path style="stroke-width: 0.85 ;&st7;  " d=" M   569.40,   129.26  L   569.40,   112.27  L   577.90,   112.27  " /><path style="stroke-width: 0.85 ;&st7;  " d=" M   620.40,   129.26  L   620.40,   112.27  L   611.90,   112.27  " /><text style="&st18;" transform="matrix(&st16;  571.99  142.57 )">ANT1</text><text style="&st18;" transform="matrix(&st16;  622.98  142.57 )">ANT2</text><text style="&st18;" transform="matrix(&st16;  563.22  154.45 )">1</text><text style="&st18;" transform="matrix(&st16;  614.21  154.45 )">5</text><g ewd:figtype="title"><text style="&st18;" transform="matrix(&st16;  540.5  84.47 )">E93</text><text style="&st18;" transform="matrix(&st16;  540.5  91.57 )" ewd:textID="8">Transponder Key Coil</text></g></g><g ewd:figtype="conn" ewd:figID="8" ewd:code="A40,A69"><path style="stroke-width: 0.85 ;&st7; stroke-dasharray:3, 1.5;" d=" M   747.87,   523.60  L   781.87,   523.60  " /><path style="stroke-width: 0.85 ;&st7; stroke-dasharray:3, 1.5;" d=" M   747.87,   532.66  L   781.87,   532.66  " /><path style="stroke-width: 1.42 ;&st7;  " d=" M   722.38,   537.20  L   722.38,   571.19  L   824.36,   571.19  L   824.36,   537.20  L   722.38,   537.20  " /><g ewd:lineID="14"><text style="&st18;" transform="matrix(&st16;  727.58  525.57 )">28</text><text style="&st18;" transform="matrix(&st16;  727.58  534.63 )">11</text><path style="stroke-width: 1.42 ;&st7;   " d=" M   743.91,   532.66  C   743.91    530.16    741.88    528.13    739.38    528.13  " /><path style="stroke-width: 1.42 ;&st7;   " d=" M   739.38,   528.13  C   736.87    528.13    734.84    530.16    734.84    532.66  " /><path style="stroke-width: 1.42 ;&st7;   " d=" M   734.84,   532.66  C   734.84    535.17    736.87    537.20    739.38    537.20  " /><path style="stroke-width: 1.42 ;&st7;   " d=" M   739.38,   537.20  C   741.88    537.20    743.91    535.17    743.91    532.66  " /><path style="stroke-width: 1.42 ;&st7;   " d=" M   743.91,   523.60  C   743.91    521.09    741.88    519.07    739.38    519.07  " /><path style="stroke-width: 1.42 ;&st7;   " d=" M   739.38,   519.07  C   736.87    519.07    734.84    521.09    734.84    523.60  " /><path style="stroke-width: 1.42 ;&st7;   " d=" M   734.84,   523.60  C   734.84    526.10    736.87    528.13    739.38    528.13  " /><path style="stroke-width: 1.42 ;&st7;   " d=" M   739.38,   528.13  C   741.88    528.13    743.91    526.10    743.91    523.60  " /><text style="&st18;" transform="matrix(&st16;  736.96  534.63 )">C</text><text style="&st18;" transform="matrix(&st16;  737.07  525.57 )">A</text><text style="&st18;" transform="matrix(&st16;  734.86  544.83 )">IMI</text></g><g ewd:lineID="18"><text style="&st18;" transform="matrix(&st16;  787.07  525.57 )">29</text><text style="&st18;" transform="matrix(&st16;  787.07  534.63 )">10</text><path style="stroke-width: 1.42 ;&st7;   " d=" M   803.40,   532.66  C   803.40    530.16    801.37    528.13    798.87    528.13  " /><path style="stroke-width: 1.42 ;&st7;   " d=" M   798.87,   528.13  C   796.36    528.13    794.33    530.16    794.33    532.66  " /><path style="stroke-width: 1.42 ;&st7;   " d=" M   794.33,   532.66  C   794.33    535.17    796.36    537.20    798.87    537.20  " /><path style="stroke-width: 1.42 ;&st7;   " d=" M   798.87,   537.20  C   801.37    537.20    803.40    535.17    803.40    532.66  " /><text style="&st18;" transform="matrix(&st16;  796.56  525.57 )">A</text><path style="stroke-width: 1.42 ;&st7;   " d=" M   803.40,   523.60  C   803.40    521.09    801.37    519.07    798.87    519.07  " /><path style="stroke-width: 1.42 ;&st7;   " d=" M   798.87,   519.07  C   796.36    519.07    794.33    521.09    794.33    523.60  " /><path style="stroke-width: 1.42 ;&st7;   " d=" M   794.33,   523.60  C   794.33    526.10    796.36    528.13    798.87    528.13  " /><path style="stroke-width: 1.42 ;&st7;   " d=" M   798.87,   528.13  C   801.37    528.13    803.40    526.10    803.40    523.60  " /><text style="&st18;" transform="matrix(&st16;  796.45  534.63 )">C</text><text style="&st18;" transform="matrix(&st16;  792.88  544.83 )">IMO</text></g><g ewd:figtype="title"><text style="&st18;" transform="matrix(&st17;  832.26  574.09 )">A40(A),A69(C)</text><text style="&st18;" transform="matrix(&st17;  839.08  574.1 )">ECM</text></g></g><g ewd:figtype="jb" ewd:figID="10" ewd:code="10"><path style="stroke-width: 1.42 ;&st7;  " d=" M   571.53,   375.72  L   567.28,   375.72  " /><path style="stroke-width: 1.42 ;&st7;  " d=" M   571.53,   384.22  L   567.28,   384.22  " /><path style="stroke-width: 1.42 ;&st7;  " d=" M   571.53,   333.23  L   567.28,   333.23  " /><path style="stroke-width: 1.42 ;&st7;  " d=" M   571.53,   341.73  L   567.28,   341.73  " /><path style="stroke-width: 1.42 ;&st7;   " d=" M   567.28,   375.72  C   564.93    375.72    563.03    377.63    563.03    379.97  " /><path style="stroke-width: 1.42 ;&st7;   " d=" M   563.03,   379.97  C   563.03    382.32    564.93    384.22    567.28    384.22  " /><path style="stroke-width: 1.42 ;&st7;   " d=" M   571.53,   384.22  C   573.88    384.22    575.78    382.32    575.78    379.97  " /><path style="stroke-width: 1.42 ;&st7;   " d=" M   575.78,   379.97  C   575.78    377.63    573.88    375.72    571.53    375.72  " /><path style="stroke-width: 1.42 ;&st7;   " d=" M   567.28,   333.23  C   564.93    333.23    563.03    335.13    563.03    337.48  " /><path style="stroke-width: 1.42 ;&st7;   " d=" M   563.03,   337.48  C   563.03    339.83    564.93    341.73    567.28    341.73  " /><path style="stroke-width: 1.42 ;&st7;   " d=" M   571.53,   341.73  C   573.88    341.73    575.78    339.83    575.78    337.48  " /><path style="stroke-width: 1.42 ;&st7;   " d=" M   575.78,   337.48  C   575.78    335.13    573.88    333.23    571.53    333.23  " /><path style="stroke-width: 0.85 ;&st7;  " d=" M   569.40,   358.73  L   569.40,   341.73  " /><path style="stroke-width: 0.85 ;&st7;  " d=" M   569.40,   358.73  L   569.40,   375.72  " /><path style="stroke-width: 0.28 ;&st9;  " d=" M   569.40,   370.83  L   566.57,   367.99  L   566.57,   372.24  L   569.40,   375.08  L   572.24,   372.24  L   572.24,   367.99  L   569.40,   370.83  " /><path style="stroke-width: 0.28 ;&st9;  " d=" M   569.40,   346.62  L   572.24,   349.46  L   572.24,   345.21  L   569.40,   342.37  L   566.57,   345.21  L   566.57,   349.46  L   569.40,   346.62  " /><text style="&st18;" transform="matrix(&st16;  565.43  381.94 )">6C</text><text style="&st18;" transform="matrix(&st16;  555.8  381.94 )">29</text><text style="&st18;" transform="matrix(&st16;  565.43  339.45 )">6C</text><text style="&st18;" transform="matrix(&st16;  555.8  339.45 )">30</text></g><g ewd:figtype="jb" ewd:figID="13" ewd:code="10"><path style="stroke-width: 1.42 ;&st7;  " d=" M   571.53,   528.70  L   567.28,   528.70  " /><path style="stroke-width: 1.42 ;&st7;  " d=" M   571.53,   537.20  L   567.28,   537.20  " /><path style="stroke-width: 1.42 ;&st7;  " d=" M   571.53,   571.19  L   567.28,   571.19  " /><path style="stroke-width: 1.42 ;&st7;  " d=" M   571.53,   579.69  L   567.28,   579.69  " /><path style="stroke-width: 1.42 ;&st7;   " d=" M   567.28,   528.70  C   564.93    528.70    563.03    530.60    563.03    532.95  " /><path style="stroke-width: 1.42 ;&st7;   " d=" M   563.03,   532.95  C   563.03    535.29    564.93    537.20    567.28    537.20  " /><path style="stroke-width: 1.42 ;&st7;   " d=" M   571.53,   537.20  C   573.88    537.20    575.78    535.29    575.78    532.95  " /><path style="stroke-width: 1.42 ;&st7;   " d=" M   575.78,   532.95  C   575.78    530.60    573.88    528.70    571.53    528.70  " /><path style="stroke-width: 1.42 ;&st7;   " d=" M   567.28,   571.19  C   564.93    571.19    563.03    573.09    563.03    575.44  " /><path style="stroke-width: 1.42 ;&st7;   " d=" M   563.03,   575.44  C   563.03    577.79    564.93    579.69    567.28    579.69  " /><path style="stroke-width: 1.42 ;&st7;   " d=" M   571.53,   579.69  C   573.88    579.69    575.78    577.79    575.78    575.44  " /><path style="stroke-width: 1.42 ;&st7;   " d=" M   575.78,   575.44  C   575.78    573.09    573.88    571.19    571.53    571.19  " /><path style="stroke-width: 0.28 ;&st9;  " d=" M   569.40,   542.09  L   572.24,   544.92  L   572.24,   540.67  L   569.40,   537.84  L   566.57,   540.67  L   566.57,   544.92  L   569.40,   542.09  " /><path style="stroke-width: 0.28 ;&st9;  " d=" M   569.40,   566.29  L   566.57,   563.46  L   566.57,   567.71  L   569.40,   570.54  L   572.24,   567.71  L   572.24,   563.46  L   569.40,   566.29  " /><path style="stroke-width: 0.85 ;&st7;  " d=" M   569.40,   571.19  L   569.40,   537.20  " /><text style="&st18;" transform="matrix(&st16;  565.47  534.92 )">6D</text><text style="&st18;" transform="matrix(&st16;  555.8  534.92 )">37</text><text style="&st18;" transform="matrix(&st16;  565.47  577.41 )">6D</text><text style="&st18;" transform="matrix(&st16;  558.9  577.41 )">5</text></g><g ewd:figtype="w2w" ewd:figID="14" ewd:code="AE9"><path style="stroke-width: 1.42 ;&st7;  " d=" M   735.13,   451.64  L   739.38,   455.89  L   743.63,   451.64  " /><path style="stroke-width: 1.42 ;&st7;  " d=" M   743.63,   455.04  L   739.38,   459.29  L   735.13,   455.04  " /><text style="&st18;" transform="matrix(&st16;  723.64  466.93 )">18</text></g><g ewd:figtype="w2w" ewd:figID="15" ewd:code="AE9"><path style="stroke-width: 1.42 ;&st7;  " d=" M   794.62,   451.64  L   798.87,   455.89  L   803.12,   451.64  " /><path style="stroke-width: 1.42 ;&st7;  " d=" M   803.12,   455.04  L   798.87,   459.29  L   794.62,   455.04  " /><text style="&st18;" transform="matrix(&st16;  783.13  466.93 )">19</text></g><g ewd:figtype="gp" ewd:figID="17" ewd:code="EA"><path style="stroke-width: 0.85 ;&st7;  " d=" M   567.99,   710.00  L   570.82,   710.00  " /><path style="stroke-width: 0.85 ;&st7;  " d=" M   566.57,   707.17  L   572.24,   707.17  " /><path style="stroke-width: 0.85 ;&st7;  " d=" M   565.16,   704.33  L   573.65,   704.33  " /><path style="stroke-width: 0.85 ;&st7;  " d=" M   560.91,   701.50  L   577.90,   701.50  " /><path style="stroke-width: 0.85 ;&st7;  " d=" M   569.40,   697.25  L   569.40,   701.50  " /></g><g ewd:code="" ewd:figID="26" ewd:comment="4" ewd:figtype="commref"><text style="&st18;" transform="matrix(&st16;  803.96  534.63 )">(*4)</text></g><g ewd:code="" ewd:figID="27" ewd:comment="3" ewd:figtype="commref"><text style="&st18;" transform="matrix(&st16;  803.96  525.57 )">(*3)</text></g><g ewd:code="3" ewd:figID="24" ewd:comment="" ewd:figtype="comment"><text style="&st18;" transform="matrix(&st16;  718.97  54.75 )" ewd:textID="3">* 3 :TDB Made</text></g><g ewd:code="4" ewd:figID="25" ewd:comment="" ewd:figtype="comment"><text style="&st18;" transform="matrix(&st16;  718.97  63.24 )" ewd:textID="4">* 4 :TDV Made</text></g><g ewd:code="2" ewd:figID="22" ewd:comment="" ewd:figtype="comment"><text style="&st18;" transform="matrix(&st16;  718.97  46.25 )" ewd:textID="2">* 2 :w/o Blocking System</text></g><g ewd:code="1" ewd:figID="23" ewd:comment="" ewd:figtype="comment"><text style="&st18;" transform="matrix(&st16;  718.97  37.75 )" ewd:textID="1">* 1 :w/ Blocking System</text></g></svg>