﻿<?xml version="1.0" encoding="utf-8"?>
<!DOCTYPE svg PUBLIC "-//W3C//DTD SVG 1.0//EN" "http://www.w3.org/TR/2001/REC-SVG-20010904/DTD/svg10.dtd"[
	<!ENTITY ns_flows "http://ns.adobe.com/Flows/1.0/">
	<!ENTITY ns_svg "http://www.w3.org/2000/svg">
	<!ENTITY ns_xlink "http://www.w3.org/1999/xlink">
	<!ENTITY st0 "font-size:7px;font-family:'MS-PGothic';adobe-font-script:japanese;">
	<!ENTITY st1 "font-size:6px;font-family:'ArialMT';">
	<!-- White fill  -->
	<!ENTITY st2 "fill:#FFFFFF;stroke:#000000; stroke-width:1.41;stroke-linecap:round;stroke-linejoin:round;">
	<!-- Yellow fill  -->
	<!ENTITY st3 "fill:#FFFFCC;stroke:#FFFFCC; stroke-width:0.1;stroke-linecap:round;stroke-linejoin:round;">
	<!-- Gray fill  -->
	<!ENTITY st4 "fill:#CCCCCC;stroke:#CCCCCC; stroke-width:0.1;stroke-linecap:round;stroke-linejoin:round;">
	<!-- Light-blue fill -->
	<!ENTITY st5 "fill:#CCECF4;stroke:#000000; stroke-width:1.133;stroke-linecap:round;stroke-linejoin:round;">
	<!ENTITY st6 "fill:none;stroke-linecap:butt; stroke-linejoin:round;">
	<!ENTITY st7 "fill:none;stroke:#000000;stroke-linecap:round;stroke-linejoin:round;">
	<!ENTITY st8 "enable-background:new    ;">
	<!-- Black fill -->
	<!ENTITY st9 "fill:#000000;stroke:#000000; stroke-linecap:round;stroke-linejoin:round;">
	<!-- SRS note   -->
	<!ENTITY st10 "font-size:9px;font-family:'ArialMT';">
	<!ENTITY st11 "font-size:9px;font-family:'Svg Symbol';">
	<!ENTITY st12 "font-size:6px;font-family:'Svg Symbol';">
	<!ENTITY st13 "fill:none;stroke:#ff0000;stroke-linecap:round;stroke-linejoin:round;">
	<!-- Yellow fill  -->
	<!ENTITY st14 "fill:#FFFF00;stroke:#FFFF00; stroke-width:0.1;stroke-linecap:round;stroke-linejoin:round;">
	<!ENTITY st15 "font-size:6px;font-family:'MS-PGothic';adobe-font-script:japanese;">
	<!ENTITY st16 "1.00 0.00 0.00 1.00">
	<!ENTITY st17 "0.00 -1.00 1.00 0.00">
	<!ENTITY st18 "font-size:6px;font-family:'Arial';">
	<!ENTITY st19 "font-size:9px;font-family:'Arial';">
	<!ENTITY st20 "font-size:6px;font-family:'MS-PGothic','MS PGothic';adobe-font-script:japanese;">
	<!ENTITY st21 "font-size:7px;font-family:'MS-PGothic','MS PGothic';adobe-font-script:japanese;">
	<!ATTLIST svg
		xmlns:ewd CDATA #FIXED "http://shcl.co.jp/ewd"
		xmlns:a CDATA #FIXED "http://ns.adobe.com/AdobeSVGViewerExtensions/3.0/"
		ewd:ver CDATA #IMPLIED
	>
	<!ATTLIST a
		ewd:lineID CDATA #IMPLIED
		ewd:groupID CDATA #IMPLIED
		ewd:figtype CDATA #IMPLIED
		ewd:code CDATA #IMPLIED
		ewd:figID CDATA #IMPLIED
		ewd:pinNo CDATA #IMPLIED
		ewd:comment CDATA #IMPLIED >
	<!ATTLIST g
		ewd:lineID CDATA #IMPLIED
		ewd:groupID CDATA #IMPLIED
		ewd:figtype CDATA #IMPLIED
		ewd:code CDATA #IMPLIED
		ewd:figID CDATA #IMPLIED
		ewd:pinNo CDATA #IMPLIED
		ewd:comment CDATA #IMPLIED >
	<!ATTLIST text
		ewd:textID CDATA #IMPLIED >
	<!ATTLIST title
		ewd:textID CDATA #IMPLIED >
]>
<!-- Generator: Shintec Hozumi YS   -->
<svg onload="call_execInitLoadProc_svg('system')" style="overflow:visible;  enable-background:new 0 0 9348.149 710.000" viewBox="0 0 9348.149 710.000" height="710.000" width="9348.149" xml:space="preserve" ewd:ver="2.1.2.9" xmlns="&ns_svg;" xmlns:a="http://ns.adobe.com/AdobeSVGViewerExtensions/3.0/" xmlns:ewd="http://shcl.co.jp/ewd" xmlns:xlink="&ns_xlink;">
<path style="stroke-width: 1.42 ;&st7;  " d=" M  7317.28,   239.75  L  7308.78,   239.75  " /><path style="stroke-width: 1.42 ;&st7;  " d=" M  7368.27,   239.75  L  7359.77,   239.75  " /><text style="&st18;" transform="matrix(&st17;  7305.08  307.98 )">LG(*3)</text><text style="&st18;" transform="matrix(&st17;  7305.08  167.04 )">LG</text><text style="&st18;" transform="matrix(&st17;  7356.07  302.48 )">SB</text><text style="&st18;" transform="matrix(&st17;  7356.07  166.5 )">SB</text><path style="stroke-width: 1.42 ;&st7;  " d=" M  7466.72,   222.75  L  7461.75,   227.72  " /><path style="stroke-width: 1.42 ;&st7;  " d=" M  7473.78,   239.75  L  7478.75,   234.78  " /><path style="stroke-width: 1.42 ;&st7;  " d=" M  7461.75,   234.78  L  7466.72,   239.75  " /><path style="stroke-width: 1.42 ;&st7;  " d=" M  7478.75,   227.72  L  7473.78,   222.75  " /><text style="&st18;" transform="matrix(&st17;  7466.56  167.04 )">LG</text><text style="&st18;" transform="matrix(&st17;  7466.56  320.02 )">LG</text><text style="&st18;" transform="matrix(&st16;  7449.85  32.08 )" ewd:textID="45">Main Body ECU</text><text style="&st18;" transform="matrix(&st16;  7449.84  24.98 )">E31(A)</text><text style="&st18;" transform="matrix(&st17;  7415.57  577.14 )">W-B</text><text style="&st18;" transform="matrix(&st17;  7415.56  164.83 )">L</text><text style="&st18;" transform="matrix(&st17;  7415.57  449.67 )">W-B</text><path style="stroke-width: 1.42 ;&st7;  " d=" M  7427.76,   516.67  L  7422.79,   511.70  " /><path style="stroke-width: 1.42 ;&st7;  " d=" M  7410.76,   523.73  L  7415.73,   528.70  " /><path style="stroke-width: 1.42 ;&st7;  " d=" M  7422.79,   528.70  L  7427.76,   523.73  " /><path style="stroke-width: 1.42 ;&st7;  " d=" M  7415.73,   511.70  L  7410.76,   516.67  " /><path style="stroke-width: 1.42 ;&st7;  " d=" M  7118.28,   528.70  L  7113.31,   533.67  " /><path style="stroke-width: 1.42 ;&st7;  " d=" M  7125.34,   545.69  L  7130.31,   540.73  " /><path style="stroke-width: 1.42 ;&st7;  " d=" M  7113.31,   540.73  L  7118.28,   545.69  " /><path style="stroke-width: 1.42 ;&st7;  " d=" M  7130.31,   533.67  L  7125.34,   528.70  " /><path style="stroke-width: 1.42 ;&st7;  " d=" M  7028.33,   236.22  L  7023.35,   231.25  " /><path style="stroke-width: 1.42 ;&st7;  " d=" M  7011.33,   243.27  L  7016.30,   248.24  " /><path style="stroke-width: 1.42 ;&st7;  " d=" M  7023.35,   248.24  L  7028.33,   243.27  " /><path style="stroke-width: 1.42 ;&st7;  " d=" M  7016.30,   231.25  L  7011.33,   236.22  " /><path style="stroke-width: 1.42 ;&st7;  " d=" M  7113.31,   171.76  L  7121.81,   171.76  " /><text style="&st18;" transform="matrix(&st16;  7077.21  236.05 )">R</text><text style="&st18;" transform="matrix(&st17;  7160.61  487.78 )">L</text><text style="&st18;" transform="matrix(&st17;  7118.11  156.33 )">L</text><text style="&st18;" transform="matrix(&st17;  7118.11  487.78 )">L</text><text style="&st18;" transform="matrix(&st17;  7169.11  300.85 )">R</text><text style="&st18;" transform="matrix(&st17;  7016.13  296.6 )">R</text><text style="&st18;" transform="matrix(&st17;  7177.6  492.16 )">W-B</text><text style="&st18;" transform="matrix(&st16;  7077.25  533.5 )">L</text><text style="&st18;" transform="matrix(&st17;  7288.09  307.44 )">SB(*4)</text><g ewd:figtype="conn" ewd:figID="14" ewd:code="L2"><path style="stroke-width: 1.42 ;&st7;  " d=" M  7359.77,   385.64  L  7365.44,   362.97  " /><path style="stroke-width: 0.85 ;&st7;  " d=" M  7359.77,   392.72  L  7359.77,   388.47  " /><path style="stroke-width: 0.85 ;&st7;  " d=" M  7359.77,   362.97  L  7359.77,   358.73  " /><path style="stroke-width: 0.85 ;&st7;   " d=" M  7361.19,   387.05  C  7361.19    386.27   7360.55    385.64   7359.77    385.64  " /><path style="stroke-width: 0.85 ;&st7;   " d=" M  7359.77,   385.64  C  7358.99    385.64   7358.35    386.27   7358.35    387.05  " /><path style="stroke-width: 0.85 ;&st7;   " d=" M  7358.35,   387.05  C  7358.35    387.84   7358.99    388.47   7359.77    388.47  " /><path style="stroke-width: 0.85 ;&st7;   " d=" M  7359.77,   388.47  C  7360.55    388.47   7361.19    387.84   7361.19    387.05  " /><path style="stroke-width: 0.85 ;&st7;   " d=" M  7361.19,   364.39  C  7361.19    363.61   7360.55    362.97   7359.77    362.97  " /><path style="stroke-width: 0.85 ;&st7;   " d=" M  7359.77,   362.97  C  7358.99    362.97   7358.35    363.61   7358.35    364.39  " /><path style="stroke-width: 0.85 ;&st7;   " d=" M  7358.35,   364.39  C  7358.35    365.17   7358.99    365.81   7359.77    365.81  " /><path style="stroke-width: 0.85 ;&st7;   " d=" M  7359.77,   365.81  C  7360.55    365.81   7361.19    365.17   7361.19    364.39  " /><path style="stroke-width: 1.42 ;&st7;  " d=" M  7368.27,   392.72  L  7368.27,   358.73  L  7351.27,   358.73  L  7351.27,   392.72  L  7368.27,   392.72  " /><text style="&st18;" transform="matrix(&st16;  7353.59  355.04 )">1</text><g ewd:figtype="title"><text style="&st18;" transform="matrix(&st17;  7382.99  395.63 )" ewd:textID="58">Rear Door Courtesy Light Switch Assembly LH</text><text style="&st18;" transform="matrix(&st17;  7375.88  395.62 )">L2</text></g></g><g ewd:figtype="conn" ewd:figID="15" ewd:code="L37"><path style="stroke-width: 1.42 ;&st7;  " d=" M  7308.78,   385.64  L  7314.44,   362.97  " /><path style="stroke-width: 0.85 ;&st7;  " d=" M  7308.78,   392.72  L  7308.78,   388.47  " /><path style="stroke-width: 0.85 ;&st7;  " d=" M  7308.78,   362.97  L  7308.78,   358.73  " /><path style="stroke-width: 0.85 ;&st7;   " d=" M  7310.20,   387.05  C  7310.20    386.27   7309.56    385.64   7308.78    385.64  " /><path style="stroke-width: 0.85 ;&st7;   " d=" M  7308.78,   385.64  C  7308.00    385.64   7307.36    386.27   7307.36    387.05  " /><path style="stroke-width: 0.85 ;&st7;   " d=" M  7307.36,   387.05  C  7307.36    387.84   7308.00    388.47   7308.78    388.47  " /><path style="stroke-width: 0.85 ;&st7;   " d=" M  7308.78,   388.47  C  7309.56    388.47   7310.20    387.84   7310.20    387.05  " /><path style="stroke-width: 0.85 ;&st7;   " d=" M  7310.20,   364.39  C  7310.20    363.61   7309.56    362.97   7308.78    362.97  " /><path style="stroke-width: 0.85 ;&st7;   " d=" M  7308.78,   362.97  C  7308.00    362.97   7307.36    363.61   7307.36    364.39  " /><path style="stroke-width: 0.85 ;&st7;   " d=" M  7307.36,   364.39  C  7307.36    365.17   7308.00    365.81   7308.78    365.81  " /><path style="stroke-width: 0.85 ;&st7;   " d=" M  7308.78,   365.81  C  7309.56    365.81   7310.20    365.17   7310.20    364.39  " /><path style="stroke-width: 1.42 ;&st7;  " d=" M  7317.27,   392.72  L  7317.27,   358.73  L  7300.28,   358.73  L  7300.28,   392.72  L  7317.27,   392.72  " /><text style="&st18;" transform="matrix(&st16;  7302.59  355.04 )">1</text><g ewd:figtype="title"><text style="&st18;" transform="matrix(&st17;  7332.0  395.63 )" ewd:textID="59">Rear Door Courtesy Light Switch Assembly RH</text><text style="&st18;" transform="matrix(&st17;  7324.89  395.62 )">L37</text></g></g><g ewd:figtype="conn" ewd:figID="45" ewd:code="A34"><path style="stroke-width: 0.85 ;&st7;   " d=" M  7420.54,   350.23  C  7420.54    349.52   7419.96    348.95   7419.26    348.95  " /><path style="stroke-width: 0.85 ;&st7;   " d=" M  7419.26,   348.95  C  7418.56    348.95   7417.99    349.52   7417.99    350.23  " /><path style="stroke-width: 0.85 ;&st7;   " d=" M  7417.99,   350.23  C  7417.99    350.93   7418.56    351.50   7419.26    351.50  " /><path style="stroke-width: 0.85 ;&st7;   " d=" M  7419.26,   351.50  C  7419.96    351.50   7420.54    350.93   7420.54    350.23  " /><path style="stroke-width: 0.85 ;&st7;   " d=" M  7420.22,   384.22  C  7420.22    383.69   7419.79    383.27   7419.26    383.27  " /><path style="stroke-width: 0.85 ;&st7;   " d=" M  7419.26,   383.27  C  7418.73    383.27   7418.31    383.69   7418.31    384.22  " /><path style="stroke-width: 0.85 ;&st7;   " d=" M  7418.31,   384.22  C  7418.31    384.75   7418.73    385.18   7419.26    385.18  " /><path style="stroke-width: 0.85 ;&st7;   " d=" M  7419.26,   385.18  C  7419.79    385.18   7420.22    384.75   7420.22    384.22  " /><path style="stroke-width: 0.85 ;&st7;   " d=" M  7420.22,   350.23  C  7420.22    349.70   7419.79    349.27   7419.26    349.27  " /><path style="stroke-width: 0.85 ;&st7;   " d=" M  7419.26,   349.27  C  7418.73    349.27   7418.31    349.70   7418.31    350.23  " /><path style="stroke-width: 0.85 ;&st7;   " d=" M  7418.31,   350.23  C  7418.31    350.75   7418.73    351.18   7419.26    351.18  " /><path style="stroke-width: 0.85 ;&st7;   " d=" M  7419.26,   351.18  C  7419.79    351.18   7420.22    350.75   7420.22    350.23  " /><path style="stroke-width: 0.85 ;&st7;   " d=" M  7420.54,   384.22  C  7420.54    383.52   7419.96    382.95   7419.26    382.95  " /><path style="stroke-width: 0.85 ;&st7;   " d=" M  7419.26,   382.95  C  7418.56    382.95   7417.99    383.52   7417.99    384.22  " /><path style="stroke-width: 0.85 ;&st7;   " d=" M  7417.99,   384.22  C  7417.99    384.93   7418.56    385.50   7419.26    385.50  " /><path style="stroke-width: 0.85 ;&st7;   " d=" M  7419.26,   385.50  C  7419.96    385.50   7420.54    384.93   7420.54    384.22  " /><path style="stroke-width: 1.42 ;&st7;  " d=" M  7393.76,   392.72  L  7436.25,   392.72  L  7436.25,   341.73  L  7393.76,   341.73  L  7393.76,   392.72  " /><path style="stroke-width: 0.85 ;&st7;  " d=" M  7406.51,   365.10  L  7398.01,   365.10  L  7398.01,   369.35  L  7406.51,   369.35  L  7406.51,   365.10  " /><path style="stroke-width: 0.85 ;&st7;  " d=" M  7398.01,   373.60  L  7406.51,   373.60  " /><path style="stroke-width: 0.85 ;&st7;  " d=" M  7398.01,   360.85  L  7406.51,   360.85  " /><path style="stroke-width: 0.85 ;&st7;  " d=" M  7419.26,   384.22  L  7419.26,   375.72  L  7416.42,   374.31  L  7422.09,   371.47  L  7416.42,   368.64  L  7422.09,   365.81  L  7416.42,   362.97  L  7422.09,   360.14  L  7419.26,   358.73  L  7419.26,   350.23  " /><path style="stroke-width: 0.85 ;&st7;  " d=" M  7419.26,   350.23  L  7402.26,   350.23  " /><path style="stroke-width: 0.85 ;&st7;  " d=" M  7402.26,   350.23  L  7402.26,   360.85  " /><path style="stroke-width: 0.85 ;&st7;  " d=" M  7402.26,   373.60  L  7402.26,   384.22  L  7419.26,   384.22  " /><path style="stroke-width: 0.85 ;&st7;  " d=" M  7419.26,   341.73  L  7419.26,   350.23  " /><path style="stroke-width: 0.85 ;&st7;  " d=" M  7419.26,   384.22  L  7419.26,   392.72  " /><path style="stroke-width: 0.85 ;&st7;  " d=" M  7418.93,   385.12  L  7418.93,   383.32  L  7419.58,   383.32  L  7419.58,   385.12  " /><path style="stroke-width: 0.85 ;&st7;  " d=" M  7418.93,   351.12  L  7418.93,   349.33  L  7419.58,   349.33  L  7419.58,   351.12  " /><text style="&st18;" transform="matrix(&st16;  7421.84  389.03 )">E</text><text style="&st18;" transform="matrix(&st16;  7421.84  349.92 )">B</text><text style="&st18;" transform="matrix(&st16;  7413.08  400.91 )">2</text><text style="&st18;" transform="matrix(&st16;  7413.08  338.04 )">1</text><g ewd:figtype="title"><text style="&st18;" transform="matrix(&st17;  7443.87  395.62 )">A34</text><text style="&st18;" transform="matrix(&st17;  7450.98  395.63 )" ewd:textID="71">Wireless Door Lock Buzzer</text></g></g><g ewd:figtype="conn" ewd:figID="52" ewd:code="E31"><g ewd:lineID="168"><text style="&st18;" transform="matrix(&st16;  7300.08  93.27 )">6</text><text style="&st18;" transform="matrix(&st16;  7306.47  93.27 )">A</text><path style="stroke-width: 1.42 ;&st7;   " d=" M  7313.31,    91.30  C  7313.31     88.80   7311.28     86.77   7308.78     86.77  " /><path style="stroke-width: 1.42 ;&st7;   " d=" M  7308.78,    86.77  C  7306.28     86.77   7304.25     88.80   7304.25     91.30  " /><path style="stroke-width: 1.42 ;&st7;   " d=" M  7304.25,    91.30  C  7304.25     93.81   7306.28     95.84   7308.78     95.84  " /><path style="stroke-width: 1.42 ;&st7;   " d=" M  7308.78,    95.84  C  7311.28     95.84   7313.31     93.81   7313.31     91.30  " /><text style="&st18;" transform="matrix(&st16;  7300.62  83.07 )">RCTY</text></g><g ewd:lineID="170"><text style="&st18;" transform="matrix(&st16;  7347.97  93.27 )">24</text><text style="&st18;" transform="matrix(&st16;  7357.47  93.27 )">A</text><path style="stroke-width: 1.42 ;&st7;   " d=" M  7364.30,    91.30  C  7364.30     88.80   7362.27     86.77   7359.77     86.77  " /><path style="stroke-width: 1.42 ;&st7;   " d=" M  7359.77,    86.77  C  7357.27     86.77   7355.24     88.80   7355.24     91.30  " /><path style="stroke-width: 1.42 ;&st7;   " d=" M  7355.24,    91.30  C  7355.24     93.81   7357.27     95.84   7359.77     95.84  " /><path style="stroke-width: 1.42 ;&st7;   " d=" M  7359.77,    95.84  C  7362.27     95.84   7364.30     93.81   7364.30     91.30  " /><text style="&st18;" transform="matrix(&st16;  7351.65  83.07 )">LCTY</text></g><g ewd:lineID="238"><text style="&st18;" transform="matrix(&st16;  7116.99  83.07 )">ILE</text></g><g ewd:lineID="241"><text style="&st18;" transform="matrix(&st16;  7413.47  83.07 )">BZR</text></g><g ewd:lineID="242"><text style="&st18;" transform="matrix(&st16;  7461.86  83.07 )">LGCY</text></g></g><g ewd:figtype="conn" ewd:figID="53" ewd:code="O1"><path style="stroke-width: 0.85 ;&st7;   " d=" M  7165.72,   416.80  C  7165.72    416.02   7165.09    415.38   7164.30    415.38  " /><path style="stroke-width: 0.85 ;&st7;   " d=" M  7164.30,   415.38  C  7163.52    415.38   7162.89    416.02   7162.89    416.80  " /><path style="stroke-width: 0.85 ;&st7;   " d=" M  7162.89,   416.80  C  7162.89    417.58   7163.52    418.22   7164.30    418.22  " /><path style="stroke-width: 0.85 ;&st7;   " d=" M  7164.30,   418.22  C  7165.09    418.22   7165.72    417.58   7165.72    416.80  " /><path style="stroke-width: 0.85 ;&st7;   " d=" M  7174.22,   416.80  C  7174.22    416.02   7173.58    415.38   7172.80    415.38  " /><path style="stroke-width: 0.85 ;&st7;   " d=" M  7172.80,   415.38  C  7172.02    415.38   7171.39    416.02   7171.39    416.80  " /><path style="stroke-width: 0.85 ;&st7;   " d=" M  7171.39,   416.80  C  7171.39    417.58   7172.02    418.22   7172.80    418.22  " /><path style="stroke-width: 0.85 ;&st7;   " d=" M  7172.80,   418.22  C  7173.58    418.22   7174.22    417.58   7174.22    416.80  " /><path style="stroke-width: 0.85 ;&st7;   " d=" M  7172.80,   388.47  C  7174.36    388.48   7175.62    387.23   7175.63    385.67  " /><path style="stroke-width: 0.85 ;&st7;   " d=" M  7175.63,   385.67  C  7175.64    384.12   7174.39    382.85   7172.84    382.84  " /><path style="stroke-width: 0.85 ;&st7;   " d=" M  7172.84,   382.84  C  7171.80    382.83   7170.92    383.33   7170.39    384.22  " /><path style="stroke-width: 0.85 ;&st7;   " d=" M  7170.39,   384.22  C  7171.19    385.56   7172.91    386.00   7174.25    385.21  " /><path style="stroke-width: 0.85 ;&st7;   " d=" M  7174.25,   385.21  C  7175.59    384.42   7176.04    382.69   7175.24    381.35  " /><path style="stroke-width: 0.85 ;&st7;   " d=" M  7175.24,   381.35  C  7174.72    380.47   7173.83    379.96   7172.80    379.97  " /><path style="stroke-width: 0.85 ;&st7;   " d=" M  7182.72,   416.80  C  7182.72    416.02   7182.08    415.38   7181.30    415.38  " /><path style="stroke-width: 0.85 ;&st7;   " d=" M  7181.30,   415.38  C  7180.52    415.38   7179.88    416.02   7179.88    416.80  " /><path style="stroke-width: 0.85 ;&st7;   " d=" M  7179.88,   416.80  C  7179.88    417.58   7180.52    418.22   7181.30    418.22  " /><path style="stroke-width: 0.85 ;&st7;   " d=" M  7181.30,   418.22  C  7182.08    418.22   7182.72    417.58   7182.72    416.80  " /><path style="stroke-width: 0.85 ;&st7;   " d=" M  7174.22,   399.80  C  7174.22    399.02   7173.58    398.39   7172.80    398.39  " /><path style="stroke-width: 0.85 ;&st7;   " d=" M  7172.80,   398.39  C  7172.02    398.39   7171.39    399.02   7171.39    399.80  " /><path style="stroke-width: 0.85 ;&st7;   " d=" M  7171.39,   399.80  C  7171.39    400.58   7172.02    401.22   7172.80    401.22  " /><path style="stroke-width: 0.85 ;&st7;   " d=" M  7172.80,   401.22  C  7173.58    401.22   7174.22    400.58   7174.22    399.80  " /><path style="stroke-width: 1.42 ;&st7;   " d=" M  7181.30,   384.22  C  7181.30    379.53   7177.50    375.72   7172.80    375.72  " /><path style="stroke-width: 1.42 ;&st7;   " d=" M  7172.80,   375.72  C  7168.11    375.72   7164.30    379.53   7164.30    384.22  " /><path style="stroke-width: 1.42 ;&st7;   " d=" M  7164.30,   384.22  C  7164.30    388.91   7168.11    392.72   7172.80    392.72  " /><path style="stroke-width: 1.42 ;&st7;   " d=" M  7172.80,   392.72  C  7177.50    392.72   7181.30    388.91   7181.30    384.22  " /><path style="stroke-width: 0.85 ;&st7;  " d=" M  7172.80,   358.73  L  7172.80,   379.97  " /><path style="stroke-width: 0.85 ;&st7;  " d=" M  7164.30,   435.21  L  7164.30,   418.22  " /><path style="stroke-width: 0.85 ;&st7;  " d=" M  7172.80,   398.39  L  7172.80,   388.47  " /><path style="stroke-width: 0.85 ;&st7;  " d=" M  7181.30,   418.22  L  7181.30,   435.21  " /><path style="stroke-width: 1.42 ;&st7;  " d=" M  7138.80,   358.73  L  7138.80,   435.21  L  7206.79,   435.21  L  7206.79,   358.73  L  7138.80,   358.73  " /><path style="stroke-width: 1.42 ;&st7;  " d=" M  7172.30,   401.13  L  7165.89,   418.22  " /><text style="&st18;" transform="matrix(&st17;  7177.6  414.04 )">OFF</text><text style="&st18;" transform="matrix(&st17;  7184.69  414.04 )" ewd:textID="54">On</text><text style="&st18;" transform="matrix(&st17;  7164.86  414.04 )" ewd:textID="22">Door</text><text style="&st18;" transform="matrix(&st16;  7149.12  431.52 )">CTY</text><text style="&st18;" transform="matrix(&st16;  7183.88  431.52 )">E</text><text style="&st18;" transform="matrix(&st16;  7175.38  366.92 )">B</text><text style="&st18;" transform="matrix(&st16;  7166.62  355.04 )">1</text><text style="&st18;" transform="matrix(&st16;  7158.12  443.41 )">3</text><text style="&st18;" transform="matrix(&st16;  7175.12  443.41 )">2</text><g ewd:figtype="title"><text style="&st18;" transform="matrix(&st17;  7221.51  438.12 )" ewd:textID="21">Dome Light <tspan x="0 " dy="6.0">(No. 1 Room Light Assembly)</tspan></text><text style="&st18;" transform="matrix(&st17;  7214.41  438.11 )">O1</text></g></g><g ewd:figtype="jb" ewd:figID="80" ewd:code="7"><path style="stroke-width: 1.42 ;&st7;  " d=" M  7472.38,   129.26  L  7468.13,   129.26  " /><path style="stroke-width: 1.42 ;&st7;  " d=" M  7472.38,   120.77  L  7468.13,   120.77  " /><path style="stroke-width: 1.42 ;&st7;   " d=" M  7476.63,   125.01  C  7476.63    122.67   7474.72    120.77   7472.38    120.77  " /><path style="stroke-width: 1.42 ;&st7;   " d=" M  7472.38,   129.26  C  7474.72    129.26   7476.63    127.36   7476.63    125.01  " /><path style="stroke-width: 1.42 ;&st7;   " d=" M  7463.88,   125.01  C  7463.88    127.36   7465.78    129.26   7468.13    129.26  " /><path style="stroke-width: 1.42 ;&st7;   " d=" M  7468.13,   120.77  C  7465.78    120.77   7463.88    122.67   7463.88    125.01  " /><path style="stroke-width: 0.85 ;&st7;  " d=" M  7470.25,    86.77  L  7470.25,   120.77  " /><path style="stroke-width: 0.28 ;&st9;  " d=" M  7470.25,   115.87  L  7467.42,   113.04  L  7467.42,   117.29  L  7470.25,   120.12  L  7473.08,   117.29  L  7473.08,   113.04  L  7470.25,   115.87  " /><text style="&st18;" transform="matrix(&st16;  7460.97  94.96 )">20</text><text style="&st18;" transform="matrix(&st16;  7456.64  126.98 )">38</text><text style="&st18;" transform="matrix(&st16;  7466.59  126.98 )">5E</text></g><g ewd:figtype="jb" ewd:figID="84" ewd:code="7"><path style="stroke-width: 1.42 ;&st7;  " d=" M  7421.38,   120.77  L  7417.14,   120.77  " /><path style="stroke-width: 1.42 ;&st7;  " d=" M  7421.38,   112.27  L  7417.14,   112.27  " /><path style="stroke-width: 1.42 ;&st7;   " d=" M  7425.63,   116.52  C  7425.63    114.17   7423.73    112.27   7421.38    112.27  " /><path style="stroke-width: 1.42 ;&st7;   " d=" M  7421.38,   120.77  C  7423.73    120.77   7425.63    118.86   7425.63    116.52  " /><path style="stroke-width: 1.42 ;&st7;   " d=" M  7412.89,   116.52  C  7412.89    118.86   7414.79    120.77   7417.14    120.77  " /><path style="stroke-width: 1.42 ;&st7;   " d=" M  7417.14,   112.27  C  7414.79    112.27   7412.89    114.17   7412.89    116.52  " /><path style="stroke-width: 0.85 ;&st7;  " d=" M  7419.26,    86.77  L  7419.26,   112.27  " /><path style="stroke-width: 0.28 ;&st9;  " d=" M  7419.26,   107.37  L  7416.42,   104.54  L  7416.42,   108.79  L  7419.26,   111.62  L  7422.09,   108.79  L  7422.09,   104.54  L  7419.26,   107.37  " /><text style="&st18;" transform="matrix(&st16;  7409.97  94.96 )">21</text><text style="&st18;" transform="matrix(&st16;  7405.65  118.49 )">53</text><text style="&st18;" transform="matrix(&st16;  7415.4  118.49 )">5A</text></g><g ewd:figtype="jb" ewd:figID="87" ewd:code="7"><path style="stroke-width: 1.42 ;&st7;  " d=" M  7888.81,   222.75  L  7884.56,   222.75  " /><path style="stroke-width: 1.42 ;&st7;  " d=" M  7888.81,   231.25  L  7884.56,   231.25  " /><path style="stroke-width: 0.85 ;&st7;  " d=" M  7512.74,   146.26  L  7512.74,   154.76  " /><path style="stroke-width: 1.42 ;&st7;  " d=" M  8543.20,   231.25  L  8538.95,   231.25  " /><path style="stroke-width: 1.42 ;&st7;  " d=" M  7846.31,   222.75  L  7842.06,   222.75  " /><path style="stroke-width: 1.42 ;&st7;  " d=" M  7846.31,   231.25  L  7842.06,   231.25  " /><path style="stroke-width: 1.42 ;&st7;  " d=" M  8985.12,   222.75  L  8980.87,   222.75  " /><path style="stroke-width: 1.42 ;&st7;  " d=" M  8985.12,   231.25  L  8980.87,   231.25  " /><path style="stroke-width: 1.42 ;&st7;  " d=" M  8883.14,   222.75  L  8878.89,   222.75  " /><path style="stroke-width: 1.42 ;&st7;  " d=" M  8883.14,   231.25  L  8878.89,   231.25  " /><path style="stroke-width: 1.42 ;&st7;  " d=" M  8934.13,   222.75  L  8929.88,   222.75  " /><path style="stroke-width: 1.42 ;&st7;  " d=" M  8934.13,   231.25  L  8929.88,   231.25  " /><path style="stroke-width: 1.42 ;&st7;  " d=" M  8645.18,   222.75  L  8640.93,   222.75  " /><path style="stroke-width: 1.42 ;&st7;  " d=" M  8645.18,   231.25  L  8640.93,   231.25  " /><path style="stroke-width: 1.42 ;&st7;  " d=" M  8543.20,   222.75  L  8538.95,   222.75  " /><path style="stroke-width: 1.42 ;&st7;  " d=" M  8594.19,   222.75  L  8589.94,   222.75  " /><path style="stroke-width: 1.42 ;&st7;  " d=" M  8594.19,   231.25  L  8589.94,   231.25  " /><path style="stroke-width: 1.42 ;&st7;  " d=" M  8356.23,   231.25  L  8351.98,   231.25  " /><path style="stroke-width: 1.42 ;&st7;  " d=" M  8356.23,   222.75  L  8351.98,   222.75  " /><path style="stroke-width: 1.42 ;&st7;  " d=" M  8194.76,   231.25  L  8190.51,   231.25  " /><path style="stroke-width: 1.42 ;&st7;  " d=" M  8194.76,   222.75  L  8190.51,   222.75  " /><path style="stroke-width: 0.85 ;&st7;  " d=" M  8218.13,   154.76  L  8218.13,   163.26  " /><path style="stroke-width: 0.85 ;&st7;  " d=" M  8218.13,   129.26  L  8218.13,   137.76  " /><path style="stroke-width: 0.85 ;&st7;  " d=" M  8192.63,   129.26  L  8192.63,   133.51  " /><path style="stroke-width: 0.85 ;&st7;  " d=" M  8184.13,   146.26  L  8186.97,   146.26  " /><path style="stroke-width: 0.85 ;&st7;  " d=" M  8192.63,   159.01  L  8192.63,   163.26  " /><path style="stroke-width: 1.42 ;&st7;  " d=" M  8192.63,   156.18  L  8186.97,   133.51  " /><path style="stroke-width: 1.42 ;&st7;  " d=" M  8075.78,   231.25  L  8071.53,   231.25  " /><path style="stroke-width: 1.42 ;&st7;  " d=" M  8075.78,   222.75  L  8071.53,   222.75  " /><path style="stroke-width: 0.85 ;&st7;  " d=" M  8099.15,   154.76  L  8099.15,   163.26  " /><path style="stroke-width: 0.85 ;&st7;  " d=" M  8099.15,   129.26  L  8099.15,   137.76  " /><path style="stroke-width: 0.85 ;&st7;  " d=" M  8073.65,   129.26  L  8073.65,   133.51  " /><path style="stroke-width: 0.85 ;&st7;  " d=" M  8065.15,   146.26  L  8067.99,   146.26  " /><path style="stroke-width: 0.85 ;&st7;  " d=" M  8073.65,   159.01  L  8073.65,   163.26  " /><path style="stroke-width: 1.42 ;&st7;  " d=" M  8073.65,   156.18  L  8067.99,   133.51  " /><path style="stroke-width: 1.42 ;&st7;  " d=" M  7684.84,   231.25  L  7680.59,   231.25  " /><path style="stroke-width: 1.42 ;&st7;  " d=" M  7684.84,   222.75  L  7680.59,   222.75  " /><path style="stroke-width: 0.85 ;&st7;  " d=" M  7708.21,   154.76  L  7708.21,   163.26  " /><path style="stroke-width: 0.85 ;&st7;  " d=" M  7708.21,   129.26  L  7708.21,   137.76  " /><path style="stroke-width: 0.85 ;&st7;  " d=" M  7682.72,   129.26  L  7682.72,   133.51  " /><path style="stroke-width: 0.85 ;&st7;  " d=" M  7674.22,   146.26  L  7677.05,   146.26  " /><path style="stroke-width: 0.85 ;&st7;  " d=" M  7682.72,   159.01  L  7682.72,   163.26  " /><path style="stroke-width: 1.42 ;&st7;  " d=" M  7682.72,   156.18  L  7677.05,   133.51  " /><path style="stroke-width: 0.85 ;&st7;  " d=" M  7572.23,   146.26  L  7572.23,   154.76  " /><path style="stroke-width: 1.42 ;&st7;   " d=" M  7893.06,   227.00  C  7893.06    224.65   7891.15    222.75   7888.81    222.75  " /><path style="stroke-width: 1.42 ;&st7;   " d=" M  7888.81,   231.25  C  7891.15    231.25   7893.06    229.34   7893.06    227.00  " /><path style="stroke-width: 1.42 ;&st7;   " d=" M  7880.31,   227.00  C  7880.31    229.34   7882.21    231.25   7884.56    231.25  " /><path style="stroke-width: 1.42 ;&st7;   " d=" M  7884.56,   222.75  C  7882.21    222.75   7880.31    224.65   7880.31    227.00  " /><path style="stroke-width: 1.42 ;&st7;   " d=" M  7512.74,   143.43  C  7515.48    141.81   7516.39    138.29   7514.78    135.55  " /><path style="stroke-width: 1.42 ;&st7;   " d=" M  7514.78,   135.55  C  7514.26    134.67   7513.63    134.03   7512.74    133.51  " /><path style="stroke-width: 1.42 ;&st7;   " d=" M  7512.74,   123.60  C  7510.01    125.21   7509.09    128.74   7510.71    131.48  " /><path style="stroke-width: 1.42 ;&st7;   " d=" M  7510.71,   131.48  C  7511.23    132.36   7511.86    132.99   7512.74    133.51  " /><path style="stroke-width: 0.85 ;&st7;   " d=" M  7514.16,   122.18  C  7514.16    121.40   7513.53    120.77   7512.74    120.77  " /><path style="stroke-width: 0.85 ;&st7;   " d=" M  7512.74,   120.77  C  7511.96    120.77   7511.33    121.40   7511.33    122.18  " /><path style="stroke-width: 0.85 ;&st7;   " d=" M  7511.33,   122.18  C  7511.33    122.96   7511.96    123.60   7512.74    123.60  " /><path style="stroke-width: 0.85 ;&st7;   " d=" M  7512.74,   123.60  C  7513.53    123.60   7514.16    122.96   7514.16    122.18  " /><path style="stroke-width: 0.85 ;&st7;   " d=" M  7514.16,   144.84  C  7514.16    144.06   7513.53    143.43   7512.74    143.43  " /><path style="stroke-width: 0.85 ;&st7;   " d=" M  7512.74,   143.43  C  7511.96    143.43   7511.33    144.06   7511.33    144.84  " /><path style="stroke-width: 0.85 ;&st7;   " d=" M  7511.33,   144.84  C  7511.33    145.63   7511.96    146.26   7512.74    146.26  " /><path style="stroke-width: 0.85 ;&st7;   " d=" M  7512.74,   146.26  C  7513.53    146.26   7514.16    145.63   7514.16    144.84  " /><path style="stroke-width: 1.42 ;&st7;   " d=" M  7842.06,   222.75  C  7839.72    222.75   7837.82    224.65   7837.82    227.00  " /><path style="stroke-width: 1.42 ;&st7;   " d=" M  7837.82,   227.00  C  7837.82    229.34   7839.72    231.25   7842.06    231.25  " /><path style="stroke-width: 1.42 ;&st7;   " d=" M  7846.31,   231.25  C  7848.66    231.25   7850.56    229.34   7850.56    227.00  " /><path style="stroke-width: 1.42 ;&st7;   " d=" M  7850.56,   227.00  C  7850.56    224.65   7848.66    222.75   7846.31    222.75  " /><path style="stroke-width: 1.42 ;&st7;   " d=" M  7572.23,   143.43  C  7574.97    141.81   7575.88    138.29   7574.27    135.55  " /><path style="stroke-width: 1.42 ;&st7;   " d=" M  7574.27,   135.55  C  7573.75    134.67   7573.12    134.03   7572.23    133.51  " /><path style="stroke-width: 1.42 ;&st7;   " d=" M  8989.37,   227.00  C  8989.37    224.65   8987.47    222.75   8985.12    222.75  " /><path style="stroke-width: 1.42 ;&st7;   " d=" M  8985.12,   231.25  C  8987.47    231.25   8989.37    229.34   8989.37    227.00  " /><path style="stroke-width: 1.42 ;&st7;   " d=" M  8976.63,   227.00  C  8976.63    229.34   8978.53    231.25   8980.87    231.25  " /><path style="stroke-width: 1.42 ;&st7;   " d=" M  8980.87,   222.75  C  8978.53    222.75   8976.63    224.65   8976.63    227.00  " /><path style="stroke-width: 1.42 ;&st7;   " d=" M  8938.38,   227.00  C  8938.38    224.65   8936.48    222.75   8934.13    222.75  " /><path style="stroke-width: 1.42 ;&st7;   " d=" M  8934.13,   231.25  C  8936.48    231.25   8938.38    229.34   8938.38    227.00  " /><path style="stroke-width: 1.42 ;&st7;   " d=" M  8925.63,   227.00  C  8925.63    229.34   8927.54    231.25   8929.88    231.25  " /><path style="stroke-width: 1.42 ;&st7;   " d=" M  8929.88,   222.75  C  8927.54    222.75   8925.63    224.65   8925.63    227.00  " /><path style="stroke-width: 1.42 ;&st7;   " d=" M  8878.89,   222.75  C  8876.54    222.75   8874.64    224.65   8874.64    227.00  " /><path style="stroke-width: 1.42 ;&st7;   " d=" M  8874.64,   227.00  C  8874.64    229.34   8876.54    231.25   8878.89    231.25  " /><path style="stroke-width: 1.42 ;&st7;   " d=" M  8883.14,   231.25  C  8885.49    231.25   8887.39    229.34   8887.39    227.00  " /><path style="stroke-width: 1.42 ;&st7;   " d=" M  8887.39,   227.00  C  8887.39    224.65   8885.49    222.75   8883.14    222.75  " /><path style="stroke-width: 1.42 ;&st7;   " d=" M  8649.43,   227.00  C  8649.43    224.65   8647.53    222.75   8645.18    222.75  " /><path style="stroke-width: 1.42 ;&st7;   " d=" M  8645.18,   231.25  C  8647.53    231.25   8649.43    229.34   8649.43    227.00  " /><path style="stroke-width: 1.42 ;&st7;   " d=" M  8636.68,   227.00  C  8636.68    229.34   8638.58    231.25   8640.93    231.25  " /><path style="stroke-width: 1.42 ;&st7;   " d=" M  8640.93,   222.75  C  8638.58    222.75   8636.68    224.65   8636.68    227.00  " /><path style="stroke-width: 1.42 ;&st7;   " d=" M  8598.44,   227.00  C  8598.44    224.65   8596.54    222.75   8594.19    222.75  " /><path style="stroke-width: 1.42 ;&st7;   " d=" M  8594.19,   231.25  C  8596.54    231.25   8598.44    229.34   8598.44    227.00  " /><path style="stroke-width: 1.42 ;&st7;   " d=" M  8585.69,   227.00  C  8585.69    229.34   8587.59    231.25   8589.94    231.25  " /><path style="stroke-width: 1.42 ;&st7;   " d=" M  8589.94,   222.75  C  8587.59    222.75   8585.69    224.65   8585.69    227.00  " /><path style="stroke-width: 1.42 ;&st7;   " d=" M  8538.95,   222.75  C  8536.60    222.75   8534.70    224.65   8534.70    227.00  " /><path style="stroke-width: 1.42 ;&st7;   " d=" M  8534.70,   227.00  C  8534.70    229.34   8536.60    231.25   8538.95    231.25  " /><path style="stroke-width: 1.42 ;&st7;   " d=" M  8543.20,   231.25  C  8545.54    231.25   8547.45    229.34   8547.45    227.00  " /><path style="stroke-width: 1.42 ;&st7;   " d=" M  8547.45,   227.00  C  8547.45    224.65   8545.54    222.75   8543.20    222.75  " /><path style="stroke-width: 1.42 ;&st7;   " d=" M  8360.48,   227.00  C  8360.48    224.65   8358.58    222.75   8356.23    222.75  " /><path style="stroke-width: 1.42 ;&st7;   " d=" M  8356.23,   231.25  C  8358.58    231.25   8360.48    229.34   8360.48    227.00  " /><path style="stroke-width: 1.42 ;&st7;   " d=" M  8347.73,   227.00  C  8347.73    229.34   8349.63    231.25   8351.98    231.25  " /><path style="stroke-width: 1.42 ;&st7;   " d=" M  8351.98,   222.75  C  8349.63    222.75   8347.73    224.65   8347.73    227.00  " /><path style="stroke-width: 1.42 ;&st7;   " d=" M  8199.01,   227.00  C  8199.01    224.65   8197.10    222.75   8194.76    222.75  " /><path style="stroke-width: 1.42 ;&st7;   " d=" M  8194.76,   231.25  C  8197.10    231.25   8199.01    229.34   8199.01    227.00  " /><path style="stroke-width: 1.42 ;&st7;   " d=" M  8186.26,   227.00  C  8186.26    229.34   8188.16    231.25   8190.51    231.25  " /><path style="stroke-width: 1.42 ;&st7;   " d=" M  8190.51,   222.75  C  8188.16    222.75   8186.26    224.65   8186.26    227.00  " /><path style="stroke-width: 0.85 ;&st7;   " d=" M  8218.13,   154.76  C  8220.08    154.76   8221.67    153.17   8221.67    151.22  " /><path style="stroke-width: 0.85 ;&st7;   " d=" M  8221.67,   151.22  C  8221.67    149.26   8220.08    147.68   8218.13    147.68  " /><path style="stroke-width: 0.85 ;&st7;   " d=" M  8218.13,   147.68  C  8217.14    147.68   8216.29    148.03   8215.60    148.74  " /><path style="stroke-width: 0.85 ;&st7;   " d=" M  8215.60,   148.74  C  8216.97    150.14   8219.21    150.16   8220.61    148.79  " /><path style="stroke-width: 0.85 ;&st7;   " d=" M  8220.61,   148.79  C  8222.00    147.42   8222.03    145.18   8220.66    143.78  " /><path style="stroke-width: 0.85 ;&st7;   " d=" M  8220.66,   143.78  C  8219.29    142.38   8217.05    142.36   8215.65    143.73  " /><path style="stroke-width: 0.85 ;&st7;   " d=" M  8215.65,   143.73  C  8215.63    143.75   8215.61    143.76   8215.60    143.78  " /><path style="stroke-width: 0.85 ;&st7;   " d=" M  8215.60,   143.78  C  8216.97    145.18   8219.21    145.20   8220.61    143.83  " /><path style="stroke-width: 0.85 ;&st7;   " d=" M  8220.61,   143.83  C  8222.00    142.46   8222.03    140.22   8220.66    138.82  " /><path style="stroke-width: 0.85 ;&st7;   " d=" M  8220.66,   138.82  C  8219.96    138.12   8219.12    137.76   8218.13    137.76  " /><path style="stroke-width: 0.85 ;&st7;   " d=" M  8194.05,   134.93  C  8194.05    134.15   8193.41    133.51   8192.63    133.51  " /><path style="stroke-width: 0.85 ;&st7;   " d=" M  8192.63,   133.51  C  8191.85    133.51   8191.21    134.15   8191.21    134.93  " /><path style="stroke-width: 0.85 ;&st7;   " d=" M  8191.21,   134.93  C  8191.21    135.71   8191.85    136.35   8192.63    136.35  " /><path style="stroke-width: 0.85 ;&st7;   " d=" M  8192.63,   136.35  C  8193.41    136.35   8194.05    135.71   8194.05    134.93  " /><path style="stroke-width: 0.85 ;&st7;   " d=" M  8194.05,   157.59  C  8194.05    156.81   8193.41    156.18   8192.63    156.18  " /><path style="stroke-width: 0.85 ;&st7;   " d=" M  8192.63,   156.18  C  8191.85    156.18   8191.21    156.81   8191.21    157.59  " /><path style="stroke-width: 0.85 ;&st7;   " d=" M  8191.21,   157.59  C  8191.21    158.37   8191.85    159.01   8192.63    159.01  " /><path style="stroke-width: 0.85 ;&st7;   " d=" M  8192.63,   159.01  C  8193.41    159.01   8194.05    158.37   8194.05    157.59  " /><path style="stroke-width: 0.85 ;&st7;   " d=" M  8189.80,   146.26  C  8189.80    145.48   8189.16    144.84   8188.38    144.84  " /><path style="stroke-width: 0.85 ;&st7;   " d=" M  8188.38,   144.84  C  8187.60    144.84   8186.97    145.48   8186.97    146.26  " /><path style="stroke-width: 0.85 ;&st7;   " d=" M  8186.97,   146.26  C  8186.97    147.04   8187.60    147.68   8188.38    147.68  " /><path style="stroke-width: 0.85 ;&st7;   " d=" M  8188.38,   147.68  C  8189.16    147.68   8189.80    147.04   8189.80    146.26  " /><path style="stroke-width: 1.42 ;&st7;   " d=" M  8080.02,   227.00  C  8080.02    224.65   8078.12    222.75   8075.78    222.75  " /><path style="stroke-width: 1.42 ;&st7;   " d=" M  8075.78,   231.25  C  8078.12    231.25   8080.02    229.34   8080.02    227.00  " /><path style="stroke-width: 1.42 ;&st7;   " d=" M  8067.28,   227.00  C  8067.28    229.34   8069.18    231.25   8071.53    231.25  " /><path style="stroke-width: 1.42 ;&st7;   " d=" M  8071.53,   222.75  C  8069.18    222.75   8067.28    224.65   8067.28    227.00  " /><path style="stroke-width: 0.85 ;&st7;   " d=" M  8099.15,   154.76  C  8101.10    154.76   8102.69    153.17   8102.69    151.22  " /><path style="stroke-width: 0.85 ;&st7;   " d=" M  8102.69,   151.22  C  8102.69    149.26   8101.10    147.68   8099.15    147.68  " /><path style="stroke-width: 0.85 ;&st7;   " d=" M  8099.15,   147.68  C  8098.16    147.68   8097.31    148.03   8096.62    148.74  " /><path style="stroke-width: 0.85 ;&st7;   " d=" M  8096.62,   148.74  C  8097.99    150.14   8100.23    150.16   8101.63    148.79  " /><path style="stroke-width: 0.85 ;&st7;   " d=" M  8101.63,   148.79  C  8103.02    147.42   8103.05    145.18   8101.68    143.78  " /><path style="stroke-width: 0.85 ;&st7;   " d=" M  8101.68,   143.78  C  8100.31    142.38   8098.07    142.36   8096.67    143.73  " /><path style="stroke-width: 0.85 ;&st7;   " d=" M  8096.67,   143.73  C  8096.65    143.75   8096.63    143.76   8096.62    143.78  " /><path style="stroke-width: 0.85 ;&st7;   " d=" M  8096.62,   143.78  C  8097.99    145.18   8100.23    145.20   8101.63    143.83  " /><path style="stroke-width: 0.85 ;&st7;   " d=" M  8101.63,   143.83  C  8103.02    142.46   8103.05    140.22   8101.68    138.82  " /><path style="stroke-width: 0.85 ;&st7;   " d=" M  8101.68,   138.82  C  8100.98    138.12   8100.14    137.76   8099.15    137.76  " /><path style="stroke-width: 0.85 ;&st7;   " d=" M  8075.07,   134.93  C  8075.07    134.15   8074.43    133.51   8073.65    133.51  " /><path style="stroke-width: 0.85 ;&st7;   " d=" M  8073.65,   133.51  C  8072.87    133.51   8072.23    134.15   8072.23    134.93  " /><path style="stroke-width: 0.85 ;&st7;   " d=" M  8072.23,   134.93  C  8072.23    135.71   8072.87    136.35   8073.65    136.35  " /><path style="stroke-width: 0.85 ;&st7;   " d=" M  8073.65,   136.35  C  8074.43    136.35   8075.07    135.71   8075.07    134.93  " /><path style="stroke-width: 0.85 ;&st7;   " d=" M  8075.07,   157.59  C  8075.07    156.81   8074.43    156.18   8073.65    156.18  " /><path style="stroke-width: 0.85 ;&st7;   " d=" M  8073.65,   156.18  C  8072.87    156.18   8072.23    156.81   8072.23    157.59  " /><path style="stroke-width: 0.85 ;&st7;   " d=" M  8072.23,   157.59  C  8072.23    158.37   8072.87    159.01   8073.65    159.01  " /><path style="stroke-width: 0.85 ;&st7;   " d=" M  8073.65,   159.01  C  8074.43    159.01   8075.07    158.37   8075.07    157.59  " /><path style="stroke-width: 0.85 ;&st7;   " d=" M  8070.82,   146.26  C  8070.82    145.48   8070.18    144.84   8069.40    144.84  " /><path style="stroke-width: 0.85 ;&st7;   " d=" M  8069.40,   144.84  C  8068.62    144.84   8067.99    145.48   8067.99    146.26  " /><path style="stroke-width: 0.85 ;&st7;   " d=" M  8067.99,   146.26  C  8067.99    147.04   8068.62    147.68   8069.40    147.68  " /><path style="stroke-width: 0.85 ;&st7;   " d=" M  8069.40,   147.68  C  8070.18    147.68   8070.82    147.04   8070.82    146.26  " /><path style="stroke-width: 1.42 ;&st7;   " d=" M  7689.09,   227.00  C  7689.09    224.65   7687.19    222.75   7684.84    222.75  " /><path style="stroke-width: 1.42 ;&st7;   " d=" M  7684.84,   231.25  C  7687.19    231.25   7689.09    229.34   7689.09    227.00  " /><path style="stroke-width: 1.42 ;&st7;   " d=" M  7676.34,   227.00  C  7676.34    229.34   7678.24    231.25   7680.59    231.25  " /><path style="stroke-width: 1.42 ;&st7;   " d=" M  7680.59,   222.75  C  7678.24    222.75   7676.34    224.65   7676.34    227.00  " /><path style="stroke-width: 0.85 ;&st7;   " d=" M  7708.21,   154.76  C  7710.17    154.76   7711.75    153.17   7711.75    151.22  " /><path style="stroke-width: 0.85 ;&st7;   " d=" M  7711.75,   151.22  C  7711.75    149.26   7710.17    147.68   7708.21    147.68  " /><path style="stroke-width: 0.85 ;&st7;   " d=" M  7708.21,   147.68  C  7707.22    147.68   7706.38    148.03   7705.68    148.74  " /><path style="stroke-width: 0.85 ;&st7;   " d=" M  7705.68,   148.74  C  7707.05    150.14   7709.29    150.16   7710.69    148.79  " /><path style="stroke-width: 0.85 ;&st7;   " d=" M  7710.69,   148.79  C  7712.09    147.42   7712.11    145.18   7710.74    143.78  " /><path style="stroke-width: 0.85 ;&st7;   " d=" M  7710.74,   143.78  C  7709.37    142.38   7707.13    142.36   7705.73    143.73  " /><path style="stroke-width: 0.85 ;&st7;   " d=" M  7705.73,   143.73  C  7705.72    143.75   7705.70    143.76   7705.68    143.78  " /><path style="stroke-width: 0.85 ;&st7;   " d=" M  7705.68,   143.78  C  7707.05    145.18   7709.29    145.20   7710.69    143.83  " /><path style="stroke-width: 0.85 ;&st7;   " d=" M  7710.69,   143.83  C  7712.09    142.46   7712.11    140.22   7710.74    138.82  " /><path style="stroke-width: 0.85 ;&st7;   " d=" M  7710.74,   138.82  C  7710.05    138.12   7709.20    137.76   7708.21    137.76  " /><path style="stroke-width: 0.85 ;&st7;   " d=" M  7684.13,   134.93  C  7684.13    134.15   7683.50    133.51   7682.72    133.51  " /><path style="stroke-width: 0.85 ;&st7;   " d=" M  7682.72,   133.51  C  7681.93    133.51   7681.30    134.15   7681.30    134.93  " /><path style="stroke-width: 0.85 ;&st7;   " d=" M  7681.30,   134.93  C  7681.30    135.71   7681.93    136.35   7682.72    136.35  " /><path style="stroke-width: 0.85 ;&st7;   " d=" M  7682.72,   136.35  C  7683.50    136.35   7684.13    135.71   7684.13    134.93  " /><path style="stroke-width: 0.85 ;&st7;   " d=" M  7684.13,   157.59  C  7684.13    156.81   7683.50    156.18   7682.72    156.18  " /><path style="stroke-width: 0.85 ;&st7;   " d=" M  7682.72,   156.18  C  7681.93    156.18   7681.30    156.81   7681.30    157.59  " /><path style="stroke-width: 0.85 ;&st7;   " d=" M  7681.30,   157.59  C  7681.30    158.37   7681.93    159.01   7682.72    159.01  " /><path style="stroke-width: 0.85 ;&st7;   " d=" M  7682.72,   159.01  C  7683.50    159.01   7684.13    158.37   7684.13    157.59  " /><path style="stroke-width: 0.85 ;&st7;   " d=" M  7679.88,   146.26  C  7679.88    145.48   7679.25    144.84   7678.47    144.84  " /><path style="stroke-width: 0.85 ;&st7;   " d=" M  7678.47,   144.84  C  7677.68    144.84   7677.05    145.48   7677.05    146.26  " /><path style="stroke-width: 0.85 ;&st7;   " d=" M  7677.05,   146.26  C  7677.05    147.04   7677.68    147.68   7678.47    147.68  " /><path style="stroke-width: 0.85 ;&st7;   " d=" M  7678.47,   147.68  C  7679.25    147.68   7679.88    147.04   7679.88    146.26  " /><path style="stroke-width: 1.42 ;&st7;   " d=" M  7572.23,   123.60  C  7569.50    125.21   7568.58    128.74   7570.20    131.48  " /><path style="stroke-width: 1.42 ;&st7;   " d=" M  7570.20,   131.48  C  7570.72    132.36   7571.35    132.99   7572.23    133.51  " /><path style="stroke-width: 0.85 ;&st7;   " d=" M  7573.65,   144.84  C  7573.65    144.06   7573.02    143.43   7572.23    143.43  " /><path style="stroke-width: 0.85 ;&st7;   " d=" M  7572.23,   143.43  C  7571.45    143.43   7570.82    144.06   7570.82    144.84  " /><path style="stroke-width: 0.85 ;&st7;   " d=" M  7570.82,   144.84  C  7570.82    145.63   7571.45    146.26   7572.23    146.26  " /><path style="stroke-width: 0.85 ;&st7;   " d=" M  7572.23,   146.26  C  7573.02    146.26   7573.65    145.63   7573.65    144.84  " /><path style="stroke-width: 0.85 ;&st7;   " d=" M  7573.65,   122.18  C  7573.65    121.40   7573.02    120.77   7572.23    120.77  " /><path style="stroke-width: 0.85 ;&st7;   " d=" M  7572.23,   120.77  C  7571.45    120.77   7570.82    121.40   7570.82    122.18  " /><path style="stroke-width: 0.85 ;&st7;   " d=" M  7570.82,   122.18  C  7570.82    122.96   7571.45    123.60   7572.23    123.60  " /><path style="stroke-width: 0.85 ;&st7;   " d=" M  7572.23,   123.60  C  7573.02    123.60   7573.65    122.96   7573.65    122.18  " /><path style="stroke-width: 0.85 ;&st7;  " d=" M  8029.96,   187.75  L  8029.69,   188.22  L  8029.60,   188.75  L  8029.69,   189.29  L  8029.96,   189.76  L  8030.38,   190.10  L  8030.89,   190.29  L  8031.42,   190.29  L  8031.93,   190.10  L  8032.35,   189.76  L  8032.62,   189.29  L  8032.71,   188.75  L  8032.62,   188.22  L  8032.35,   187.75  L  8031.93,   187.41  L  8031.42,   187.22  L  8030.89,   187.22  L  8030.38,   187.41  L  8029.96,   187.75  L  8030.36,   188.46  L  8030.36,   189.05  L  8030.73,   189.49  L  8031.30,   189.59  L  8031.81,   189.30  L  8032.00,   188.75  L  8031.81,   188.21  L  8031.30,   187.92  L  8030.73,   188.02  L  8031.15,   188.75  " /><path style="stroke-width: 0.85 ;&st7;  " d=" M  8031.15,   188.75  L  8031.15,   112.27  L  8073.65,   112.27  L  8073.65,   129.26  " /><path style="stroke-width: 0.85 ;&st7;  " d=" M  7842.99,   204.75  L  7842.72,   205.22  L  7842.63,   205.75  L  7842.72,   206.28  L  7842.99,   206.75  L  7843.41,   207.10  L  7843.92,   207.29  L  7844.46,   207.29  L  7844.97,   207.10  L  7845.38,   206.75  L  7845.65,   206.28  L  7845.74,   205.75  L  7845.65,   205.22  L  7845.38,   204.75  L  7844.97,   204.40  L  7844.46,   204.22  L  7843.92,   204.22  L  7843.41,   204.40  L  7842.99,   204.75  L  7843.39,   205.46  L  7843.39,   206.04  L  7843.76,   206.49  L  7844.33,   206.59  L  7844.84,   206.30  L  7845.04,   205.75  L  7844.84,   205.20  L  7844.33,   204.92  L  7843.76,   205.01  L  7844.19,   205.75  " /><path style="stroke-width: 0.85 ;&st7;  " d=" M  7708.21,   163.26  L  7708.21,   180.26  L  7640.22,   180.26  " /><path style="stroke-width: 0.85 ;&st7;  " d=" M  7886.68,   222.75  L  7886.68,   205.75  L  7844.19,   205.75  " /><path style="stroke-width: 0.28 ;&st9;  " d=" M  7886.68,   217.85  L  7883.85,   215.02  L  7883.85,   219.27  L  7886.68,   222.10  L  7889.51,   219.27  L  7889.51,   215.02  L  7886.68,   217.85  " /><path style="stroke-width: 1.42 ;&st7;  " d=" M  7499.99,   112.27  L  7499.99,   154.76  L  7525.49,   154.76  L  7525.49,   112.27  L  7499.99,   112.27  " /><path style="stroke-width: 0.85 ;&st7;  " d=" M  8932.00,   222.75  L  8932.00,   171.76  L  8192.63,   171.76  " /><path style="stroke-width: 0.85 ;&st7;  " d=" M  8192.63,   222.75  L  8192.63,   171.76  " /><path style="stroke-width: 0.85 ;&st7;  " d=" M  8218.12,   163.26  L  8218.12,   188.75  " /><path style="stroke-width: 0.28 ;&st9;  " d=" M  7844.19,   217.85  L  7841.35,   215.02  L  7841.35,   219.27  L  7844.19,   222.10  L  7847.02,   219.27  L  7847.02,   215.02  L  7844.19,   217.85  " /><path style="stroke-width: 0.85 ;&st7;  " d=" M  7844.19,    86.77  L  7844.19,   222.75  " /><path style="stroke-width: 0.85 ;&st7;  " d=" M  7674.21,   146.26  L  7657.22,   146.26  L  7657.22,   103.77  L  8167.13,   103.77  L  8167.13,   146.26  L  8184.13,   146.26  " /><path style="stroke-width: 0.28 ;&st9;  " d=" M  8983.00,   217.85  L  8980.16,   215.02  L  8980.16,   219.27  L  8983.00,   222.10  L  8985.83,   219.27  L  8985.83,   215.02  L  8983.00,   217.85  " /><path style="stroke-width: 0.28 ;&st9;  " d=" M  8932.00,   217.85  L  8929.17,   215.02  L  8929.17,   219.27  L  8932.00,   222.10  L  8934.84,   219.27  L  8934.84,   215.02  L  8932.00,   217.85  " /><path style="stroke-width: 0.28 ;&st9;  " d=" M  8881.01,   217.85  L  8878.18,   215.02  L  8878.18,   219.27  L  8881.01,   222.10  L  8883.85,   219.27  L  8883.85,   215.02  L  8881.01,   217.85  " /><path style="stroke-width: 0.85 ;&st7;  " d=" M  8643.05,   154.76  L  8983.00,   154.76  L  8983.00,   222.75  " /><path style="stroke-width: 0.85 ;&st7;  " d=" M  8643.05,    86.77  L  8643.05,   222.75  " /><path style="stroke-width: 0.85 ;&st7;  " d=" M  8641.86,   153.76  L  8641.59,   154.23  L  8641.49,   154.76  L  8641.59,   155.29  L  8641.86,   155.76  L  8642.27,   156.11  L  8642.78,   156.30  L  8643.32,   156.30  L  8643.83,   156.11  L  8644.24,   155.76  L  8644.52,   155.29  L  8644.61,   154.76  L  8644.52,   154.23  L  8644.24,   153.76  L  8643.83,   153.41  L  8643.32,   153.22  L  8642.78,   153.22  L  8642.27,   153.41  L  8641.86,   153.76  L  8642.25,   154.47  L  8642.25,   155.05  L  8642.63,   155.50  L  8643.20,   155.60  L  8643.70,   155.31  L  8643.90,   154.76  L  8643.70,   154.21  L  8643.20,   153.92  L  8642.63,   154.02  L  8643.05,   154.76  " /><path style="stroke-width: 0.28 ;&st9;  " d=" M  8643.05,   217.85  L  8640.22,   215.02  L  8640.22,   219.27  L  8643.05,   222.10  L  8645.89,   219.27  L  8645.89,   215.02  L  8643.05,   217.85  " /><path style="stroke-width: 0.85 ;&st7;  " d=" M  7639.03,   179.25  L  7638.76,   179.72  L  7638.66,   180.26  L  7638.76,   180.79  L  7639.03,   181.26  L  7639.44,   181.60  L  7639.95,   181.79  L  7640.49,   181.79  L  7641.00,   181.60  L  7641.41,   181.26  L  7641.68,   180.79  L  7641.78,   180.26  L  7641.68,   179.72  L  7641.41,   179.25  L  7641.00,   178.91  L  7640.49,   178.72  L  7639.95,   178.72  L  7639.44,   178.91  L  7639.03,   179.25  L  7639.42,   179.96  L  7639.42,   180.55  L  7639.80,   180.99  L  7640.37,   181.09  L  7640.87,   180.80  L  7641.07,   180.26  L  7640.87,   179.71  L  7640.37,   179.42  L  7639.80,   179.52  L  7640.22,   180.26  " /><path style="stroke-width: 0.85 ;&st7;  " d=" M  8592.06,   171.76  L  8592.06,   222.75  " /><path style="stroke-width: 0.85 ;&st7;  " d=" M  8590.87,   170.75  L  8590.60,   171.22  L  8590.50,   171.76  L  8590.60,   172.29  L  8590.87,   172.76  L  8591.28,   173.11  L  8591.79,   173.29  L  8592.33,   173.29  L  8592.84,   173.11  L  8593.25,   172.76  L  8593.53,   172.29  L  8593.62,   171.76  L  8593.53,   171.22  L  8593.25,   170.75  L  8592.84,   170.41  L  8592.33,   170.22  L  8591.79,   170.22  L  8591.28,   170.41  L  8590.87,   170.75  L  8591.26,   171.47  L  8591.26,   172.05  L  8591.64,   172.49  L  8592.21,   172.59  L  8592.71,   172.30  L  8592.91,   171.76  L  8592.71,   171.21  L  8592.21,   170.92  L  8591.64,   171.02  L  8592.06,   171.76  " /><path style="stroke-width: 0.85 ;&st7;  " d=" M  8539.88,   204.75  L  8539.60,   205.22  L  8539.51,   205.75  L  8539.60,   206.28  L  8539.88,   206.75  L  8540.29,   207.10  L  8540.80,   207.29  L  8541.34,   207.29  L  8541.85,   207.10  L  8542.26,   206.75  L  8542.53,   206.28  L  8542.63,   205.75  L  8542.53,   205.22  L  8542.26,   204.75  L  8541.85,   204.40  L  8541.34,   204.22  L  8540.80,   204.22  L  8540.29,   204.40  L  8539.88,   204.75  L  8540.27,   205.46  L  8540.27,   206.04  L  8540.64,   206.49  L  8541.22,   206.59  L  8541.72,   206.30  L  8541.92,   205.75  L  8541.72,   205.20  L  8541.22,   204.92  L  8540.64,   205.01  L  8541.07,   205.75  " /><path style="stroke-width: 0.85 ;&st7;  " d=" M  8191.44,   170.75  L  8191.16,   171.22  L  8191.07,   171.76  L  8191.16,   172.29  L  8191.44,   172.76  L  8191.85,   173.11  L  8192.36,   173.29  L  8192.90,   173.29  L  8193.41,   173.11  L  8193.82,   172.76  L  8194.09,   172.29  L  8194.19,   171.76  L  8194.09,   171.22  L  8193.82,   170.75  L  8193.41,   170.41  L  8192.90,   170.22  L  8192.36,   170.22  L  8191.85,   170.41  L  8191.44,   170.75  L  8191.83,   171.47  L  8191.83,   172.05  L  8192.20,   172.49  L  8192.77,   172.59  L  8193.28,   172.30  L  8193.48,   171.76  L  8193.28,   171.21  L  8192.77,   170.92  L  8192.20,   171.02  L  8192.63,   171.76  " /><path style="stroke-width: 0.85 ;&st7;  " d=" M  8541.07,   205.75  L  8541.07,   222.75  " /><path style="stroke-width: 0.28 ;&st9;  " d=" M  8592.06,   217.85  L  8589.23,   215.02  L  8589.23,   219.27  L  8592.06,   222.10  L  8594.89,   219.27  L  8594.89,   215.02  L  8592.06,   217.85  " /><path style="stroke-width: 0.28 ;&st9;  " d=" M  8541.07,   217.85  L  8538.24,   215.02  L  8538.24,   219.27  L  8541.07,   222.10  L  8543.90,   219.27  L  8543.90,   215.02  L  8541.07,   217.85  " /><path style="stroke-width: 0.85 ;&st7;  " d=" M  8352.91,   204.75  L  8352.64,   205.22  L  8352.54,   205.75  L  8352.64,   206.28  L  8352.91,   206.75  L  8353.32,   207.10  L  8353.83,   207.29  L  8354.37,   207.29  L  8354.88,   207.10  L  8355.29,   206.75  L  8355.57,   206.28  L  8355.66,   205.75  L  8355.57,   205.22  L  8355.29,   204.75  L  8354.88,   204.40  L  8354.37,   204.22  L  8353.83,   204.22  L  8353.32,   204.40  L  8352.91,   204.75  L  8353.30,   205.46  L  8353.30,   206.04  L  8353.68,   206.49  L  8354.25,   206.59  L  8354.75,   206.30  L  8354.95,   205.75  L  8354.75,   205.20  L  8354.25,   204.92  L  8353.68,   205.01  L  8354.10,   205.75  " /><path style="stroke-width: 0.85 ;&st7;  " d=" M  8354.10,   222.75  L  8354.10,   205.75  " /><path style="stroke-width: 0.85 ;&st7;  " d=" M  8072.45,   204.75  L  8072.18,   205.22  L  8072.09,   205.75  L  8072.18,   206.28  L  8072.45,   206.75  L  8072.87,   207.10  L  8073.38,   207.29  L  8073.92,   207.29  L  8074.43,   207.10  L  8074.84,   206.75  L  8075.11,   206.28  L  8075.21,   205.75  L  8075.11,   205.22  L  8074.84,   204.75  L  8074.43,   204.40  L  8073.92,   204.22  L  8073.38,   204.22  L  8072.87,   204.40  L  8072.45,   204.75  L  8072.85,   205.46  L  8072.85,   206.04  L  8073.22,   206.49  L  8073.79,   206.59  L  8074.30,   206.30  L  8074.50,   205.75  L  8074.30,   205.20  L  8073.79,   204.92  L  8073.22,   205.01  L  8073.65,   205.75  " /><path style="stroke-width: 0.85 ;&st7;  " d=" M  8073.65,   205.75  L  8881.01,   205.75  L  8881.01,   222.75  " /><path style="stroke-width: 0.28 ;&st9;  " d=" M  8354.10,   217.85  L  8351.27,   215.02  L  8351.27,   219.27  L  8354.10,   222.10  L  8356.93,   219.27  L  8356.93,   215.02  L  8354.10,   217.85  " /><path style="stroke-width: 0.85 ;&st7;  " d=" M  8192.63,   163.26  L  8192.63,   171.76  " /><path style="stroke-width: 0.28 ;&st9;  " d=" M  8192.63,   217.85  L  8189.79,   215.02  L  8189.79,   219.27  L  8192.63,   222.10  L  8195.46,   219.27  L  8195.46,   215.02  L  8192.63,   217.85  " /><path style="stroke-width: 0.85 ;&st7;  " d=" M  8046.96,   102.77  L  8046.69,   103.24  L  8046.59,   103.77  L  8046.69,   104.30  L  8046.96,   104.77  L  8047.37,   105.12  L  8047.88,   105.30  L  8048.42,   105.30  L  8048.93,   105.12  L  8049.34,   104.77  L  8049.62,   104.30  L  8049.71,   103.77  L  8049.62,   103.24  L  8049.34,   102.77  L  8048.93,   102.42  L  8048.42,   102.23  L  8047.88,   102.23  L  8047.37,   102.42  L  8046.96,   102.77  L  8047.35,   103.48  L  8047.35,   104.06  L  8047.73,   104.50  L  8048.30,   104.60  L  8048.80,   104.31  L  8049.00,   103.77  L  8048.80,   103.22  L  8048.30,   102.93  L  8047.73,   103.03  L  8048.15,   103.77  " /><path style="stroke-width: 0.85 ;&st7;  " d=" M  8065.15,   146.26  L  8048.15,   146.26  L  8048.15,   103.77  " /><path style="stroke-width: 0.85 ;&st7;  " d=" M  8148.94,   187.75  L  8148.67,   188.22  L  8148.58,   188.75  L  8148.67,   189.29  L  8148.94,   189.76  L  8149.36,   190.10  L  8149.87,   190.29  L  8150.40,   190.29  L  8150.91,   190.10  L  8151.33,   189.76  L  8151.60,   189.29  L  8151.69,   188.75  L  8151.60,   188.22  L  8151.33,   187.75  L  8150.91,   187.41  L  8150.40,   187.22  L  8149.87,   187.22  L  8149.36,   187.41  L  8148.94,   187.75  L  8149.34,   188.46  L  8149.34,   189.05  L  8149.71,   189.49  L  8150.28,   189.59  L  8150.79,   189.30  L  8150.98,   188.75  L  8150.79,   188.21  L  8150.28,   187.92  L  8149.71,   188.02  L  8150.13,   188.75  " /><path style="stroke-width: 0.85 ;&st7;  " d=" M  8099.14,   163.26  L  8099.14,   188.75  " /><path style="stroke-width: 0.85 ;&st7;  " d=" M  8097.95,   187.75  L  8097.68,   188.22  L  8097.59,   188.75  L  8097.68,   189.29  L  8097.95,   189.76  L  8098.36,   190.10  L  8098.87,   190.29  L  8099.41,   190.29  L  8099.92,   190.10  L  8100.34,   189.76  L  8100.61,   189.29  L  8100.70,   188.75  L  8100.61,   188.22  L  8100.34,   187.75  L  8099.92,   187.41  L  8099.41,   187.22  L  8098.87,   187.22  L  8098.36,   187.41  L  8097.95,   187.75  L  8098.34,   188.46  L  8098.34,   189.05  L  8098.72,   189.49  L  8099.29,   189.59  L  8099.79,   189.30  L  8099.99,   188.75  L  8099.79,   188.21  L  8099.29,   187.92  L  8098.72,   188.02  L  8099.14,   188.75  " /><path style="stroke-width: 0.85 ;&st7;  " d=" M  8192.63,   129.26  L  8192.63,   112.27  L  8150.13,   112.27  L  8150.13,   188.75  " /><path style="stroke-width: 0.85 ;&st7;  " d=" M  8218.12,   129.26  L  8218.12,    86.77  " /><path style="stroke-width: 1.13 ;&st7; stroke-dasharray:3, 3;" d=" M  8184.13,   129.26  L  8226.62,   129.26  L  8226.62,   163.26  L  8184.13,   163.26  L  8184.13,   129.26  " /><path style="stroke-width: 0.85 ;&st7;  " d=" M  8073.65,   163.26  L  8073.65,   222.75  " /><path style="stroke-width: 0.28 ;&st9;  " d=" M  8073.65,   217.85  L  8070.81,   215.02  L  8070.81,   219.27  L  8073.65,   222.10  L  8076.48,   219.27  L  8076.48,   215.02  L  8073.65,   217.85  " /><path style="stroke-width: 0.85 ;&st7;  " d=" M  7842.99,   102.77  L  7842.72,   103.24  L  7842.63,   103.77  L  7842.72,   104.30  L  7842.99,   104.77  L  7843.41,   105.12  L  7843.92,   105.30  L  7844.46,   105.30  L  7844.97,   105.12  L  7845.38,   104.77  L  7845.65,   104.30  L  7845.74,   103.77  L  7845.65,   103.24  L  7845.38,   102.77  L  7844.97,   102.42  L  7844.46,   102.23  L  7843.92,   102.23  L  7843.41,   102.42  L  7842.99,   102.77  L  7843.39,   103.48  L  7843.39,   104.06  L  7843.76,   104.50  L  7844.33,   104.60  L  7844.84,   104.31  L  7845.04,   103.77  L  7844.84,   103.22  L  7844.33,   102.93  L  7843.76,   103.03  L  7844.19,   103.77  " /><path style="stroke-width: 0.85 ;&st7;  " d=" M  8099.14,   129.26  L  8099.14,    86.77  " /><path style="stroke-width: 1.13 ;&st7; stroke-dasharray:3, 3;" d=" M  8065.15,   129.26  L  8107.64,   129.26  L  8107.64,   163.26  L  8065.15,   163.26  L  8065.15,   129.26  " /><path style="stroke-width: 0.85 ;&st7;  " d=" M  7682.71,   163.26  L  7682.71,   222.75  " /><path style="stroke-width: 0.28 ;&st9;  " d=" M  7682.71,   217.85  L  7679.88,   215.02  L  7679.88,   219.27  L  7682.71,   222.10  L  7685.55,   219.27  L  7685.55,   215.02  L  7682.71,   217.85  " /><path style="stroke-width: 0.85 ;&st7;  " d=" M  7682.71,   129.26  L  7682.71,   112.27  L  7640.22,   112.27  L  7640.22,   180.26  L  7572.23,   180.26  L  7572.23,   154.76  " /><path style="stroke-width: 0.85 ;&st7;  " d=" M  7708.21,   129.26  L  7708.21,    86.77  " /><path style="stroke-width: 1.13 ;&st7; stroke-dasharray:3, 3;" d=" M  7674.21,   129.26  L  7716.71,   129.26  L  7716.71,   163.26  L  7674.21,   163.26  L  7674.21,   129.26  " /><path style="stroke-width: 1.42 ;&st7;  " d=" M  7559.48,   112.27  L  7559.48,   154.76  L  7584.98,   154.76  L  7584.98,   112.27  L  7559.48,   112.27  " /><text style="&st18;" transform="matrix(&st16;  7720.39  142.58 )" ewd:textID="8">BK/DR <tspan x="0 " dy="6.0">LOCK </tspan><tspan x="0 " dy="6.0">Relay</tspan></text><text style="&st18;" transform="matrix(&st16;  7882.71  228.97 )">5C</text><text style="&st18;" transform="matrix(&st16;  7876.18  228.97 )">9</text><text style="&st18;" transform="matrix(&st16;  7566.05  162.95 )">2</text><text style="&st18;" transform="matrix(&st16;  7506.56  162.95 )">2</text><text style="&st18;" transform="matrix(&st16;  7504.7  108.57 )">(BAT)</text><text style="&st18;" transform="matrix(&st16;  7529.17  129.83 )">25A <tspan x="0 " dy="6.0">D/L- </tspan><tspan x="0 " dy="6.0">ALT</tspan></text><text style="&st18;" transform="matrix(&st16;  8969.39  228.97 )">24</text><text style="&st18;" transform="matrix(&st16;  8979.34  228.97 )">5E</text><text style="&st18;" transform="matrix(&st16;  8921.5  228.97 )">2</text><text style="&st18;" transform="matrix(&st16;  8928.35  228.97 )">5E</text><text style="&st18;" transform="matrix(&st16;  8877.35  228.97 )">5E</text><text style="&st18;" transform="matrix(&st16;  8870.51  228.97 )">9</text><text style="&st18;" transform="matrix(&st16;  8636.87  94.96 )">5</text><text style="&st18;" transform="matrix(&st16;  8629.45  228.97 )">39</text><text style="&st18;" transform="matrix(&st16;  8639.39  228.97 )">5E</text><text style="&st18;" transform="matrix(&st16;  8581.56  228.97 )">1</text><text style="&st18;" transform="matrix(&st16;  8588.4  228.97 )">5E</text><text style="&st18;" transform="matrix(&st16;  8537.41  228.97 )">5E</text><text style="&st18;" transform="matrix(&st16;  8530.57  228.97 )">8</text><text style="&st18;" transform="matrix(&st16;  7840.26  228.97 )">5D</text><text style="&st18;" transform="matrix(&st16;  7830.58  228.97 )">12</text><text style="&st18;" transform="matrix(&st16;  8340.5  228.97 )">13</text><text style="&st18;" transform="matrix(&st16;  8350.13  228.97 )">5C</text><text style="&st18;" transform="matrix(&st16;  8182.12  228.97 )">5</text><text style="&st18;" transform="matrix(&st16;  8188.66  228.97 )">5C</text><text style="&st18;" transform="matrix(&st16;  8211.94  94.96 )">8</text><text style="&st18;" transform="matrix(&st16;  8060.04  228.97 )">14</text><text style="&st18;" transform="matrix(&st16;  8069.68  228.97 )">5C</text><text style="&st18;" transform="matrix(&st16;  8230.3  145.4 )" ewd:textID="18">D/UNLOCK <tspan x="0 " dy="6.0">Relay</tspan></text><text style="&st18;" transform="matrix(&st16;  8092.96  94.96 )">9</text><text style="&st18;" transform="matrix(&st16;  7834.9  94.96 )">11</text><text style="&st18;" transform="matrix(&st16;  7669.11  228.97 )">37</text><text style="&st18;" transform="matrix(&st16;  7679.05  228.97 )">5E</text><text style="&st18;" transform="matrix(&st16;  8111.32  145.4 )" ewd:textID="17">D/LOCK <tspan x="0 " dy="6.0">Relay</tspan></text><text style="&st18;" transform="matrix(&st16;  7702.03  94.96 )">6</text><text style="&st18;" transform="matrix(&st16;  7564.19  108.57 )">(BAT)</text><text style="&st18;" transform="matrix(&st16;  7588.66  129.83 )">10A <tspan x="0 " dy="6.0">D/L </tspan><tspan x="0 " dy="6.0">BACK</tspan></text><path style="stroke-width: 0.85 ;&st7;  " d=" M  7512.74,   154.76  L  7512.74,   188.75  L  8218.12,   188.75  " /></g><g ewd:figtype="jb" ewd:figID="91" ewd:code="7"><path style="stroke-width: 1.42 ;&st7;   " d=" M  7128.18,   133.51  C  7128.18    131.17   7126.28    129.26   7123.93    129.26  " /><path style="stroke-width: 1.42 ;&st7;   " d=" M  7123.93,   137.76  C  7126.28    137.76   7128.18    135.86   7128.18    133.51  " /><path style="stroke-width: 1.42 ;&st7;   " d=" M  7115.44,   133.51  C  7115.44    135.86   7117.34    137.76   7119.69    137.76  " /><path style="stroke-width: 1.42 ;&st7;   " d=" M  7119.69,   129.26  C  7117.34    129.26   7115.44    131.17   7115.44    133.51  " /><path style="stroke-width: 1.42 ;&st7;  " d=" M  7123.93,   129.26  L  7119.69,   129.26  " /><path style="stroke-width: 1.42 ;&st7;  " d=" M  7123.93,   137.76  L  7119.69,   137.76  " /><path style="stroke-width: 0.85 ;&st7;  " d=" M  7121.81,    86.77  L  7121.81,   129.26  " /><path style="stroke-width: 0.28 ;&st9;  " d=" M  7121.81,   124.37  L  7118.97,   121.54  L  7118.97,   125.79  L  7121.81,   128.62  L  7124.64,   125.79  L  7124.64,   121.54  L  7121.81,   124.37  " /><text style="&st18;" transform="matrix(&st16;  7115.63  94.96 )">1</text><text style="&st18;" transform="matrix(&st16;  7108.2  135.48 )">54</text><text style="&st18;" transform="matrix(&st16;  7117.84  135.48 )">5C</text></g><g ewd:figtype="w2w" ewd:figID="132" ewd:code="OE1"><path style="stroke-width: 1.42 ;&st7;  " d=" M  7117.56,   162.69  L  7121.81,   166.94  L  7126.06,   162.69  " /><path style="stroke-width: 1.42 ;&st7;  " d=" M  7126.06,   166.09  L  7121.81,   170.34  L  7117.56,   166.09  " /><text style="&st18;" transform="matrix(&st16;  7106.08  177.98 )">20</text></g><g ewd:figtype="w2w" ewd:figID="133" ewd:code="EL4"><path style="stroke-width: 1.42 ;&st7;  " d=" M  7313.03,   248.81  L  7308.78,   244.56  L  7304.53,   248.81  " /><path style="stroke-width: 1.42 ;&st7;  " d=" M  7313.03,   245.41  L  7308.78,   241.16  L  7304.53,   245.41  " /><text style="&st18;" transform="matrix(&st16;  7293.05  237.47 )">13</text></g><g ewd:figtype="w2w" ewd:figID="134" ewd:code="EL1"><path style="stroke-width: 1.42 ;&st7;  " d=" M  7364.02,   248.81  L  7359.77,   244.56  L  7355.52,   248.81  " /><path style="stroke-width: 1.42 ;&st7;  " d=" M  7364.02,   245.41  L  7359.77,   241.16  L  7355.52,   245.41  " /><text style="&st18;" transform="matrix(&st16;  7344.04  237.47 )">19</text></g><g ewd:figtype="gp" ewd:figID="165" ewd:code="AA"><path style="stroke-width: 0.85 ;&st7;  " d=" M  7419.26,   697.25  L  7419.26,   701.50  " /><path style="stroke-width: 0.85 ;&st7;  " d=" M  7410.76,   701.50  L  7427.76,   701.50  " /><path style="stroke-width: 0.85 ;&st7;  " d=" M  7415.01,   704.33  L  7423.51,   704.33  " /><path style="stroke-width: 0.85 ;&st7;  " d=" M  7416.42,   707.17  L  7422.09,   707.17  " /><path style="stroke-width: 0.85 ;&st7;  " d=" M  7417.84,   710.00  L  7420.67,   710.00  " /></g><g ewd:figtype="annex" ewd:figID="210" ewd:code=" "><path style="stroke-width: 0.85 ;&st7;  " d=" M  7307.36,   409.72  L  7310.19,   409.72  " /><path style="stroke-width: 0.85 ;&st7;  " d=" M  7304.53,   404.05  L  7313.03,   404.05  " /><path style="stroke-width: 0.85 ;&st7;  " d=" M  7300.28,   401.22  L  7317.27,   401.22  " /><path style="stroke-width: 0.85 ;&st7;  " d=" M  7308.78,   392.72  L  7308.78,   401.22  " /><path style="stroke-width: 0.85 ;&st7;  " d=" M  7305.94,   406.88  L  7311.61,   406.88  " /></g><g ewd:figtype="annex" ewd:figID="211" ewd:code=" "><path style="stroke-width: 0.85 ;&st7;  " d=" M  7355.52,   404.05  L  7364.02,   404.05  " /><path style="stroke-width: 0.85 ;&st7;  " d=" M  7356.93,   406.88  L  7362.60,   406.88  " /><path style="stroke-width: 0.85 ;&st7;  " d=" M  7358.35,   409.72  L  7361.18,   409.72  " /><path style="stroke-width: 0.85 ;&st7;  " d=" M  7359.77,   392.72  L  7359.77,   401.22  " /><path style="stroke-width: 0.85 ;&st7;  " d=" M  7351.27,   401.22  L  7368.27,   401.22  " /></g><g ewd:code="3" ewd:figID="237" ewd:comment="" ewd:figtype="comment"><text style="&st18;" transform="matrix(&st16;  7483.84  547.66 )" ewd:textID="1">* 3 :Before Aug. 2016 Production</text></g><g ewd:code="4" ewd:figID="238" ewd:comment="" ewd:figtype="comment"><text style="&st18;" transform="matrix(&st16;  7483.84  556.16 )" ewd:textID="2">* 4 :From Aug. 2016 Production</text></g></svg>