﻿<?xml version="1.0" encoding="utf-8"?>
<!DOCTYPE svg PUBLIC "-//W3C//DTD SVG 1.0//EN" "http://www.w3.org/TR/2001/REC-SVG-20010904/DTD/svg10.dtd"[
	<!ENTITY ns_flows "http://ns.adobe.com/Flows/1.0/">
	<!ENTITY ns_svg "http://www.w3.org/2000/svg">
	<!ENTITY ns_xlink "http://www.w3.org/1999/xlink">
	<!ENTITY st0 "font-size:7px;font-family:'MS-PGothic';adobe-font-script:japanese;">
	<!ENTITY st1 "font-size:6px;font-family:'ArialMT';">
	<!-- White fill  -->
	<!ENTITY st2 "fill:#FFFFFF;stroke:#000000; stroke-width:1.41;stroke-linecap:round;stroke-linejoin:round;">
	<!-- Yellow fill  -->
	<!ENTITY st3 "fill:#FFFFCC;stroke:#FFFFCC; stroke-width:0.1;stroke-linecap:round;stroke-linejoin:round;">
	<!-- Gray fill  -->
	<!ENTITY st4 "fill:#CCCCCC;stroke:#CCCCCC; stroke-width:0.1;stroke-linecap:round;stroke-linejoin:round;">
	<!-- Light-blue fill -->
	<!ENTITY st5 "fill:#CCECF4;stroke:#000000; stroke-width:1.133;stroke-linecap:round;stroke-linejoin:round;">
	<!ENTITY st6 "fill:none;stroke-linecap:butt; stroke-linejoin:round;">
	<!ENTITY st7 "fill:none;stroke:#000000;stroke-linecap:round;stroke-linejoin:round;">
	<!ENTITY st8 "enable-background:new    ;">
	<!-- Black fill -->
	<!ENTITY st9 "fill:#000000;stroke:#000000; stroke-linecap:round;stroke-linejoin:round;">
	<!-- SRS note   -->
	<!ENTITY st10 "font-size:9px;font-family:'ArialMT';">
	<!ENTITY st11 "font-size:9px;font-family:'Svg Symbol';">
	<!ENTITY st12 "font-size:6px;font-family:'Svg Symbol';">
	<!ENTITY st13 "fill:none;stroke:#ff0000;stroke-linecap:round;stroke-linejoin:round;">
	<!-- Yellow fill  -->
	<!ENTITY st14 "fill:#FFFF00;stroke:#FFFF00; stroke-width:0.1;stroke-linecap:round;stroke-linejoin:round;">
	<!ENTITY st15 "font-size:6px;font-family:'MS-PGothic';adobe-font-script:japanese;">
	<!ENTITY st16 "1.00 0.00 0.00 1.00">
	<!ENTITY st17 "0.00 -1.00 1.00 0.00">
	<!ENTITY st18 "font-size:6px;font-family:'Arial';">
	<!ENTITY st19 "font-size:9px;font-family:'Arial';">
	<!ENTITY st20 "font-size:6px;font-family:'MS-PGothic','MS PGothic';adobe-font-script:japanese;">
	<!ENTITY st21 "font-size:7px;font-family:'MS-PGothic','MS PGothic';adobe-font-script:japanese;">
	<!ATTLIST svg
		xmlns:ewd CDATA #FIXED "http://shcl.co.jp/ewd"
		xmlns:a CDATA #FIXED "http://ns.adobe.com/AdobeSVGViewerExtensions/3.0/"
		ewd:ver CDATA #IMPLIED
	>
	<!ATTLIST a
		ewd:lineID CDATA #IMPLIED
		ewd:groupID CDATA #IMPLIED
		ewd:figtype CDATA #IMPLIED
		ewd:code CDATA #IMPLIED
		ewd:figID CDATA #IMPLIED
		ewd:pinNo CDATA #IMPLIED
		ewd:comment CDATA #IMPLIED >
	<!ATTLIST g
		ewd:lineID CDATA #IMPLIED
		ewd:groupID CDATA #IMPLIED
		ewd:figtype CDATA #IMPLIED
		ewd:code CDATA #IMPLIED
		ewd:figID CDATA #IMPLIED
		ewd:pinNo CDATA #IMPLIED
		ewd:comment CDATA #IMPLIED >
	<!ATTLIST text
		ewd:textID CDATA #IMPLIED >
	<!ATTLIST title
		ewd:textID CDATA #IMPLIED >
]>
<!-- Generator: Shintec Hozumi YS   -->
<svg onload="call_execInitLoadProc_svg('system')" style="overflow:visible;  enable-background:new 0 0 1516.119 710.000" viewBox="0 0 1516.119 710.000" height="710.000" width="1516.119" xml:space="preserve" ewd:ver="2.1.2.9" xmlns="&ns_svg;" xmlns:a="http://ns.adobe.com/AdobeSVGViewerExtensions/3.0/" xmlns:ewd="http://shcl.co.jp/ewd" xmlns:xlink="&ns_xlink;">
<path style="stroke-width: 1.42 ;&st7;  " d=" M   798.87,   401.22  L   790.37,   401.22  " /><path style="stroke-width: 1.42 ;&st7;  " d=" M   739.38,   401.22  L   730.88,   401.22  " /><path style="stroke-width: 1.42 ;&st7;  " d=" M   671.39,   401.22  L   662.89,   401.22  " /><text style="&st18;" transform="matrix(&st16;  752.96  24.98 )">E31(A)</text><text style="&st18;" transform="matrix(&st16;  541.45  618.48 )">G</text><text style="&st18;" transform="matrix(&st17;  786.67  271.45 )">G</text><text style="&st18;" transform="matrix(&st16;  779.41  567.49 )">G</text><text style="&st18;" transform="matrix(&st17;  659.19  437.17 )">G</text><text style="&st18;" transform="matrix(&st17;  727.18  437.17 )">G</text><text style="&st18;" transform="matrix(&st17;  608.2  568.65 )">W-B</text><text style="&st18;" transform="matrix(&st17;  565.71  568.65 )">W-B</text><text style="&st18;" transform="matrix(&st17;  659.19  369.18 )">G</text><text style="&st18;" transform="matrix(&st17;  727.18  369.18 )">G</text><text style="&st18;" transform="matrix(&st17;  727.18  271.2 )">W-B</text><text style="&st18;" transform="matrix(&st17;  659.19  271.2 )">W-B</text><text style="&st18;" transform="matrix(&st17;  965.14  147.83 )">L</text><text style="&st18;" transform="matrix(&st17;  871.66  225.21 )">W</text><text style="&st18;" transform="matrix(&st16;  873.28  575.99 )">L</text><text style="&st18;" transform="matrix(&st17;  820.67  454.17 )">G</text><text style="&st18;" transform="matrix(&st17;  846.16  453.78 )">L</text><text style="&st18;" transform="matrix(&st16;  752.97  32.08 )" ewd:textID="14">Main Body ECU</text><path style="stroke-width: 1.42 ;&st7;  " d=" M   671.39,   202.22  L   666.42,   197.25  " /><path style="stroke-width: 1.42 ;&st7;  " d=" M   654.39,   209.28  L   659.36,   214.25  " /><path style="stroke-width: 1.42 ;&st7;  " d=" M   666.42,   214.25  L   671.39,   209.28  " /><path style="stroke-width: 1.42 ;&st7;  " d=" M   659.36,   197.25  L   654.39,   202.22  " /><path style="stroke-width: 1.42 ;&st7;  " d=" M   727.35,   197.25  L   722.38,   202.22  " /><path style="stroke-width: 1.42 ;&st7;  " d=" M   734.40,   214.25  L   739.38,   209.28  " /><path style="stroke-width: 1.42 ;&st7;  " d=" M   722.38,   209.28  L   727.35,   214.25  " /><path style="stroke-width: 1.42 ;&st7;  " d=" M   739.38,   202.22  L   734.40,   197.25  " /><path style="stroke-width: 1.42 ;&st7;  " d=" M   739.38,   567.66  L   734.40,   562.69  " /><path style="stroke-width: 1.42 ;&st7;  " d=" M   722.38,   574.72  L   727.35,   579.69  " /><path style="stroke-width: 1.42 ;&st7;  " d=" M   734.40,   579.69  L   739.38,   574.72  " /><path style="stroke-width: 1.42 ;&st7;  " d=" M   727.35,   562.69  L   722.38,   567.66  " /><g ewd:figtype="conn" ewd:figID="1" ewd:code="A16"><path style="stroke-width: 0.85 ;&st7;  " d=" M   662.89,   324.73  L   662.89,   328.98  " /><path style="stroke-width: 0.85 ;&st7;  " d=" M   662.89,   337.48  L   662.89,   341.73  " /><path style="stroke-width: 0.85 ;&st7;   " d=" M   662.89,   337.48  C   664.44    337.49    665.71    336.24    665.72    334.68  " /><path style="stroke-width: 0.85 ;&st7;   " d=" M   665.72,   334.68  C   665.73    333.12    664.48    331.86    662.92    331.85  " /><path style="stroke-width: 0.85 ;&st7;   " d=" M   662.92,   331.85  C   661.89    331.84    661.01    332.34    660.48    333.23  " /><path style="stroke-width: 0.85 ;&st7;   " d=" M   660.48,   333.23  C   661.27    334.57    663.00    335.01    664.34    334.22  " /><path style="stroke-width: 0.85 ;&st7;   " d=" M   664.34,   334.22  C   665.68    333.43    666.12    331.70    665.33    330.36  " /><path style="stroke-width: 0.85 ;&st7;   " d=" M   665.33,   330.36  C   664.81    329.47    663.92    328.97    662.89    328.98  " /><path style="stroke-width: 1.42 ;&st7;   " d=" M   671.39,   333.23  C   671.39    328.54    667.58    324.73    662.89    324.73  " /><path style="stroke-width: 1.42 ;&st7;   " d=" M   662.89,   324.73  C   658.20    324.73    654.39    328.54    654.39    333.23  " /><path style="stroke-width: 1.42 ;&st7;   " d=" M   654.39,   333.23  C   654.39    337.92    658.20    341.73    662.89    341.73  " /><path style="stroke-width: 1.42 ;&st7;   " d=" M   662.89,   341.73  C   667.58    341.73    671.39    337.92    671.39    333.23  " /><text style="&st18;" transform="matrix(&st16;  656.7  349.92 )">2</text><text style="&st18;" transform="matrix(&st16;  656.7  321.04 )">1</text><g ewd:figtype="title"><text style="&st18;" transform="matrix(&st17;  679.0  344.63 )">A16</text><text style="&st18;" transform="matrix(&st17;  686.11  344.63 )" ewd:textID="7">Fog Light Assembly RH</text></g></g><g ewd:figtype="conn" ewd:figID="3" ewd:code="A19"><path style="stroke-width: 0.85 ;&st7;  " d=" M   730.88,   324.73  L   730.88,   328.98  " /><path style="stroke-width: 0.85 ;&st7;  " d=" M   730.88,   337.48  L   730.88,   341.73  " /><path style="stroke-width: 0.85 ;&st7;   " d=" M   730.88,   337.48  C   732.43    337.49    733.70    336.24    733.71    334.68  " /><path style="stroke-width: 0.85 ;&st7;   " d=" M   733.71,   334.68  C   733.72    333.12    732.47    331.86    730.91    331.85  " /><path style="stroke-width: 0.85 ;&st7;   " d=" M   730.91,   331.85  C   729.88    331.84    729.00    332.34    728.47    333.23  " /><path style="stroke-width: 0.85 ;&st7;   " d=" M   728.47,   333.23  C   729.26    334.57    730.99    335.01    732.33    334.22  " /><path style="stroke-width: 0.85 ;&st7;   " d=" M   732.33,   334.22  C   733.67    333.43    734.11    331.70    733.32    330.36  " /><path style="stroke-width: 0.85 ;&st7;   " d=" M   733.32,   330.36  C   732.79    329.47    731.91    328.97    730.88    328.98  " /><path style="stroke-width: 1.42 ;&st7;   " d=" M   739.38,   333.23  C   739.38    328.54    735.57    324.73    730.88    324.73  " /><path style="stroke-width: 1.42 ;&st7;   " d=" M   730.88,   324.73  C   726.18    324.73    722.38    328.54    722.38    333.23  " /><path style="stroke-width: 1.42 ;&st7;   " d=" M   722.38,   333.23  C   722.38    337.92    726.18    341.73    730.88    341.73  " /><path style="stroke-width: 1.42 ;&st7;   " d=" M   730.88,   341.73  C   735.57    341.73    739.38    337.92    739.38    333.23  " /><text style="&st18;" transform="matrix(&st16;  724.69  349.92 )">2</text><text style="&st18;" transform="matrix(&st16;  724.69  321.04 )">1</text><g ewd:figtype="title"><text style="&st18;" transform="matrix(&st17;  754.09  344.63 )" ewd:textID="6">Fog Light Assembly LH</text><text style="&st18;" transform="matrix(&st17;  746.99  344.63 )">A19</text></g></g><g ewd:figtype="rb" ewd:figID="5" ewd:code="FUSE13"><path style="stroke-width: 1.42 ;&st7;  " d=" M   792.49,   197.25  L   788.24,   197.25  " /><path style="stroke-width: 1.42 ;&st7;  " d=" M   792.49,   205.75  L   788.24,   205.75  " /><path style="stroke-width: 1.42 ;&st7;   " d=" M   788.24,   197.25  C   785.90    197.25    783.99    199.15    783.99    201.50  " /><path style="stroke-width: 1.42 ;&st7;   " d=" M   783.99,   201.50  C   783.99    203.85    785.90    205.75    788.24    205.75  " /><path style="stroke-width: 1.42 ;&st7;   " d=" M   796.74,   201.50  C   796.74    199.15    794.84    197.25    792.49    197.25  " /><path style="stroke-width: 1.42 ;&st7;   " d=" M   792.49,   205.75  C   794.84    205.75    796.74    203.85    796.74    201.50  " /><path style="stroke-width: 0.28 ;&st9;  " d=" M   790.37,   192.36  L   787.53,   189.52  L   787.53,   193.77  L   790.37,   196.61  L   793.20,   193.77  L   793.20,   189.52  L   790.37,   192.36  " /><path style="stroke-width: 0.85 ;&st7;  " d=" M   790.37,   171.76  L   790.37,   197.25  " /><text style="&st18;" transform="matrix(&st16;  784.18  179.95 )">2</text><text style="&st18;" transform="matrix(&st16;  788.57  203.47 )">1</text><text style="&st18;" transform="matrix(&st16;  782.32  125.57 )">(BAT)</text><text style="&st18;" transform="matrix(&st16;  806.79  149.65 )">10A <tspan x="0 " dy="6.0">FOG FR</tspan></text><path style="stroke-width: 0.85 ;&st7;   " d=" M   791.78,   161.84  C   791.78    161.06    791.15    160.43    790.37    160.43  " /><path style="stroke-width: 0.85 ;&st7;   " d=" M   790.37,   160.43  C   789.59    160.43    788.95    161.06    788.95    161.84  " /><path style="stroke-width: 0.85 ;&st7;   " d=" M   788.95,   161.84  C   788.95    162.62    789.59    163.26    790.37    163.26  " /><path style="stroke-width: 0.85 ;&st7;   " d=" M   790.37,   163.26  C   791.15    163.26    791.78    162.62    791.78    161.84  " /><path style="stroke-width: 0.85 ;&st7;   " d=" M   791.78,   139.18  C   791.78    138.40    791.15    137.76    790.37    137.76  " /><path style="stroke-width: 0.85 ;&st7;   " d=" M   790.37,   137.76  C   789.59    137.76    788.95    138.40    788.95    139.18  " /><path style="stroke-width: 0.85 ;&st7;   " d=" M   788.95,   139.18  C   788.95    139.96    789.59    140.60    790.37    140.60  " /><path style="stroke-width: 0.85 ;&st7;   " d=" M   790.37,   140.60  C   791.15    140.60    791.78    139.96    791.78    139.18  " /><path style="stroke-width: 1.42 ;&st7;   " d=" M   790.37,   160.43  C   793.11    158.81    794.02    155.28    792.40    152.55  " /><path style="stroke-width: 1.42 ;&st7;   " d=" M   792.40,   152.55  C   791.89    151.67    791.25    151.03    790.37    150.51  " /><path style="stroke-width: 1.42 ;&st7;   " d=" M   790.37,   140.60  C   787.63    142.21    786.72    145.74    788.33    148.47  " /><path style="stroke-width: 1.42 ;&st7;   " d=" M   788.33,   148.47  C   788.85    149.36    789.49    149.99    790.37    150.51  " /><path style="stroke-width: 1.42 ;&st7;  " d=" M   777.62,   129.26  L   777.62,   171.76  L   803.12,   171.76  L   803.12,   129.26  L   777.62,   129.26  " /><path style="stroke-width: 0.85 ;&st7;  " d=" M   790.37,   163.26  L   790.37,   171.76  " /></g><g ewd:figtype="rb" ewd:figID="6" ewd:code="FUSE48"><path style="stroke-width: 0.85 ;&st7;  " d=" M   875.35,   171.76  L   875.35,   188.75  " /><path style="stroke-width: 1.42 ;&st7;  " d=" M   877.48,   188.75  L   873.23,   188.75  " /><path style="stroke-width: 0.28 ;&st9;  " d=" M   875.35,   183.86  L   872.52,   181.03  L   872.52,   185.28  L   875.35,   188.11  L   878.19,   185.28  L   878.19,   181.03  L   875.35,   183.86  " /><text style="&st18;" transform="matrix(&st16;  867.31  125.57 )">(BAT)</text><text style="&st18;" transform="matrix(&st16;  869.17  179.95 )">2</text><text style="&st18;" transform="matrix(&st16;  891.78  149.65 )">120A <tspan x="0 " dy="6.0">ALT</tspan></text><path style="stroke-width: 0.85 ;&st7;  " d=" M   875.35,   163.26  L   875.35,   171.76  " /><path style="stroke-width: 0.85 ;&st7;   " d=" M   876.77,   161.84  C   876.77    161.06    876.14    160.43    875.35    160.43  " /><path style="stroke-width: 0.85 ;&st7;   " d=" M   875.35,   160.43  C   874.57    160.43    873.94    161.06    873.94    161.84  " /><path style="stroke-width: 0.85 ;&st7;   " d=" M   873.94,   161.84  C   873.94    162.62    874.57    163.26    875.35    163.26  " /><path style="stroke-width: 0.85 ;&st7;   " d=" M   875.35,   163.26  C   876.14    163.26    876.77    162.62    876.77    161.84  " /><path style="stroke-width: 0.85 ;&st7;   " d=" M   876.77,   139.18  C   876.77    138.40    876.14    137.76    875.35    137.76  " /><path style="stroke-width: 0.85 ;&st7;   " d=" M   875.35,   137.76  C   874.57    137.76    873.94    138.40    873.94    139.18  " /><path style="stroke-width: 0.85 ;&st7;   " d=" M   873.94,   139.18  C   873.94    139.96    874.57    140.60    875.35    140.60  " /><path style="stroke-width: 0.85 ;&st7;   " d=" M   875.35,   140.60  C   876.14    140.60    876.77    139.96    876.77    139.18  " /><path style="stroke-width: 1.42 ;&st7;   " d=" M   875.35,   160.43  C   878.09    158.81    879.00    155.28    877.39    152.55  " /><path style="stroke-width: 1.42 ;&st7;   " d=" M   877.39,   152.55  C   876.87    151.67    876.24    151.03    875.35    150.51  " /><path style="stroke-width: 1.42 ;&st7;   " d=" M   875.35,   140.60  C   872.62    142.21    871.70    145.74    873.32    148.47  " /><path style="stroke-width: 1.42 ;&st7;   " d=" M   873.32,   148.47  C   873.84    149.36    874.47    149.99    875.35    150.51  " /><path style="stroke-width: 1.42 ;&st7;  " d=" M   862.61,   129.26  L   862.61,   171.76  L   888.10,   171.76  L   888.10,   129.26  L   862.61,   129.26  " /></g><g ewd:figtype="rb" ewd:figID="7" ewd:code="4"><path style="stroke-width: 1.42 ;&st7;  " d=" M   851.98,   477.71  L   847.73,   477.71  " /><path style="stroke-width: 1.42 ;&st7;  " d=" M   826.49,   477.71  L   822.24,   477.71  " /><path style="stroke-width: 1.42 ;&st7;  " d=" M   826.49,   469.21  L   822.24,   469.21  " /><path style="stroke-width: 1.42 ;&st7;  " d=" M   851.98,   554.19  L   847.73,   554.19  " /><path style="stroke-width: 1.42 ;&st7;  " d=" M   851.98,   545.69  L   847.73,   545.69  " /><path style="stroke-width: 1.42 ;&st7;  " d=" M   826.49,   554.19  L   822.24,   554.19  " /><path style="stroke-width: 1.42 ;&st7;  " d=" M   826.49,   545.69  L   822.24,   545.69  " /><path style="stroke-width: 1.42 ;&st7;  " d=" M   851.98,   469.21  L   847.73,   469.21  " /><path style="stroke-width: 1.42 ;&st7;   " d=" M   856.23,   473.46  C   856.23    471.11    854.33    469.21    851.98    469.21  " /><path style="stroke-width: 1.42 ;&st7;   " d=" M   843.48,   473.46  C   843.48    475.80    845.39    477.71    847.73    477.71  " /><path style="stroke-width: 1.42 ;&st7;   " d=" M   847.73,   469.21  C   845.39    469.21    843.48    471.11    843.48    473.46  " /><path style="stroke-width: 1.42 ;&st7;   " d=" M   830.74,   473.46  C   830.74    471.11    828.83    469.21    826.49    469.21  " /><path style="stroke-width: 1.42 ;&st7;   " d=" M   826.49,   477.71  C   828.83    477.71    830.74    475.80    830.74    473.46  " /><path style="stroke-width: 1.42 ;&st7;   " d=" M   817.99,   473.46  C   817.99    475.80    819.89    477.71    822.24    477.71  " /><path style="stroke-width: 1.42 ;&st7;   " d=" M   822.24,   469.21  C   819.89    469.21    817.99    471.11    817.99    473.46  " /><path style="stroke-width: 1.42 ;&st7;   " d=" M   856.23,   549.94  C   856.23    547.60    854.33    545.69    851.98    545.69  " /><path style="stroke-width: 1.42 ;&st7;   " d=" M   851.98,   554.19  C   854.33    554.19    856.23    552.29    856.23    549.94  " /><path style="stroke-width: 1.42 ;&st7;   " d=" M   843.48,   549.94  C   843.48    552.29    845.39    554.19    847.73    554.19  " /><path style="stroke-width: 1.42 ;&st7;   " d=" M   847.73,   545.69  C   845.39    545.69    843.48    547.60    843.48    549.94  " /><path style="stroke-width: 1.42 ;&st7;   " d=" M   830.74,   549.94  C   830.74    547.60    828.83    545.69    826.49    545.69  " /><path style="stroke-width: 1.42 ;&st7;   " d=" M   826.49,   554.19  C   828.83    554.19    830.74    552.29    830.74    549.94  " /><path style="stroke-width: 1.42 ;&st7;   " d=" M   817.99,   549.94  C   817.99    552.29    819.89    554.19    822.24    554.19  " /><path style="stroke-width: 1.42 ;&st7;   " d=" M   822.24,   545.69  C   819.89    545.69    817.99    547.60    817.99    549.94  " /><path style="stroke-width: 1.42 ;&st7;   " d=" M   851.98,   477.71  C   854.33    477.71    856.23    475.80    856.23    473.46  " /><path style="stroke-width: 0.85 ;&st7;  " d=" M   824.36,   528.70  L   824.36,   545.69  " /><path style="stroke-width: 0.28 ;&st9;  " d=" M   849.86,   482.60  L   852.69,   485.43  L   852.69,   481.18  L   849.86,   478.35  L   847.02,   481.18  L   847.02,   485.43  L   849.86,   482.60  " /><path style="stroke-width: 0.85 ;&st7;  " d=" M   849.86,   528.70  L   849.86,   545.69  " /><path style="stroke-width: 0.28 ;&st9;  " d=" M   824.36,   482.60  L   827.19,   485.43  L   827.19,   481.18  L   824.36,   478.35  L   821.53,   481.18  L   821.53,   485.43  L   824.36,   482.60  " /><path style="stroke-width: 0.85 ;&st7;  " d=" M   849.86,   477.71  L   849.86,   494.70  " /><path style="stroke-width: 0.28 ;&st9;  " d=" M   849.86,   540.80  L   847.02,   537.97  L   847.02,   542.22  L   849.86,   545.05  L   852.69,   542.22  L   852.69,   537.97  L   849.86,   540.80  " /><path style="stroke-width: 0.85 ;&st7;  " d=" M   824.36,   477.71  L   824.36,   494.70  " /><path style="stroke-width: 0.28 ;&st9;  " d=" M   824.36,   540.80  L   821.53,   537.97  L   821.53,   542.22  L   824.36,   545.05  L   827.19,   542.22  L   827.19,   537.97  L   824.36,   540.80  " /><text style="&st18;" transform="matrix(&st16;  848.06  475.43 )">4</text><text style="&st18;" transform="matrix(&st16;  822.56  475.43 )">4</text><text style="&st18;" transform="matrix(&st16;  848.06  551.91 )">4</text><text style="&st18;" transform="matrix(&st16;  822.56  551.91 )">4</text><text style="&st18;" transform="matrix(&st16;  843.67  491.01 )">2</text><text style="&st18;" transform="matrix(&st16;  818.18  491.01 )">5</text><text style="&st18;" transform="matrix(&st16;  843.67  536.89 )">1</text><text style="&st18;" transform="matrix(&st16;  818.18  536.89 )">3</text><text style="&st18;" transform="matrix(&st16;  860.62  508.02 )" ewd:textID="5">FR <tspan x="0 " dy="6.0">FOG </tspan><tspan x="0 " dy="6.0">Relay</tspan></text><path style="stroke-width: 0.85 ;&st7;  " d=" M   849.86,   520.20  L   849.86,   528.70  " /><path style="stroke-width: 0.85 ;&st7;  " d=" M   849.86,   494.70  L   849.86,   503.20  " /><path style="stroke-width: 0.85 ;&st7;  " d=" M   824.36,   498.95  L   824.36,   494.70  " /><path style="stroke-width: 0.85 ;&st7;  " d=" M   824.36,   528.70  L   824.36,   524.45  " /><path style="stroke-width: 1.42 ;&st7;  " d=" M   824.36,   521.61  L   818.70,   498.95  " /><path style="stroke-width: 0.85 ;&st7;   " d=" M   849.86,   520.20  C   851.81    520.20    853.40    518.61    853.40    516.66  " /><path style="stroke-width: 0.85 ;&st7;   " d=" M   853.40,   516.66  C   853.40    514.70    851.81    513.12    849.86    513.12  " /><path style="stroke-width: 0.85 ;&st7;   " d=" M   849.86,   513.12  C   848.87    513.12    848.02    513.47    847.33    514.18  " /><path style="stroke-width: 0.85 ;&st7;   " d=" M   847.33,   514.18  C   848.70    515.58    850.94    515.60    852.34    514.23  " /><path style="stroke-width: 0.85 ;&st7;   " d=" M   852.34,   514.23  C   853.73    512.86    853.76    510.62    852.39    509.22  " /><path style="stroke-width: 0.85 ;&st7;   " d=" M   852.39,   509.22  C   851.02    507.82    848.78    507.80    847.38    509.17  " /><path style="stroke-width: 0.85 ;&st7;   " d=" M   847.38,   509.17  C   847.36    509.19    847.35    509.20    847.33    509.22  " /><path style="stroke-width: 0.85 ;&st7;   " d=" M   847.33,   509.22  C   848.70    510.62    850.94    510.64    852.34    509.27  " /><path style="stroke-width: 0.85 ;&st7;   " d=" M   852.34,   509.27  C   853.73    507.90    853.76    505.66    852.39    504.26  " /><path style="stroke-width: 0.85 ;&st7;   " d=" M   852.39,   504.26  C   851.69    503.56    850.85    503.20    849.86    503.20  " /><path style="stroke-width: 0.85 ;&st7;   " d=" M   825.78,   500.37  C   825.78    499.59    825.14    498.95    824.36    498.95  " /><path style="stroke-width: 0.85 ;&st7;   " d=" M   824.36,   498.95  C   823.58    498.95    822.95    499.59    822.95    500.37  " /><path style="stroke-width: 0.85 ;&st7;   " d=" M   822.95,   500.37  C   822.95    501.15    823.58    501.78    824.36    501.78  " /><path style="stroke-width: 0.85 ;&st7;   " d=" M   824.36,   501.78  C   825.14    501.78    825.78    501.15    825.78    500.37  " /><path style="stroke-width: 0.85 ;&st7;   " d=" M   825.78,   523.03  C   825.78    522.25    825.14    521.61    824.36    521.61  " /><path style="stroke-width: 0.85 ;&st7;   " d=" M   824.36,   521.61  C   823.58    521.61    822.95    522.25    822.95    523.03  " /><path style="stroke-width: 0.85 ;&st7;   " d=" M   822.95,   523.03  C   822.95    523.81    823.58    524.45    824.36    524.45  " /><path style="stroke-width: 0.85 ;&st7;   " d=" M   824.36,   524.45  C   825.14    524.45    825.78    523.81    825.78    523.03  " /><path style="stroke-width: 1.42 ;&st7;  " d=" M   858.36,   494.70  L   815.86,   494.70  L   815.86,   528.70  L   858.36,   528.70  L   858.36,   494.70  " /></g><g ewd:figtype="conn" ewd:figID="11" ewd:code="E31"><g ewd:lineID="31"><text style="&st18;" transform="matrix(&st16;  927.03  83.07 )">TRLY</text><text style="&st18;" transform="matrix(&st16;  960.29  83.07 )">FFGO</text></g></g><g ewd:figtype="jb" ewd:figID="17" ewd:code="1"><path style="stroke-width: 1.42 ;&st7;  " d=" M   877.48,   197.25  L   873.23,   197.25  " /><path style="stroke-width: 1.42 ;&st7;  " d=" M   877.48,   188.75  L   873.23,   188.75  " /><path style="stroke-width: 1.42 ;&st7;   " d=" M   881.73,   193.00  C   881.73    190.66    879.83    188.75    877.48    188.75  " /><path style="stroke-width: 1.42 ;&st7;   " d=" M   877.48,   197.25  C   879.83    197.25    881.73    195.35    881.73    193.00  " /><path style="stroke-width: 1.42 ;&st7;   " d=" M   868.98,   193.00  C   868.98    195.35    870.88    197.25    873.23    197.25  " /><path style="stroke-width: 1.42 ;&st7;   " d=" M   873.23,   188.75  C   870.88    188.75    868.98    190.66    868.98    193.00  " /><text style="&st18;" transform="matrix(&st16;  864.85  194.97 )">1</text><text style="&st18;" transform="matrix(&st16;  871.69  194.97 )">1E</text></g><g ewd:figtype="jb" ewd:figID="18" ewd:code="10"><path style="stroke-width: 1.42 ;&st7;  " d=" M   970.96,   120.77  L   966.71,   120.77  " /><path style="stroke-width: 1.42 ;&st7;  " d=" M   970.96,   112.27  L   966.71,   112.27  " /><path style="stroke-width: 1.42 ;&st7;  " d=" M   877.48,   239.75  L   873.23,   239.75  " /><path style="stroke-width: 1.42 ;&st7;  " d=" M   877.48,   248.24  L   873.23,   248.24  " /><path style="stroke-width: 1.42 ;&st7;  " d=" M   851.98,   418.22  L   847.73,   418.22  " /><path style="stroke-width: 1.42 ;&st7;  " d=" M   851.98,   409.72  L   847.73,   409.72  " /><path style="stroke-width: 0.85 ;&st7;  " d=" M   849.86,   367.22  L   849.86,   375.72  " /><path style="stroke-width: 0.85 ;&st7;  " d=" M   875.35,   307.73  L   875.35,   316.23  " /><path style="stroke-width: 0.85 ;&st7;  " d=" M   875.35,   282.24  L   875.35,   290.74  " /><path style="stroke-width: 0.85 ;&st7;  " d=" M   849.86,   286.49  L   849.86,   282.24  " /><path style="stroke-width: 0.85 ;&st7;  " d=" M   849.86,   316.23  L   849.86,   311.98  " /><path style="stroke-width: 1.42 ;&st7;  " d=" M   849.86,   309.15  L   844.19,   286.49  " /><path style="stroke-width: 1.42 ;&st7;   " d=" M   975.21,   116.52  C   975.21    114.17    973.31    112.27    970.96    112.27  " /><path style="stroke-width: 1.42 ;&st7;   " d=" M   970.96,   120.77  C   973.31    120.77    975.21    118.86    975.21    116.52  " /><path style="stroke-width: 1.42 ;&st7;   " d=" M   962.46,   116.52  C   962.46    118.86    964.37    120.77    966.71    120.77  " /><path style="stroke-width: 1.42 ;&st7;   " d=" M   966.71,   112.27  C   964.37    112.27    962.46    114.17    962.46    116.52  " /><path style="stroke-width: 1.42 ;&st7;   " d=" M   881.73,   243.99  C   881.73    241.65    879.83    239.75    877.48    239.75  " /><path style="stroke-width: 1.42 ;&st7;   " d=" M   877.48,   248.24  C   879.83    248.24    881.73    246.34    881.73    243.99  " /><path style="stroke-width: 1.42 ;&st7;   " d=" M   868.98,   243.99  C   868.98    246.34    870.88    248.24    873.23    248.24  " /><path style="stroke-width: 1.42 ;&st7;   " d=" M   873.23,   239.75  C   870.88    239.75    868.98    241.65    868.98    243.99  " /><path style="stroke-width: 1.42 ;&st7;   " d=" M   856.23,   413.97  C   856.23    411.62    854.33    409.72    851.98    409.72  " /><path style="stroke-width: 1.42 ;&st7;   " d=" M   851.98,   418.22  C   854.33    418.22    856.23    416.31    856.23    413.97  " /><path style="stroke-width: 1.42 ;&st7;   " d=" M   843.48,   413.97  C   843.48    416.31    845.39    418.22    847.73    418.22  " /><path style="stroke-width: 1.42 ;&st7;   " d=" M   847.73,   409.72  C   845.39    409.72    843.48    411.62    843.48    413.97  " /><path style="stroke-width: 0.85 ;&st7;   " d=" M   851.27,   365.81  C   851.27    365.03    850.64    364.39    849.86    364.39  " /><path style="stroke-width: 0.85 ;&st7;   " d=" M   849.86,   364.39  C   849.08    364.39    848.44    365.03    848.44    365.81  " /><path style="stroke-width: 0.85 ;&st7;   " d=" M   848.44,   365.81  C   848.44    366.59    849.08    367.22    849.86    367.22  " /><path style="stroke-width: 0.85 ;&st7;   " d=" M   849.86,   367.22  C   850.64    367.22    851.27    366.59    851.27    365.81  " /><path style="stroke-width: 0.85 ;&st7;   " d=" M   851.27,   343.14  C   851.27    342.36    850.64    341.73    849.86    341.73  " /><path style="stroke-width: 0.85 ;&st7;   " d=" M   849.86,   341.73  C   849.08    341.73    848.44    342.36    848.44    343.14  " /><path style="stroke-width: 0.85 ;&st7;   " d=" M   848.44,   343.14  C   848.44    343.93    849.08    344.56    849.86    344.56  " /><path style="stroke-width: 0.85 ;&st7;   " d=" M   849.86,   344.56  C   850.64    344.56    851.27    343.93    851.27    343.14  " /><path style="stroke-width: 1.42 ;&st7;   " d=" M   849.86,   364.39  C   852.60    362.78    853.51    359.25    851.89    356.51  " /><path style="stroke-width: 1.42 ;&st7;   " d=" M   851.89,   356.51  C   851.38    355.63    850.74    355.00    849.86    354.48  " /><path style="stroke-width: 1.42 ;&st7;   " d=" M   849.86,   344.56  C   847.12    346.17    846.21    349.70    847.82    352.44  " /><path style="stroke-width: 1.42 ;&st7;   " d=" M   847.82,   352.44  C   848.34    353.32    848.98    353.96    849.86    354.48  " /><path style="stroke-width: 0.85 ;&st7;   " d=" M   875.35,   307.73  C   877.31    307.73    878.89    306.15    878.89    304.19  " /><path style="stroke-width: 0.85 ;&st7;   " d=" M   878.89,   304.19  C   878.89    302.24    877.31    300.65    875.35    300.65  " /><path style="stroke-width: 0.85 ;&st7;   " d=" M   875.35,   300.65  C   874.36    300.65    873.52    301.01    872.82    301.71  " /><path style="stroke-width: 0.85 ;&st7;   " d=" M   872.82,   301.71  C   874.19    303.11    876.44    303.13    877.83    301.77  " /><path style="stroke-width: 0.85 ;&st7;   " d=" M   877.83,   301.77  C   879.23    300.40    879.25    298.15    877.88    296.76  " /><path style="stroke-width: 0.85 ;&st7;   " d=" M   877.88,   296.76  C   876.51    295.36    874.27    295.34    872.87    296.71  " /><path style="stroke-width: 0.85 ;&st7;   " d=" M   872.87,   296.71  C   872.86    296.72    872.84    296.74    872.82    296.76  " /><path style="stroke-width: 0.85 ;&st7;   " d=" M   872.82,   296.76  C   874.19    298.15    876.44    298.18    877.83    296.81  " /><path style="stroke-width: 0.85 ;&st7;   " d=" M   877.83,   296.81  C   879.23    295.44    879.25    293.20    877.88    291.80  " /><path style="stroke-width: 0.85 ;&st7;   " d=" M   877.88,   291.80  C   877.19    291.09    876.34    290.74    875.35    290.74  " /><path style="stroke-width: 0.85 ;&st7;   " d=" M   851.27,   287.90  C   851.27    287.12    850.64    286.49    849.86    286.49  " /><path style="stroke-width: 0.85 ;&st7;   " d=" M   849.86,   286.49  C   849.08    286.49    848.44    287.12    848.44    287.90  " /><path style="stroke-width: 0.85 ;&st7;   " d=" M   848.44,   287.90  C   848.44    288.69    849.08    289.32    849.86    289.32  " /><path style="stroke-width: 0.85 ;&st7;   " d=" M   849.86,   289.32  C   850.64    289.32    851.27    288.69    851.27    287.90  " /><path style="stroke-width: 0.85 ;&st7;   " d=" M   851.27,   310.57  C   851.27    309.78    850.64    309.15    849.86    309.15  " /><path style="stroke-width: 0.85 ;&st7;   " d=" M   849.86,   309.15  C   849.08    309.15    848.44    309.78    848.44    310.57  " /><path style="stroke-width: 0.85 ;&st7;   " d=" M   848.44,   310.57  C   848.44    311.35    849.08    311.98    849.86    311.98  " /><path style="stroke-width: 0.85 ;&st7;   " d=" M   849.86,   311.98  C   850.64    311.98    851.27    311.35    851.27    310.57  " /><path style="stroke-width: 0.85 ;&st7;  " d=" M   968.84,   112.27  L   968.84,    86.77  " /><path style="stroke-width: 0.28 ;&st9;  " d=" M   968.84,   107.37  L   966.00,   104.54  L   966.00,   108.79  L   968.84,   111.62  L   971.67,   108.79  L   971.67,   104.54  L   968.84,   107.37  " /><path style="stroke-width: 0.28 ;&st9;  " d=" M   875.35,   253.14  L   878.19,   255.97  L   878.19,   251.72  L   875.35,   248.89  L   872.52,   251.72  L   872.52,   255.97  L   875.35,   253.14  " /><path style="stroke-width: 0.85 ;&st7;  " d=" M   849.86,   375.72  L   849.86,   409.72  " /><path style="stroke-width: 0.28 ;&st9;  " d=" M   849.86,   404.82  L   847.02,   401.99  L   847.02,   406.24  L   849.86,   409.07  L   852.69,   406.24  L   852.69,   401.99  L   849.86,   404.82  " /><path style="stroke-width: 1.42 ;&st7;  " d=" M   837.11,   333.23  L   837.11,   375.72  L   862.61,   375.72  L   862.61,   333.23  L   837.11,   333.23  " /><path style="stroke-width: 0.85 ;&st7;  " d=" M   849.86,   333.23  L   849.86,   341.73  " /><path style="stroke-width: 0.85 ;&st7;  " d=" M   849.86,   316.23  L   849.86,   333.23  " /><path style="stroke-width: 0.85 ;&st7;  " d=" M   899.66,   332.23  L   899.38,   332.70  L   899.29,   333.23  L   899.38,   333.76  L   899.66,   334.23  L   900.07,   334.58  L   900.58,   334.77  L   901.12,   334.77  L   901.63,   334.58  L   902.04,   334.23  L   902.31,   333.76  L   902.41,   333.23  L   902.31,   332.70  L   902.04,   332.23  L   901.63,   331.88  L   901.12,   331.69  L   900.58,   331.69  L   900.07,   331.88  L   899.66,   332.23  L   900.05,   332.94  L   900.05,   333.52  L   900.42,   333.97  L   901.00,   334.07  L   901.50,   333.78  L   901.70,   333.23  L   901.50,   332.68  L   901.00,   332.39  L   900.42,   332.49  L   900.85,   333.23  " /><path style="stroke-width: 0.85 ;&st7;  " d=" M   874.16,   264.24  L   873.89,   264.71  L   873.80,   265.24  L   873.89,   265.77  L   874.16,   266.24  L   874.57,   266.59  L   875.08,   266.78  L   875.63,   266.78  L   876.13,   266.59  L   876.55,   266.24  L   876.82,   265.77  L   876.91,   265.24  L   876.82,   264.71  L   876.55,   264.24  L   876.13,   263.89  L   875.63,   263.71  L   875.08,   263.71  L   874.57,   263.89  L   874.16,   264.24  L   874.55,   264.95  L   874.55,   265.53  L   874.93,   265.98  L   875.50,   266.08  L   876.00,   265.79  L   876.20,   265.24  L   876.00,   264.69  L   875.50,   264.41  L   874.93,   264.50  L   875.35,   265.24  " /><path style="stroke-width: 0.85 ;&st7;  " d=" M   875.35,   265.24  L   900.85,   265.24  L   900.85,   290.74  L   903.68,   292.15  L   898.02,   294.99  L   903.68,   297.82  L   898.02,   300.65  L   903.68,   303.48  L   898.02,   306.32  L   900.85,   307.73  L   900.85,   333.23  " /><path style="stroke-width: 0.85 ;&st7;  " d=" M   849.86,   282.24  L   849.86,   265.24  L   875.35,   265.24  " /><path style="stroke-width: 0.85 ;&st7;  " d=" M   875.35,   248.24  L   875.35,   282.24  " /><path style="stroke-width: 0.85 ;&st7;  " d=" M   875.35,   316.23  L   875.35,   333.23  L   934.84,   333.23  L   934.84,    86.77  " /><path style="stroke-width: 1.13 ;&st7; stroke-dasharray:3, 3;" d=" M   883.85,   282.24  L   841.36,   282.24  L   841.36,   316.23  L   883.85,   316.23  L   883.85,   282.24  " /><text style="&st18;" transform="matrix(&st16;  959.55  94.96 )">13</text><text style="&st18;" transform="matrix(&st16;  955.23  118.49 )">43</text><text style="&st18;" transform="matrix(&st16;  964.87  118.49 )">6C</text><text style="&st18;" transform="matrix(&st16;  843.67  329.54 )">1</text><text style="&st18;" transform="matrix(&st16;  843.67  383.92 )">2</text><text style="&st18;" transform="matrix(&st16;  864.85  245.96 )">1</text><text style="&st18;" transform="matrix(&st16;  871.61  245.96 )">6B</text><text style="&st18;" transform="matrix(&st16;  839.35  415.94 )">2</text><text style="&st18;" transform="matrix(&st16;  845.92  415.94 )">6D</text><text style="&st18;" transform="matrix(&st16;  824.72  298.38 )" ewd:textID="18">TAIL <tspan x="0 " dy="6.0">Relay</tspan></text><text style="&st18;" transform="matrix(&st16;  866.28  353.62 )">10A <tspan x="0 " dy="6.0">TAIL</tspan></text><text style="&st18;" transform="matrix(&st16;  925.56  94.96 )">14</text></g><g ewd:figtype="w2w" ewd:figID="21" ewd:code="AE6"><path style="stroke-width: 1.42 ;&st7;  " d=" M   667.14,   406.88  L   662.89,   402.63  L   658.64,   406.88  " /><path style="stroke-width: 1.42 ;&st7;  " d=" M   667.14,   410.28  L   662.89,   406.03  L   658.64,   410.28  " /><text style="&st18;" transform="matrix(&st16;  647.16  398.94 )">12</text></g><g ewd:figtype="w2w" ewd:figID="22" ewd:code="AE6"><path style="stroke-width: 1.42 ;&st7;  " d=" M   735.13,   406.88  L   730.88,   402.63  L   726.63,   406.88  " /><path style="stroke-width: 1.42 ;&st7;  " d=" M   735.13,   410.28  L   730.88,   406.03  L   726.63,   410.28  " /><text style="&st18;" transform="matrix(&st16;  715.14  398.94 )">13</text></g><g ewd:figtype="w2w" ewd:figID="23" ewd:code="AE6"><path style="stroke-width: 1.42 ;&st7;  " d=" M   794.62,   406.88  L   790.37,   402.63  L   786.12,   406.88  " /><path style="stroke-width: 1.42 ;&st7;  " d=" M   794.62,   410.28  L   790.37,   406.03  L   786.12,   410.28  " /><text style="&st18;" transform="matrix(&st16;  777.74  398.94 )">1</text></g><g ewd:figtype="gp" ewd:figID="26" ewd:code="AA"><path style="stroke-width: 0.85 ;&st7;  " d=" M   569.40,   697.25  L   569.40,   701.50  " /><path style="stroke-width: 0.85 ;&st7;  " d=" M   560.91,   701.50  L   577.90,   701.50  " /><path style="stroke-width: 0.85 ;&st7;  " d=" M   566.57,   707.17  L   572.24,   707.17  " /><path style="stroke-width: 0.85 ;&st7;  " d=" M   567.99,   710.00  L   570.82,   710.00  " /><path style="stroke-width: 0.85 ;&st7;  " d=" M   565.16,   704.33  L   573.65,   704.33  " /></g><g ewd:figtype="gp" ewd:figID="27" ewd:code="AC"><path style="stroke-width: 0.85 ;&st7;  " d=" M   610.48,   710.00  L   613.31,   710.00  " /><path style="stroke-width: 0.85 ;&st7;  " d=" M   609.06,   707.17  L   614.73,   707.17  " /><path style="stroke-width: 0.85 ;&st7;  " d=" M   607.65,   704.33  L   616.15,   704.33  " /><path style="stroke-width: 0.85 ;&st7;  " d=" M   603.40,   701.50  L   620.40,   701.50  " /><path style="stroke-width: 0.85 ;&st7;  " d=" M   611.90,   697.25  L   611.90,   701.50  " /></g></svg>