﻿<?xml version="1.0" encoding="UTF-8"?>
<!DOCTYPE svg PUBLIC "-//W3C//DTD SVG 1.0//EN" "http://www.w3.org/TR/2001/REC-SVG-20010904/DTD/svg10.dtd"[
	<!ENTITY ns_flows "http://ns.adobe.com/Flows/1.0/">
	<!ENTITY ns_svg "http://www.w3.org/2000/svg">
	<!ENTITY ns_xlink "http://www.w3.org/1999/xlink">
	<!ENTITY st0 "font-size:7px;font-family:'MS-PGothic';adobe-font-script:japanese;">
	<!ENTITY st1 "font-size:6px;font-family:'ArialMT';">
	<!-- White fill  -->
	<!ENTITY st2 "fill:#FFFFFF;stroke:#000000; stroke-width:1.41;stroke-linecap:round;stroke-linejoin:round;">
	<!-- Yellow fill  -->
	<!ENTITY st3 "fill:#FFFFCC;stroke:#FFFFCC; stroke-width:0.1;stroke-linecap:round;stroke-linejoin:round;">
	<!-- Gray fill  -->
	<!ENTITY st4 "fill:#CCCCCC;stroke:#CCCCCC; stroke-width:0.1;stroke-linecap:round;stroke-linejoin:round;">
	<!-- Light-blue fill -->
	<!ENTITY st5 "fill:#CCECF4;stroke:#000000; stroke-width:1.133;stroke-linecap:round;stroke-linejoin:round;">
	<!ENTITY st6 "fill:none;stroke-linecap:butt; stroke-linejoin:round;">
	<!ENTITY st7 "fill:none;stroke:#000000;stroke-linecap:round;stroke-linejoin:round;">
	<!ENTITY st8 "enable-background:new    ;">
	<!-- Black fill -->
	<!ENTITY st9 "fill:#000000;stroke:#000000; stroke-linecap:round;stroke-linejoin:round;">
	<!-- SRS note   -->
	<!ENTITY st10 "font-size:9px;font-family:'ArialMT';">
	<!ENTITY st11 "font-size:9px;font-family:'Svg Symbol';">
	<!ENTITY st12 "font-size:6px;font-family:'Svg Symbol';">
	<!ENTITY st13 "fill:none;stroke:#ff0000;stroke-linecap:round;stroke-linejoin:round;">
	<!-- Yellow fill  -->
	<!ENTITY st14 "fill:#FFFF00;stroke:#FFFF00; stroke-width:0.1;stroke-linecap:round;stroke-linejoin:round;">
	<!ENTITY st15 "font-size:6px;font-family:'MS-PGothic';adobe-font-script:japanese;">
	<!ENTITY st16 "1.00 0.00 0.00 1.00">
	<!ENTITY st17 "0.00 -1.00 1.00 0.00">
	<!ENTITY st18 "font-size:6px;font-family:'Arial';">
	<!ENTITY st19 "font-size:9px;font-family:'Arial';">
	<!ENTITY st20 "font-size:6px;font-family:'MS-PGothic','MS PGothic';adobe-font-script:japanese;">
	<!ENTITY st21 "font-size:7px;font-family:'MS-PGothic','MS PGothic';adobe-font-script:japanese;">
	<!ATTLIST svg
		xmlns:ewd CDATA #FIXED "http://shcl.co.jp/ewd"
		xmlns:a CDATA #FIXED "http://ns.adobe.com/AdobeSVGViewerExtensions/3.0/"
		ewd:ver CDATA #IMPLIED
	>
	<!ATTLIST a
		ewd:lineID CDATA #IMPLIED
		ewd:groupID CDATA #IMPLIED
		ewd:figtype CDATA #IMPLIED
		ewd:code CDATA #IMPLIED
		ewd:figID CDATA #IMPLIED
		ewd:pinNo CDATA #IMPLIED
		ewd:comment CDATA #IMPLIED >
	<!ATTLIST g
		ewd:lineID CDATA #IMPLIED
		ewd:groupID CDATA #IMPLIED
		ewd:figtype CDATA #IMPLIED
		ewd:code CDATA #IMPLIED
		ewd:figID CDATA #IMPLIED
		ewd:pinNo CDATA #IMPLIED
		ewd:comment CDATA #IMPLIED >
	<!ATTLIST text
		ewd:textID CDATA #IMPLIED >
	<!ATTLIST title
		ewd:textID CDATA #IMPLIED >
]>
<!-- Generator: Shintec Hozumi YS   -->
<svg onload="call_execInitLoadProc_svg('system')" style="overflow:visible;  enable-background:new 0 0 982.748 710.000" viewBox="0 0 982.748 710.000" height="710.000" width="982.748" xml:space="preserve" ewd:ver="2.1.2.9" xmlns="&ns_svg;" xmlns:a="http://ns.adobe.com/AdobeSVGViewerExtensions/3.0/" xmlns:ewd="http://shcl.co.jp/ewd" xmlns:xlink="&ns_xlink;">
	<script type="text/javascript" xlink:href="../../../../../system/js/ewd/fig/svgfig.js"/>
<g id="ewd_top">
	<a ewd:figtype="rb" style="cursor:pointer;" ewd:code="FUSE24" ewd:figID="1">
		<path style="fill:#CCECF4;stroke:#000000; stroke-width:0; stroke-linecap:round;stroke-linejoin:round; " d=" M    97.73,    35.78  L    97.73,    78.27  L   123.23,    78.27  L   123.23,    35.78  L    97.73,    35.78 "/>
	</a>
	<a ewd:figtype="conn" style="cursor:pointer;" ewd:code="B25" ewd:figID="2">
		<path style="fill:#CCECF4;stroke:#000000; stroke-width:1.133; stroke-linecap:round;stroke-linejoin:round; " d=" M   348.44,   401.22  L   441.93,   401.22  L   441.93,   452.21  L   348.44,   452.21  L   348.44,   401.22 "/>
		<title ewd:textID="4">Ignition Coil Assembly No. 1</title>
	</a>
	<a ewd:figtype="conn" style="cursor:pointer;" ewd:code="B67,B81" ewd:figID="3">
		<path style="fill:#CCECF4;stroke:#000000; stroke-width:1.133; stroke-linecap:round;stroke-linejoin:round; " d=" M   407.93,    86.77  L   977.34,    86.77  L   977.34,    35.78  L   407.93,    35.78  L   407.93,    86.77 "/>
		<title>ECM</title>
	</a>
	<a ewd:figtype="rb" style="cursor:pointer;" ewd:code="1" ewd:figID="4">
		<path style="fill:#CCECF4;stroke:#000000; stroke-width:0; stroke-linecap:round;stroke-linejoin:round; " d=" M   118.98,   205.75  L    76.49,   205.75  L    76.49,   239.75  L   118.98,   239.75  L   118.98,   205.75 "/>
	</a>
	<a ewd:figtype="conn" style="cursor:pointer;" ewd:code="B28" ewd:figID="5">
		<path style="fill:#CCECF4;stroke:#000000; stroke-width:1.133; stroke-linecap:round;stroke-linejoin:round; " d=" M   883.85,   401.22  L   977.34,   401.22  L   977.34,   452.21  L   883.85,   452.21  L   883.85,   401.22 "/>
		<title ewd:textID="7">Ignition Coil Assembly No. 4</title>
	</a>
	<a ewd:figtype="conn" style="cursor:pointer;" ewd:code="B27" ewd:figID="6">
		<path style="fill:#CCECF4;stroke:#000000; stroke-width:1.133; stroke-linecap:round;stroke-linejoin:round; " d=" M   730.88,   401.22  L   824.36,   401.22  L   824.36,   452.21  L   730.88,   452.21  L   730.88,   401.22 "/>
		<title ewd:textID="6">Ignition Coil Assembly No. 3</title>
	</a>
	<a ewd:figtype="conn" style="cursor:pointer;" ewd:code="B26" ewd:figID="7">
		<path style="fill:#CCECF4;stroke:#000000; stroke-width:1.133; stroke-linecap:round;stroke-linejoin:round; " d=" M   569.40,   401.22  L   662.89,   401.22  L   662.89,   452.21  L   569.40,   452.21  L   569.40,   401.22 "/>
		<title ewd:textID="5">Ignition Coil Assembly No. 2</title>
	</a>
	<a ewd:figtype="fuse" style="cursor:pointer;" ewd:code="FUSE24" ewd:figID="16">
		<path style="&st7; stroke-width:0;" d=" M    97.73,    35.78  L    97.73,    78.27  L   123.23,    78.27  L   123.23,    35.78  L    97.73,    35.78 "/>
	</a>
	<a style="cursor:pointer;" ewd:lineID="1">
		<path style="stroke:#00A0C6;stroke-width: 5.10 ;&st6;" d=" M   110.48,   273.74  L   110.48,   392.72  "/>
	</a>
	<a style="cursor:pointer;" ewd:lineID="2">
		<path style="stroke:#FF0000;stroke-width: 5.10 ;&st6;" d=" M   110.48,   103.77  L   110.48,   171.76  "/>
	</a>
	<a style="cursor:pointer;" ewd:lineID="3">
		<path style="stroke:#00A0C6;stroke-width: 5.10 ;&st6;" d=" M   305.95,   347.96  L   305.95,   401.22  L   118.98,   401.22  "/>
	</a>
	<a style="cursor:pointer;" ewd:lineID="4">
		<path style="stroke:#00A0C6;stroke-width: 5.10 ;&st6;" d=" M   305.95,   333.23  L   305.95,   188.75  L   577.90,   188.75  "/>
	</a>
	<a style="cursor:pointer;" ewd:lineID="5">
		<path style="stroke:#FFE600;stroke-width: 5.10 ;&st6;" d=" M   365.44,   452.21  L   365.44,   537.20  L   679.89,   537.20  "/>
	</a>
	<a style="cursor:pointer;" ewd:lineID="6">
		<path style="stroke:#00A0C6;stroke-width: 5.10 ;&st6;" d=" M   365.44,   401.22  L   365.44,   205.75  L   569.40,   205.75  L   580.39,   194.77  "/>
	</a>
	<a style="cursor:pointer;" ewd:lineID="7">
		<path style="stroke:#FF0000;stroke-width: 5.10 ;&st6;" d=" M   424.93,   401.22  L   424.93,   104.90  "/>
	</a>
	<a style="cursor:pointer;" ewd:lineID="8">
		<path style="stroke:#FFE600;stroke-width: 5.10 ;&st6;" d=" M   586.40,   452.21  L   586.40,   520.20  L   671.39,   520.20  L   682.37,   531.18  "/>
	</a>
	<a style="cursor:pointer;" ewd:lineID="9">
		<path style="stroke:#00A0C6;stroke-width: 5.10 ;&st6;" d=" M   586.40,   197.25  L   586.40,   401.22  "/>
	</a>
	<a style="cursor:pointer;" ewd:lineID="10">
		<path style="stroke:#00A0C6;stroke-width: 5.10 ;&st6;" d=" M   586.40,   180.26  L   586.40,   163.26  L   900.85,   163.26  L   900.85,   401.22  "/>
	</a>
	<a style="cursor:pointer;" ewd:lineID="11">
		<path style="stroke:#000000;stroke-width: 5.10 ;&st6;" d=" M   637.39,   588.19  L   424.93,   588.19  L   424.93,   452.21  "/>
		<path style="stroke:#FFFFFF;stroke-width: 4.53 ;&st6;" d=" M   637.39,   588.19  L   424.93,   588.19  L   424.93,   452.21  "/>
		<path style="stroke:#000000;stroke-width: 1.13 ;&st6;" d=" M   637.39,   588.19  L   424.93,   588.19  L   424.93,   452.21  "/>
	</a>
	<a style="cursor:pointer;" ewd:lineID="12">
		<path style="stroke:#000000;stroke-width: 5.10 ;&st6;" d=" M   645.89,   681.67  L   645.89,   596.69  "/>
		<path style="stroke:#FFFFFF;stroke-width: 4.53 ;&st6;" d=" M   645.89,   681.67  L   645.89,   596.69  "/>
		<path style="stroke:#000000;stroke-width: 1.13 ;&st6;" d=" M   645.89,   681.67  L   645.89,   596.69  "/>
	</a>
	<a style="cursor:pointer;" ewd:lineID="13">
		<path style="stroke:#000000;stroke-width: 5.10 ;&st6;" d=" M   645.89,   579.69  L   645.89,   452.21  "/>
		<path style="stroke:#FFFFFF;stroke-width: 4.53 ;&st6;" d=" M   645.89,   579.69  L   645.89,   452.21  "/>
		<path style="stroke:#000000;stroke-width: 1.13 ;&st6;" d=" M   645.89,   579.69  L   645.89,   452.21  "/>
	</a>
	<a style="cursor:pointer;" ewd:lineID="14">
		<path style="stroke:#000000;stroke-width: 5.10 ;&st6;" d=" M   645.89,   401.22  L   645.89,   104.90  "/>
	</a>
	<a style="cursor:pointer;" ewd:lineID="15">
		<path style="stroke:#000000;stroke-width: 5.10 ;&st6;" d=" M   654.39,   588.19  L   960.34,   588.19  L   960.34,   452.21  "/>
		<path style="stroke:#FFFFFF;stroke-width: 4.53 ;&st6;" d=" M   654.39,   588.19  L   960.34,   588.19  L   960.34,   452.21  "/>
		<path style="stroke:#000000;stroke-width: 1.13 ;&st6;" d=" M   654.39,   588.19  L   960.34,   588.19  L   960.34,   452.21  "/>
	</a>
	<a style="cursor:pointer;" ewd:lineID="16">
		<path style="stroke:#FFE600;stroke-width: 5.10 ;&st6;" d=" M   688.38,   528.70  L   688.38,   104.90  "/>
	</a>
	<a style="cursor:pointer;" ewd:lineID="17">
		<path style="stroke:#FFE600;stroke-width: 5.10 ;&st6;" d=" M   696.88,   537.20  L   900.85,   537.20  L   900.85,   452.21  "/>
	</a>
	<a style="cursor:pointer;" ewd:lineID="18">
		<path style="stroke:#FFE600;stroke-width: 5.10 ;&st6;" d=" M   747.88,   452.21  L   747.88,   520.20  L   705.38,   520.20  L   694.40,   531.18  "/>
	</a>
	<a style="cursor:pointer;" ewd:lineID="19">
		<path style="stroke:#00A0C6;stroke-width: 5.10 ;&st6;" d=" M   747.88,   401.22  L   747.88,   188.75  L   594.90,   188.75  "/>
	</a>
	<a style="cursor:pointer;" ewd:lineID="20">
		<path style="stroke:#000000;stroke-width: 5.10 ;&st6;" d=" M   807.37,   452.21  L   807.37,   571.19  L   662.89,   571.19  L   651.91,   582.17  "/>
		<path style="stroke:#FFFFFF;stroke-width: 4.53 ;&st6;" d=" M   807.37,   452.21  L   807.37,   571.19  L   662.89,   571.19  L   651.91,   582.17  "/>
		<path style="stroke:#000000;stroke-width: 1.13 ;&st6;" d=" M   807.37,   452.21  L   807.37,   571.19  L   662.89,   571.19  L   651.91,   582.17  "/>
	</a>
	<a style="cursor:pointer;" ewd:lineID="21">
		<path style="stroke:#008837;stroke-width: 5.10 ;&st6;" d=" M   807.37,   401.22  L   807.37,   104.90  "/>
	</a>
	<a style="cursor:pointer;" ewd:lineID="22"> d=" M   960.34,   401.22  L   960.34,   104.90 
	
		<path style="stroke:#000000;stroke-width: 5.10 ;&st6;" d=" M   960.34,   401.22  L   960.34,   104.90  "/>
		<path style="stroke:#FFFFFF;stroke-width: 4.53 ;&st6;" d=" M   960.34,   401.22  L   960.34,   104.90  "/>
	</a>
	<g ewd:figtype="rb" ewd:figID="1" ewd:code="FUSE24">
		<text style="&st18;" transform="matrix(&st16;  102.44  32.08 )">(BAT)</text>
		<text style="&st18;" transform="matrix(&st16;  108.68  101.49 )">1</text>
		<text style="&st18;" transform="matrix(&st16;  126.91  56.17 )">15A <tspan x="0 " dy="6.0">IG2</tspan></text>
		<text style="&st18;" transform="matrix(&st16;  104.3  86.47 )">2</text>
		<path style="stroke-width: 0.28 ;&st9;  " d=" M   110.48,    90.37  L   107.65,    87.54  L   107.65,    91.79  L   110.48,    94.62  L   113.31,    91.79  L   113.31,    87.54  L   110.48,    90.37  "/>
		<path style="stroke-width: 1.42 ;&st7;   " d=" M   116.86,    99.52  C   116.86     97.17    114.95     95.27    112.61     95.27  "/>
		<path style="stroke-width: 1.42 ;&st7;   " d=" M   112.61,   103.77  C   114.95    103.77    116.86    101.87    116.86     99.52  "/>
		<path style="stroke-width: 1.42 ;&st7;   " d=" M   104.11,    99.52  C   104.11    101.87    106.01    103.77    108.36    103.77  "/>
		<path style="stroke-width: 1.42 ;&st7;   " d=" M   108.36,    95.27  C   106.01     95.27    104.11     97.17    104.11     99.52  "/>
		<path style="stroke-width: 1.42 ;&st7;  " d=" M   112.61,   103.77  L   108.36,   103.77  "/>
		<path style="stroke-width: 1.42 ;&st7;  " d=" M   112.61,    95.27  L   108.36,    95.27  "/>
		<path style="stroke-width: 0.85 ;&st7;  " d=" M   110.48,    78.27  L   110.48,    95.27  "/>
		<path style="stroke-width: 1.42 ;&st7;  " d=" M    97.73,    35.78  L    97.73,    78.27  L   123.23,    78.27  L   123.23,    35.78  L    97.73,    35.78  "/>
		<path style="stroke-width: 0.85 ;&st7;   " d=" M   111.90,    68.36  C   111.90     67.57    111.26     66.94    110.48     66.94  "/>
		<path style="stroke-width: 0.85 ;&st7;   " d=" M   110.48,    66.94  C   109.70     66.94    109.07     67.57    109.07     68.36  "/>
		<path style="stroke-width: 0.85 ;&st7;   " d=" M   109.07,    68.36  C   109.07     69.14    109.70     69.77    110.48     69.77  "/>
		<path style="stroke-width: 0.85 ;&st7;   " d=" M   110.48,    69.77  C   111.26     69.77    111.90     69.14    111.90     68.36  "/>
		<path style="stroke-width: 0.85 ;&st7;   " d=" M   111.90,    45.69  C   111.90     44.91    111.26     44.28    110.48     44.28  "/>
		<path style="stroke-width: 0.85 ;&st7;   " d=" M   110.48,    44.28  C   109.70     44.28    109.07     44.91    109.07     45.69  "/>
		<path style="stroke-width: 0.85 ;&st7;   " d=" M   109.07,    45.69  C   109.07     46.48    109.70     47.11    110.48     47.11  "/>
		<path style="stroke-width: 0.85 ;&st7;   " d=" M   110.48,    47.11  C   111.26     47.11    111.90     46.48    111.90     45.69  "/>
		<path style="stroke-width: 1.42 ;&st7;   " d=" M   110.48,    66.94  C   113.22     65.33    114.13     61.80    112.52     59.06  "/>
		<path style="stroke-width: 1.42 ;&st7;   " d=" M   112.52,    59.06  C   112.00     58.18    111.36     57.55    110.48     57.03  "/>
		<path style="stroke-width: 1.42 ;&st7;   " d=" M   110.48,    47.11  C   107.74     48.72    106.83     52.25    108.44     54.99  "/>
		<path style="stroke-width: 1.42 ;&st7;   " d=" M   108.44,    54.99  C   108.96     55.87    109.60     56.51    110.48     57.03  "/>
		<path style="stroke-width: 0.85 ;&st7;  " d=" M   110.48,    69.77  L   110.48,    78.27  "/>
	</g>
	<g ewd:figtype="conn" ewd:figID="2" ewd:code="B25">
		<g ewd:lineID="11">
			<text style="&st18;" transform="matrix(&st16;  418.74  460.4 )">4</text>
			<text style="&st18;" transform="matrix(&st16;  418.28  448.51 )">GND</text>
		</g>
		<g ewd:lineID="5">
			<text style="&st18;" transform="matrix(&st16;  359.25  460.4 )">2</text>
			<text style="&st18;" transform="matrix(&st16;  360.23  448.51 )">IGF</text>
		</g>
		<g ewd:lineID="6">
			<text style="&st18;" transform="matrix(&st16;  359.25  397.53 )">1</text>
			<text style="&st18;" transform="matrix(&st16;  361.7  408.85 )">+B</text>
		</g>
		<g ewd:lineID="7">
			<text style="&st18;" transform="matrix(&st16;  418.74  397.53 )">3</text>
			<text style="&st18;" transform="matrix(&st16;  418.09  408.85 )">IGT1</text>
		</g>
		<path style="stroke-width: 1.42 ;&st7;  " d=" M   348.44,   401.22  L   441.93,   401.22  L   441.93,   452.21  L   348.44,   452.21  L   348.44,   401.22  "/>
		<g ewd:figtype="title">
			<text style="&st18;" transform="matrix(&st17;  344.75  455.12 )" ewd:textID="4">Ignition Coil Assembly No. 1</text>
			<text style="&st18;" transform="matrix(&st17;  337.64  455.11 )">B25</text>
		</g>
	</g>
	<g ewd:figtype="conn" ewd:figID="3" ewd:code="B67,B81">
		<g ewd:lineID="14">
			<text style="&st18;" transform="matrix(&st16;  634.1  93.27 )">56</text>
			<text style="&st18;" transform="matrix(&st16;  634.1  102.34 )">24</text>
			<path style="stroke-width: 1.42 ;&st7;   " d=" M   650.42,   100.37  C   650.42     97.87    648.40     95.84    645.89     95.84  "/>
			<path style="stroke-width: 1.42 ;&st7;   " d=" M   645.89,    95.84  C   643.39     95.84    641.36     97.87    641.36    100.37  "/>
			<path style="stroke-width: 1.42 ;&st7;   " d=" M   641.36,   100.37  C   641.36    102.87    643.39    104.90    645.89    104.90  "/>
			<path style="stroke-width: 1.42 ;&st7;   " d=" M   645.89,   104.90  C   648.40    104.90    650.42    102.87    650.42    100.37  "/>
			<text style="&st18;" transform="matrix(&st16;  643.51  102.34 )">D</text>
			<text style="&st18;" transform="matrix(&st16;  643.7  93.27 )">B</text>
			<path style="stroke-width: 1.42 ;&st7;   " d=" M   650.42,    91.30  C   650.42     88.80    648.40     86.77    645.89     86.77  "/>
			<path style="stroke-width: 1.42 ;&st7;   " d=" M   645.89,    86.77  C   643.39     86.77    641.36     88.80    641.36     91.30  "/>
			<path style="stroke-width: 1.42 ;&st7;   " d=" M   641.36,    91.30  C   641.36     93.81    643.39     95.84    645.89     95.84  "/>
			<path style="stroke-width: 1.42 ;&st7;   " d=" M   645.89,    95.84  C   648.40     95.84    650.42     93.81    650.42     91.30  "/>
			<text style="&st18;" transform="matrix(&st16;  639.05  83.07 )">IGT2</text>
		</g>
		<g ewd:lineID="16">
			<text style="&st18;" transform="matrix(&st16;  676.59  102.34 )">26</text>
			<text style="&st18;" transform="matrix(&st16;  673.49  93.27 )">102</text>
			<path style="stroke-width: 1.42 ;&st7;   " d=" M   692.92,   100.37  C   692.92     97.87    690.89     95.84    688.38     95.84  "/>
			<path style="stroke-width: 1.42 ;&st7;   " d=" M   688.38,    95.84  C   685.88     95.84    683.85     97.87    683.85    100.37  "/>
			<path style="stroke-width: 1.42 ;&st7;   " d=" M   683.85,   100.37  C   683.85    102.87    685.88    104.90    688.38    104.90  "/>
			<path style="stroke-width: 1.42 ;&st7;   " d=" M   688.38,   104.90  C   690.89    104.90    692.92    102.87    692.92    100.37  "/>
			<path style="stroke-width: 1.42 ;&st7;   " d=" M   692.92,    91.30  C   692.92     88.80    690.89     86.77    688.38     86.77  "/>
			<path style="stroke-width: 1.42 ;&st7;   " d=" M   688.38,    86.77  C   685.88     86.77    683.85     88.80    683.85     91.30  "/>
			<path style="stroke-width: 1.42 ;&st7;   " d=" M   683.85,    91.30  C   683.85     93.81    685.88     95.84    688.38     95.84  "/>
			<path style="stroke-width: 1.42 ;&st7;   " d=" M   688.38,    95.84  C   690.89     95.84    692.92     93.81    692.92     91.30  "/>
			<text style="&st18;" transform="matrix(&st16;  686.2  93.27 )">B</text>
			<text style="&st18;" transform="matrix(&st16;  686.0  102.34 )">D</text>
			<text style="&st18;" transform="matrix(&st16;  681.62  83.07 )">IGF1</text>
		</g>
		<g ewd:lineID="21">
			<text style="&st18;" transform="matrix(&st16;  795.57  102.34 )">48</text>
			<text style="&st18;" transform="matrix(&st16;  795.57  93.27 )">55</text>
			<text style="&st18;" transform="matrix(&st16;  804.98  102.34 )">D</text>
			<path style="stroke-width: 1.42 ;&st7;   " d=" M   811.90,    91.30  C   811.90     88.80    809.87     86.77    807.37     86.77  "/>
			<path style="stroke-width: 1.42 ;&st7;   " d=" M   807.37,    86.77  C   804.86     86.77    802.83     88.80    802.83     91.30  "/>
			<path style="stroke-width: 1.42 ;&st7;   " d=" M   802.83,    91.30  C   802.83     93.81    804.86     95.84    807.37     95.84  "/>
			<path style="stroke-width: 1.42 ;&st7;   " d=" M   807.37,    95.84  C   809.87     95.84    811.90     93.81    811.90     91.30  "/>
			<path style="stroke-width: 1.42 ;&st7;   " d=" M   811.90,   100.37  C   811.90     97.87    809.87     95.84    807.37     95.84  "/>
			<path style="stroke-width: 1.42 ;&st7;   " d=" M   807.37,    95.84  C   804.86     95.84    802.83     97.87    802.83    100.37  "/>
			<path style="stroke-width: 1.42 ;&st7;   " d=" M   802.83,   100.37  C   802.83    102.87    804.86    104.90    807.37    104.90  "/>
			<path style="stroke-width: 1.42 ;&st7;   " d=" M   807.37,   104.90  C   809.87    104.90    811.90    102.87    811.90    100.37  "/>
			<text style="&st18;" transform="matrix(&st16;  805.18  93.27 )">B</text>
			<text style="&st18;" transform="matrix(&st16;  800.52  83.07 )">IGT3</text>
		</g>
		<g ewd:lineID="22">
			<text style="&st18;" transform="matrix(&st16;  948.54  102.34 )">47</text>
			<text style="&st18;" transform="matrix(&st16;  948.54  93.27 )">54</text>
			<path style="stroke-width: 1.42 ;&st7;   " d=" M   964.87,    91.30  C   964.87     88.80    962.84     86.77    960.34     86.77  "/>
			<path style="stroke-width: 1.42 ;&st7;   " d=" M   960.34,    86.77  C   957.84     86.77    955.81     88.80    955.81     91.30  "/>
			<path style="stroke-width: 1.42 ;&st7;   " d=" M   955.81,    91.30  C   955.81     93.81    957.84     95.84    960.34     95.84  "/>
			<path style="stroke-width: 1.42 ;&st7;   " d=" M   960.34,    95.84  C   962.84     95.84    964.87     93.81    964.87     91.30  "/>
			<text style="&st18;" transform="matrix(&st16;  957.96  102.34 )">D</text>
			<text style="&st18;" transform="matrix(&st16;  958.15  93.27 )">B</text>
			<path style="stroke-width: 1.42 ;&st7;   " d=" M   964.87,   100.37  C   964.87     97.87    962.84     95.84    960.34     95.84  "/>
			<path style="stroke-width: 1.42 ;&st7;   " d=" M   960.34,    95.84  C   957.84     95.84    955.81     97.87    955.81    100.37  "/>
			<path style="stroke-width: 1.42 ;&st7;   " d=" M   955.81,   100.37  C   955.81    102.87    957.84    104.90    960.34    104.90  "/>
			<path style="stroke-width: 1.42 ;&st7;   " d=" M   960.34,   104.90  C   962.84    104.90    964.87    102.87    964.87    100.37  "/>
			<text style="&st18;" transform="matrix(&st16;  953.5  83.07 )">IGT4</text>
		</g>
		<g ewd:comment="2,1" ewd:lineID="7">
			<text style="&st18;" transform="matrix(&st16;  413.13  93.27 )">57</text>
			<text style="&st18;" transform="matrix(&st16;  413.13  102.34 )">25</text>
			<text style="&st18;" transform="matrix(&st16;  422.55  102.34 )">D</text>
			<text style="&st18;" transform="matrix(&st16;  422.74  93.27 )">B</text>
			<path style="stroke-width: 1.42 ;&st7;   " d=" M   429.46,    91.30  C   429.46     88.80    427.43     86.77    424.93     86.77  "/>
			<path style="stroke-width: 1.42 ;&st7;   " d=" M   424.93,    86.77  C   422.43     86.77    420.40     88.80    420.40     91.30  "/>
			<path style="stroke-width: 1.42 ;&st7;   " d=" M   420.40,    91.30  C   420.40     93.81    422.43     95.84    424.93     95.84  "/>
			<path style="stroke-width: 1.42 ;&st7;   " d=" M   424.93,    95.84  C   427.43     95.84    429.46     93.81    429.46     91.30  "/>
			<path style="stroke-width: 1.42 ;&st7;   " d=" M   429.46,   100.37  C   429.46     97.87    427.43     95.84    424.93     95.84  "/>
			<path style="stroke-width: 1.42 ;&st7;   " d=" M   424.93,    95.84  C   422.43     95.84    420.40     97.87    420.40    100.37  "/>
			<path style="stroke-width: 1.42 ;&st7;   " d=" M   420.40,   100.37  C   420.40    102.87    422.43    104.90    424.93    104.90  "/>
			<path style="stroke-width: 1.42 ;&st7;   " d=" M   424.93,   104.90  C   427.43    104.90    429.46    102.87    429.46    100.37  "/>
			<text style="&st18;" transform="matrix(&st16;  418.09  83.07 )">IGT1</text>
			<g ewd:code="" ewd:figID="17" ewd:comment="2" ewd:figtype="commref">
				<text style="&st18;" transform="matrix(&st16;  430.02  102.34 )">(*2)</text>
			</g>
			<g ewd:code="" ewd:figID="18" ewd:comment="1" ewd:figtype="commref">
				<text style="&st18;" transform="matrix(&st16;  430.02  93.27 )">(*1)</text>
			</g>
		</g>
		<path style="stroke-width: 0.85 ;&st7; stroke-dasharray:3, 1.5;" d=" M   654.39,    91.30  L   667.14,    91.30  "/>
		<path style="stroke-width: 0.85 ;&st7; stroke-dasharray:3, 1.5;" d=" M   654.39,   100.37  L   671.39,   100.37  "/>
		<path style="stroke-width: 0.85 ;&st7; stroke-dasharray:3, 1.5;" d=" M   696.88,    91.30  L   790.37,    91.30  "/>
		<path style="stroke-width: 0.85 ;&st7; stroke-dasharray:3, 1.5;" d=" M   696.88,   100.37  L   790.37,   100.37  "/>
		<path style="stroke-width: 0.85 ;&st7; stroke-dasharray:3, 1.5;" d=" M   815.86,    91.30  L   943.34,    91.30  "/>
		<path style="stroke-width: 0.85 ;&st7; stroke-dasharray:3, 1.5;" d=" M   815.86,   100.37  L   943.34,   100.37  "/>
		<path style="stroke-width: 1.42 ;&st7;  " d=" M   407.93,    86.77  L   977.34,    86.77  L   977.34,    35.78  L   407.93,    35.78  L   407.93,    86.77  "/>
		<g ewd:figtype="title">
			<text style="&st18;" transform="matrix(&st16;  404.52  25.26 )">B67(B),B81(D)</text>
			<text style="&st18;" transform="matrix(&st16;  404.53  32.08 )">ECM</text>
		</g>
	</g>
	<g ewd:figtype="rb" ewd:figID="4" ewd:code="1">
		<text style="&st18;" transform="matrix(&st16;  78.8  247.94 )">1</text>
		<text style="&st18;" transform="matrix(&st16;  104.3  247.94 )">3</text>
		<text style="&st18;" transform="matrix(&st16;  78.8  202.06 )">2</text>
		<text style="&st18;" transform="matrix(&st16;  104.3  202.06 )">5</text>
		<text style="&st18;" transform="matrix(&st16;  108.68  177.98 )">1</text>
		<text style="&st18;" transform="matrix(&st16;  108.68  271.46 )">1</text>
		<text style="&st18;" transform="matrix(&st16;  121.24  221.89 )" ewd:textID="3">IG2 <tspan x="0 " dy="6.0">Relay</tspan></text>
		<path style="stroke-width: 0.28 ;&st9;  " d=" M   110.48,   185.15  L   113.31,   187.98  L   113.31,   183.73  L   110.48,   180.90  L   107.65,   183.73  L   107.65,   187.98  L   110.48,   185.15  "/>
		<path style="stroke-width: 0.28 ;&st9;  " d=" M   110.48,   260.35  L   107.65,   257.51  L   107.65,   261.76  L   110.48,   264.60  L   113.31,   261.76  L   113.31,   257.51  L   110.48,   260.35  "/>
		<path style="stroke-width: 0.85 ;&st7;  " d=" M    84.99,   180.26  L    84.99,   205.75  "/>
		<path style="stroke-width: 0.85 ;&st7;  " d=" M   110.48,   205.75  L   110.48,   180.26  "/>
		<path style="stroke-width: 0.85 ;&st7;  " d=" M    84.99,   265.24  L    84.99,   239.75  "/>
		<path style="stroke-width: 0.85 ;&st7;  " d=" M   110.48,   239.75  L   110.48,   265.24  "/>
		<path style="stroke-width: 1.42 ;&st7;  " d=" M   112.61,   265.24  L   108.36,   265.24  "/>
		<path style="stroke-width: 1.42 ;&st7;   " d=" M   108.36,   171.76  C   106.01    171.76    104.11    173.66    104.11    176.01  "/>
		<path style="stroke-width: 1.42 ;&st7;   " d=" M   104.11,   176.01  C   104.11    178.35    106.01    180.26    108.36    180.26  "/>
		<path style="stroke-width: 1.42 ;&st7;   " d=" M   112.61,   180.26  C   114.95    180.26    116.86    178.35    116.86    176.01  "/>
		<path style="stroke-width: 1.42 ;&st7;   " d=" M   116.86,   176.01  C   116.86    173.66    114.95    171.76    112.61    171.76  "/>
		<path style="stroke-width: 1.42 ;&st7;   " d=" M   108.36,   265.24  C   106.01    265.24    104.11    267.14    104.11    269.49  "/>
		<path style="stroke-width: 1.42 ;&st7;   " d=" M   104.11,   269.49  C   104.11    271.84    106.01    273.74    108.36    273.74  "/>
		<path style="stroke-width: 1.42 ;&st7;   " d=" M   112.61,   273.74  C   114.95    273.74    116.86    271.84    116.86    269.49  "/>
		<path style="stroke-width: 1.42 ;&st7;   " d=" M   116.86,   269.49  C   116.86    267.14    114.95    265.24    112.61    265.24  "/>
		<path style="stroke-width: 1.42 ;&st7;   " d=" M    84.99,   180.26  C    82.77    178.43     79.64    178.49     77.50    180.40  "/>
		<path style="stroke-width: 1.42 ;&st7;   " d=" M    84.99,   180.26  C    87.20    182.08     90.33    182.02     92.47    180.11  "/>
		<path style="stroke-width: 1.42 ;&st7;   " d=" M    84.99,   265.24  C    82.77    263.42     79.64    263.48     77.50    265.38  "/>
		<path style="stroke-width: 1.42 ;&st7;   " d=" M    84.99,   265.24  C    87.20    267.06     90.33    267.00     92.47    265.10  "/>
		<path style="stroke-width: 1.42 ;&st7;  " d=" M   112.61,   171.76  L   108.36,   171.76  "/>
		<path style="stroke-width: 1.42 ;&st7;  " d=" M   112.61,   180.26  L   108.36,   180.26  "/>
		<path style="stroke-width: 1.42 ;&st7;  " d=" M   112.61,   273.74  L   108.36,   273.74  "/>
		<path style="stroke-width: 1.42 ;&st7;  " d=" M   118.98,   205.75  L    76.49,   205.75  L    76.49,   239.75  L   118.98,   239.75  L   118.98,   205.75  "/>
		<path style="stroke-width: 1.42 ;&st7;  " d=" M   110.48,   232.66  L   116.15,   210.00  "/>
		<path style="stroke-width: 0.85 ;&st7;   " d=" M   111.90,   234.08  C   111.90    233.30    111.26    232.66    110.48    232.66  "/>
		<path style="stroke-width: 0.85 ;&st7;   " d=" M   110.48,   232.66  C   109.70    232.66    109.07    233.30    109.07    234.08  "/>
		<path style="stroke-width: 0.85 ;&st7;   " d=" M   109.07,   234.08  C   109.07    234.86    109.70    235.50    110.48    235.50  "/>
		<path style="stroke-width: 0.85 ;&st7;   " d=" M   110.48,   235.50  C   111.26    235.50    111.90    234.86    111.90    234.08  "/>
		<path style="stroke-width: 0.85 ;&st7;   " d=" M   111.90,   211.42  C   111.90    210.63    111.26    210.00    110.48    210.00  "/>
		<path style="stroke-width: 0.85 ;&st7;   " d=" M   110.48,   210.00  C   109.70    210.00    109.07    210.63    109.07    211.42  "/>
		<path style="stroke-width: 0.85 ;&st7;   " d=" M   109.07,   211.42  C   109.07    212.20    109.70    212.83    110.48    212.83  "/>
		<path style="stroke-width: 0.85 ;&st7;   " d=" M   110.48,   212.83  C   111.26    212.83    111.90    212.20    111.90    211.42  "/>
		<path style="stroke-width: 0.85 ;&st7;   " d=" M    82.46,   220.27  C    83.83    221.67     86.07    221.69     87.46    220.32  "/>
		<path style="stroke-width: 0.85 ;&st7;   " d=" M    87.46,   220.32  C    88.86    218.95     88.88    216.71     87.52    215.31  "/>
		<path style="stroke-width: 0.85 ;&st7;   " d=" M    87.52,   215.31  C    86.82    214.60     85.98    214.25     84.99    214.25  "/>
		<path style="stroke-width: 0.85 ;&st7;   " d=" M    82.46,   225.23  C    83.83    226.62     86.07    226.65     87.46    225.28  "/>
		<path style="stroke-width: 0.85 ;&st7;   " d=" M    87.46,   225.28  C    88.86    223.91     88.88    221.67     87.52    220.27  "/>
		<path style="stroke-width: 0.85 ;&st7;   " d=" M    87.52,   220.27  C    86.15    218.87     83.90    218.85     82.51    220.22  "/>
		<path style="stroke-width: 0.85 ;&st7;   " d=" M    82.51,   220.22  C    82.49    220.24     82.47    220.25     82.46    220.27  "/>
		<path style="stroke-width: 0.85 ;&st7;   " d=" M    84.99,   231.25  C    86.94    231.25     88.53    229.66     88.53    227.71  "/>
		<path style="stroke-width: 0.85 ;&st7;   " d=" M    88.53,   227.71  C    88.53    225.75     86.94    224.16     84.99    224.16  "/>
		<path style="stroke-width: 0.85 ;&st7;   " d=" M    84.99,   224.16  C    84.00    224.16     83.15    224.52     82.46    225.23  "/>
		<path style="stroke-width: 0.85 ;&st7;  " d=" M    84.99,   205.75  L    84.99,   214.25  "/>
		<path style="stroke-width: 0.85 ;&st7;  " d=" M   110.48,   239.75  L   110.48,   235.50  "/>
		<path style="stroke-width: 0.85 ;&st7;  " d=" M   110.48,   205.75  L   110.48,   210.00  "/>
		<path style="stroke-width: 0.85 ;&st7;  " d=" M    84.99,   231.25  L    84.99,   239.75  "/>
	</g>
	<g ewd:figtype="conn" ewd:figID="5" ewd:code="B28">
		<g ewd:lineID="10">
			<text style="&st18;" transform="matrix(&st16;  894.67  397.53 )">1</text>
			<text style="&st18;" transform="matrix(&st16;  897.11  408.85 )">+B</text>
		</g>
		<g ewd:lineID="15">
			<text style="&st18;" transform="matrix(&st16;  954.16  460.4 )">4</text>
			<text style="&st18;" transform="matrix(&st16;  953.69  448.51 )">GND</text>
		</g>
		<g ewd:lineID="17">
			<text style="&st18;" transform="matrix(&st16;  894.67  460.4 )">2</text>
			<text style="&st18;" transform="matrix(&st16;  895.64  448.51 )">IGF</text>
		</g>
		<g ewd:lineID="22">
			<text style="&st18;" transform="matrix(&st16;  954.16  397.53 )">3</text>
			<text style="&st18;" transform="matrix(&st16;  953.5  408.85 )">IGT4</text>
		</g>
		<path style="stroke-width: 1.42 ;&st7;  " d=" M   883.85,   401.22  L   977.34,   401.22  L   977.34,   452.21  L   883.85,   452.21  L   883.85,   401.22  "/>
		<g ewd:figtype="title">
			<text style="&st18;" transform="matrix(&st17;  873.05  455.11 )">B28</text>
			<text style="&st18;" transform="matrix(&st17;  880.16  455.12 )" ewd:textID="7">Ignition Coil Assembly No. 4</text>
		</g>
	</g>
	<g ewd:figtype="conn" ewd:figID="6" ewd:code="B27">
		<g ewd:lineID="18">
			<text style="&st18;" transform="matrix(&st16;  741.69  460.4 )">2</text>
			<text style="&st18;" transform="matrix(&st16;  742.66  448.51 )">IGF</text>
		</g>
		<g ewd:lineID="19">
			<text style="&st18;" transform="matrix(&st16;  741.69  397.53 )">1</text>
			<text style="&st18;" transform="matrix(&st16;  744.14  408.85 )">+B</text>
		</g>
		<g ewd:lineID="20">
			<text style="&st18;" transform="matrix(&st16;  801.18  460.4 )">4</text>
			<text style="&st18;" transform="matrix(&st16;  800.72  448.51 )">GND</text>
		</g>
		<g ewd:lineID="21">
			<text style="&st18;" transform="matrix(&st16;  801.18  397.53 )">3</text>
			<text style="&st18;" transform="matrix(&st16;  800.52  408.85 )">IGT3</text>
		</g>
		<path style="stroke-width: 1.42 ;&st7;  " d=" M   730.88,   401.22  L   824.36,   401.22  L   824.36,   452.21  L   730.88,   452.21  L   730.88,   401.22  "/>
		<g ewd:figtype="title">
			<text style="&st18;" transform="matrix(&st17;  720.08  455.11 )">B27</text>
			<text style="&st18;" transform="matrix(&st17;  727.18  455.12 )" ewd:textID="6">Ignition Coil Assembly No. 3</text>
		</g>
	</g>
	<g ewd:figtype="conn" ewd:figID="7" ewd:code="B26">
		<g ewd:lineID="13">
			<text style="&st18;" transform="matrix(&st16;  639.71  460.4 )">4</text>
			<text style="&st18;" transform="matrix(&st16;  639.24  448.51 )">GND</text>
		</g>
		<g ewd:lineID="14">
			<text style="&st18;" transform="matrix(&st16;  639.71  397.53 )">3</text>
			<text style="&st18;" transform="matrix(&st16;  639.05  408.85 )">IGT2</text>
		</g>
		<g ewd:lineID="8">
			<text style="&st18;" transform="matrix(&st16;  580.22  460.4 )">2</text>
			<text style="&st18;" transform="matrix(&st16;  581.19  448.51 )">IGF</text>
		</g>
		<g ewd:lineID="9">
			<text style="&st18;" transform="matrix(&st16;  580.22  397.53 )">1</text>
			<text style="&st18;" transform="matrix(&st16;  582.66  408.85 )">+B</text>
		</g>
		<path style="stroke-width: 1.42 ;&st7;  " d=" M   569.40,   401.22  L   662.89,   401.22  L   662.89,   452.21  L   569.40,   452.21  L   569.40,   401.22  "/>
		<g ewd:figtype="title">
			<text style="&st18;" transform="matrix(&st17;  565.71  455.12 )" ewd:textID="5">Ignition Coil Assembly No. 2</text>
			<text style="&st18;" transform="matrix(&st17;  558.6  455.11 )">B26</text>
		</g>
	</g>
	<g ewd:figtype="w2w" ewd:figID="10" ewd:code="BA2">
		<text style="&st18;" transform="matrix(&st16;  293.32  339.45 )">4</text>
		<path style="stroke-width: 1.42 ;&st7;  " d=" M   310.20,   350.79  L   305.95,   346.54  L   301.70,   350.79  "/>
		<path style="stroke-width: 1.42 ;&st7;  " d=" M   310.20,   347.39  L   305.95,   343.14  L   301.70,   347.39  "/>
	</g>
	<g ewd:figtype="gp" ewd:figID="11" ewd:code="BB">
		<path style="stroke-width: 0.85 ;&st7;  " d=" M   645.89,   697.25  L   645.89,   701.50  "/>
		<path style="stroke-width: 0.85 ;&st7;  " d=" M   637.39,   701.50  L   654.39,   701.50  "/>
		<path style="stroke-width: 0.85 ;&st7;  " d=" M   641.64,   704.33  L   650.14,   704.33  "/>
		<path style="stroke-width: 0.85 ;&st7;  " d=" M   643.06,   707.17  L   648.72,   707.17  "/>
		<path style="stroke-width: 0.85 ;&st7;  " d=" M   644.48,   710.00  L   647.31,   710.00  "/>
	</g>
	<g ewd:code="" ewd:figID="21" ewd:comment="2" ewd:figtype="commref">
		<text style="&st18;" transform="matrix(&st16;  965.43  102.34 )">(*2)</text>
	</g>
	<g ewd:code="" ewd:figID="22" ewd:comment="1" ewd:figtype="commref">
		<text style="&st18;" transform="matrix(&st16;  965.43  93.27 )">(*1)</text>
	</g>
	<g ewd:code="2" ewd:figID="19" ewd:comment="" ewd:figtype="comment">
		<text style="&st18;" transform="matrix(&st16;  158.07  522.17 )" ewd:textID="2">* 2 :TDV Made</text>
	</g>
	<g ewd:code="1" ewd:figID="20" ewd:comment="" ewd:figtype="comment">
		<text style="&st18;" transform="matrix(&st16;  158.07  513.67 )" ewd:textID="1">* 1 :TDB Made</text>
	</g>
	<text style="&st18;" transform="matrix(&st16;  721.81  32.08 )">ECM</text>
	<text style="&st18;" transform="matrix(&st16;  721.8  25.26 )">B67(B),B81(D)</text>
	<text style="&st18;" transform="matrix(&st16;  490.85  202.05 )">L</text>
	<text style="&st18;" transform="matrix(&st16;  541.84  202.05 )">L</text>
	<text style="&st18;" transform="matrix(&st17;  684.69  292.43 )">Y</text>
	<text style="&st18;" transform="matrix(&st17;  897.15  496.39 )">Y</text>
	<text style="&st18;" transform="matrix(&st17;  744.18  496.39 )">Y</text>
	<text style="&st18;" transform="matrix(&st17;  582.71  496.39 )">Y</text>
	<text style="&st18;" transform="matrix(&st17;  361.74  496.39 )">Y</text>
	<text style="&st18;" transform="matrix(&st17;  956.64  293.2 )">W</text>
	<text style="&st18;" transform="matrix(&st17;  582.71  292.31 )">L</text>
	<text style="&st18;" transform="matrix(&st17;  421.23  500.66 )">W-B</text>
	<text style="&st18;" transform="matrix(&st17;  803.67  500.66 )">W-B</text>
	<text style="&st18;" transform="matrix(&st17;  642.2  500.66 )">W-B</text>
	<text style="&st18;" transform="matrix(&st16;  741.42  584.49 )">W-B</text>
	<text style="&st18;" transform="matrix(&st17;  421.23  292.35 )">R</text>
	<text style="&st18;" transform="matrix(&st17;  642.2  292.43 )">B</text>
	<text style="&st18;" transform="matrix(&st17;  744.18  292.31 )">L</text>
	<text style="&st18;" transform="matrix(&st17;  803.67  292.7 )">G</text>
	<text style="&st18;" transform="matrix(&st17;  642.2  645.13 )">W-B</text>
	<text style="&st18;" transform="matrix(&st17;  956.64  500.66 )">W-B</text>
	<text style="&st18;" transform="matrix(&st17;  897.15  292.31 )">L</text>
	<text style="&st18;" transform="matrix(&st17;  361.74  292.31 )">L</text>
	<text style="&st18;" transform="matrix(&st16;  541.84  185.06 )">L</text>
	<text style="&st18;" transform="matrix(&st16;  244.39  397.52 )">L</text>
	<text style="&st18;" transform="matrix(&st17;  106.79  139.37 )">R</text>
	<text style="&st18;" transform="matrix(&st16;  490.85  185.06 )">L</text>
	<text style="&st18;" transform="matrix(&st17;  106.79  309.31 )">L</text>
	<path style="stroke-width: 1.42 ;&st7;  " d=" M   637.39,   591.72  L   642.36,   596.69  "/>
	<path style="stroke-width: 1.42 ;&st7;  " d=" M   679.89,   540.73  L   684.86,   545.69  "/>
	<path style="stroke-width: 1.42 ;&st7;  " d=" M   696.88,   533.67  L   691.91,   528.70  "/>
	<path style="stroke-width: 1.42 ;&st7;  " d=" M   106.95,   392.72  L   101.98,   397.69  "/>
	<path style="stroke-width: 1.42 ;&st7;  " d=" M   594.90,   185.23  L   589.93,   180.26  "/>
	<path style="stroke-width: 1.42 ;&st7;  " d=" M   577.90,   192.28  L   582.87,   197.25  "/>
	<path style="stroke-width: 1.42 ;&st7;  " d=" M   589.93,   197.25  L   594.90,   192.28  "/>
	<path style="stroke-width: 1.42 ;&st7;  " d=" M   582.87,   180.26  L   577.90,   185.23  "/>
	<path style="stroke-width: 1.42 ;&st7;  " d=" M   314.45,   341.73  L   305.95,   341.73  "/>
	<path style="stroke-width: 1.42 ;&st7;  " d=" M   101.98,   404.75  L   106.95,   409.72  "/>
	<path style="stroke-width: 1.42 ;&st7;  " d=" M   118.98,   397.69  L   114.01,   392.72  "/>
	<path style="stroke-width: 1.42 ;&st7;  " d=" M   642.36,   579.69  L   637.39,   584.66  "/>
	<path style="stroke-width: 1.42 ;&st7;  " d=" M   114.01,   409.72  L   118.98,   404.75  "/>
	<path style="stroke-width: 1.42 ;&st7;  " d=" M   649.42,   596.69  L   654.39,   591.72  "/>
	<path style="stroke-width: 1.42 ;&st7;  " d=" M   654.39,   584.66  L   649.42,   579.69  "/>
	<path style="stroke-width: 1.42 ;&st7;  " d=" M   684.86,   528.70  L   679.89,   533.67  "/>
	<path style="stroke-width: 1.42 ;&st7;  " d=" M   691.91,   545.69  L   696.88,   540.73  "/>
	<text style="&st18;" transform="matrix(&st16;  490.73  533.5 )">Y</text>
	<text style="&st18;" transform="matrix(&st16;  541.72  533.5 )">Y</text>
	<text style="&st18;" transform="matrix(&st16;  486.46  584.49 )">W-B</text>
	<text style="&st18;" transform="matrix(&st16;  537.46  584.49 )">W-B</text>
	<a ewd:figtype="w2w" style="cursor:pointer;" ewd:pinNo="4" ewd:code="BA2" ewd:figID="10">
		<path style="&st2;" d=" M   314.45,   333.23  L   297.45,   333.23  L   297.45,   341.73  L   314.45,   341.73  L   314.45,   333.23 "/>
		<text style="&st8;" transform="matrix(&st16;  300.57  339.6 )"><tspan x="0" style="&st18;" y="0">BA2</tspan></text>
	</a>
	<a ewd:figtype="gp" style="cursor:pointer;" ewd:code="BB" ewd:figID="11">
		<path style="&st2;" d=" M   635.27,   681.67  L   656.52,   681.67  L   645.89,   697.25  L   635.27,   681.67 "/>
		<text style="&st8;" transform="matrix(&st16;  642.13  689.46 )"><tspan x="0" style="&st18;" y="0">BB</tspan></text>
	</a>
	<a ewd:figtype="sp" style="cursor:pointer;" ewd:code="SP5" ewd:figID="12">
		<path style="&st2;" d=" M   106.23,   392.72  L   114.73,   392.72  L   118.98,   396.97  L   118.98,   405.47  L   114.73,   409.72  L   106.23,   409.72  L   101.98,   405.47  L   101.98,   396.97  L   106.23,   392.72 "/>
	</a>
	<a ewd:figtype="sp" style="cursor:pointer;" ewd:code="SP13" ewd:figID="13">
		<path style="&st2;" d=" M   582.15,   180.26  L   590.65,   180.26  L   594.90,   184.50  L   594.90,   193.00  L   590.65,   197.25  L   582.15,   197.25  L   577.90,   193.00  L   577.90,   184.50  L   582.15,   180.26 "/>
	</a>
	<a ewd:figtype="sp" style="cursor:pointer;" ewd:code="SP9" ewd:figID="14">
		<path style="&st2;" d=" M   641.64,   579.69  L   650.14,   579.69  L   654.39,   583.94  L   654.39,   592.44  L   650.14,   596.69  L   641.64,   596.69  L   637.39,   592.44  L   637.39,   583.94  L   641.64,   579.69 "/>
	</a>
	<a ewd:figtype="sp" style="cursor:pointer;" ewd:code="SP12" ewd:figID="15">
		<path style="&st2;" d=" M   684.14,   528.70  L   692.63,   528.70  L   696.88,   532.95  L   696.88,   541.44  L   692.63,   545.69  L   684.14,   545.69  L   679.89,   541.44  L   679.89,   532.95  L   684.14,   528.70 "/>
	</a>
</g>
</svg>