﻿<?xml version="1.0" encoding="utf-8"?>
<!DOCTYPE svg PUBLIC "-//W3C//DTD SVG 1.0//EN" "http://www.w3.org/TR/2001/REC-SVG-20010904/DTD/svg10.dtd"[
	<!ENTITY ns_flows "http://ns.adobe.com/Flows/1.0/">
	<!ENTITY ns_svg "http://www.w3.org/2000/svg">
	<!ENTITY ns_xlink "http://www.w3.org/1999/xlink">
	<!ENTITY st0 "font-size:7px;font-family:'MS-PGothic';adobe-font-script:japanese;">
	<!ENTITY st1 "font-size:6px;font-family:'ArialMT';">
	<!-- White fill  -->
	<!ENTITY st2 "fill:#FFFFFF;stroke:#000000; stroke-width:1.41;stroke-linecap:round;stroke-linejoin:round;">
	<!-- Yellow fill  -->
	<!ENTITY st3 "fill:#FFFFCC;stroke:#FFFFCC; stroke-width:0.1;stroke-linecap:round;stroke-linejoin:round;">
	<!-- Gray fill  -->
	<!ENTITY st4 "fill:#CCCCCC;stroke:#CCCCCC; stroke-width:0.1;stroke-linecap:round;stroke-linejoin:round;">
	<!-- Light-blue fill -->
	<!ENTITY st5 "fill:#CCECF4;stroke:#000000; stroke-width:1.133;stroke-linecap:round;stroke-linejoin:round;">
	<!ENTITY st6 "fill:none;stroke-linecap:butt; stroke-linejoin:round;">
	<!ENTITY st7 "fill:none;stroke:#000000;stroke-linecap:round;stroke-linejoin:round;">
	<!ENTITY st8 "enable-background:new    ;">
	<!-- Black fill -->
	<!ENTITY st9 "fill:#000000;stroke:#000000; stroke-linecap:round;stroke-linejoin:round;">
	<!-- SRS note   -->
	<!ENTITY st10 "font-size:9px;font-family:'ArialMT';">
	<!ENTITY st11 "font-size:9px;font-family:'Svg Symbol';">
	<!ENTITY st12 "font-size:6px;font-family:'Svg Symbol';">
	<!ENTITY st13 "fill:none;stroke:#ff0000;stroke-linecap:round;stroke-linejoin:round;">
	<!-- Yellow fill  -->
	<!ENTITY st14 "fill:#FFFF00;stroke:#FFFF00; stroke-width:0.1;stroke-linecap:round;stroke-linejoin:round;">
	<!ENTITY st15 "font-size:6px;font-family:'MS-PGothic';adobe-font-script:japanese;">
	<!ENTITY st16 "1.00 0.00 0.00 1.00">
	<!ENTITY st17 "0.00 -1.00 1.00 0.00">
	<!ENTITY st18 "font-size:6px;font-family:'Arial';">
	<!ENTITY st19 "font-size:9px;font-family:'Arial';">
	<!ENTITY st20 "font-size:6px;font-family:'MS-PGothic','MS PGothic';adobe-font-script:japanese;">
	<!ENTITY st21 "font-size:7px;font-family:'MS-PGothic','MS PGothic';adobe-font-script:japanese;">
	<!ATTLIST svg
		xmlns:ewd CDATA #FIXED "http://shcl.co.jp/ewd"
		xmlns:a CDATA #FIXED "http://ns.adobe.com/AdobeSVGViewerExtensions/3.0/"
		ewd:ver CDATA #IMPLIED
	>
	<!ATTLIST a
		ewd:lineID CDATA #IMPLIED
		ewd:groupID CDATA #IMPLIED
		ewd:figtype CDATA #IMPLIED
		ewd:code CDATA #IMPLIED
		ewd:figID CDATA #IMPLIED
		ewd:pinNo CDATA #IMPLIED
		ewd:comment CDATA #IMPLIED >
	<!ATTLIST g
		ewd:lineID CDATA #IMPLIED
		ewd:groupID CDATA #IMPLIED
		ewd:figtype CDATA #IMPLIED
		ewd:code CDATA #IMPLIED
		ewd:figID CDATA #IMPLIED
		ewd:pinNo CDATA #IMPLIED
		ewd:comment CDATA #IMPLIED >
	<!ATTLIST text
		ewd:textID CDATA #IMPLIED >
	<!ATTLIST title
		ewd:textID CDATA #IMPLIED >
]>
<!-- Generator: Shintec Hozumi YS   -->
<svg onload="call_execInitLoadProc_svg('system')" style="overflow:visible;  enable-background:new 0 0 2582.152 710.000" viewBox="0 0 2582.152 710.000" height="710.000" width="2582.152" xml:space="preserve" ewd:ver="2.1.2.9" xmlns="&ns_svg;" xmlns:a="http://ns.adobe.com/AdobeSVGViewerExtensions/3.0/" xmlns:ewd="http://shcl.co.jp/ewd" xmlns:xlink="&ns_xlink;">
<text style="&st18;" transform="matrix(&st17;  1764.01  258.43 )">Y</text><text style="&st18;" transform="matrix(&st17;  1721.52  258.43 )">Y</text><text style="&st18;" transform="matrix(&st17;  1942.48  262.7 )">W-B</text><text style="&st18;" transform="matrix(&st17;  1806.5  258.31 )">L</text><text style="&st18;" transform="matrix(&st17;  1865.99  258.55 )">V</text><text style="&st18;" transform="matrix(&st17;  1899.99  258.24 )">P</text><text style="&st18;" transform="matrix(&st17;  1865.99  377.3 )">L</text><text style="&st18;" transform="matrix(&st16;  1527.56  380.52 )">Y</text><text style="&st18;" transform="matrix(&st16;  1527.67  397.52 )">L</text><text style="&st18;" transform="matrix(&st16;  1527.67  414.52 )">L</text><text style="&st18;" transform="matrix(&st16;  1527.56  431.52 )">Y</text><text style="&st18;" transform="matrix(&st16;  1578.55  380.52 )">Y</text><text style="&st18;" transform="matrix(&st16;  1578.66  397.52 )">L</text><text style="&st18;" transform="matrix(&st16;  1578.66  414.52 )">L</text><text style="&st18;" transform="matrix(&st16;  1578.55  431.52 )">Y</text><text style="&st18;" transform="matrix(&st16;  1527.75  474.01 )">P</text><text style="&st18;" transform="matrix(&st16;  1527.56  491.01 )">Y</text><text style="&st18;" transform="matrix(&st16;  1525.42  508.0 )">GR</text><text style="&st18;" transform="matrix(&st16;  1578.74  474.01 )">P</text><text style="&st18;" transform="matrix(&st16;  1578.55  491.01 )">Y</text><text style="&st18;" transform="matrix(&st16;  1576.42  508.0 )">GR</text><text style="&st18;" transform="matrix(&st16;  1527.56  550.5 )">Y</text><text style="&st18;" transform="matrix(&st16;  1578.55  550.5 )">Y</text><text style="&st18;" transform="matrix(&st16;  1526.78  575.99 )">W</text><text style="&st18;" transform="matrix(&st16;  1577.77  575.99 )">W</text><g ewd:figtype="conn" ewd:figID="9" ewd:code="E44"><path style="stroke-width: 1.42 ;&st7;  " d=" M  1852.69,   316.23  L  1852.69,   350.23  L  1920.68,   350.23  L  1920.68,   316.23  L  1852.69,   316.23  " /><g ewd:lineID="39"><text style="&st18;" transform="matrix(&st16;  1863.5  358.42 )">5</text><text style="&st18;" transform="matrix(&st16;  1864.79  346.53 )">IG+</text></g><g ewd:lineID="40"><text style="&st18;" transform="matrix(&st16;  1863.5  312.54 )">2</text><text style="&st18;" transform="matrix(&st16;  1864.16  323.87 )">FRS</text></g><g ewd:lineID="41"><text style="&st18;" transform="matrix(&st16;  1897.5  312.54 )">1</text><text style="&st18;" transform="matrix(&st16;  1897.54  323.87 )">REC</text></g><g ewd:figtype="title"><text style="&st18;" transform="matrix(&st17;  1842.76  353.13 )" ewd:textID="17">No. 1 Blower Damper <tspan x="0 " dy="6.0">Servo Sub-Assembly</tspan></text><text style="&st18;" transform="matrix(&st17;  1835.66  353.13 )">E44</text></g></g><g ewd:figtype="conn" ewd:figID="15" ewd:code="E45"><path style="stroke-width: 0.85 ;&st7;  " d=" M  1817.57,   203.80  L  1824.93,   199.56  " /><path style="stroke-width: 0.85 ;&st7;  " d=" M  1822.93,   196.09  L  1815.57,   200.34  " /><path style="stroke-width: 0.85 ;&st7;  " d=" M  1805.95,   197.25  L  1814.45,   197.25  " /><path style="stroke-width: 0.85 ;&st7;   " d=" M  1726.63,   120.77  C  1726.63    119.98   1725.99    119.35   1725.21    119.35  " /><path style="stroke-width: 0.85 ;&st7;   " d=" M  1725.21,   119.35  C  1724.43    119.35   1723.80    119.98   1723.80    120.77  " /><path style="stroke-width: 0.85 ;&st7;   " d=" M  1723.80,   120.77  C  1723.80    121.55   1724.43    122.18   1725.21    122.18  " /><path style="stroke-width: 0.85 ;&st7;   " d=" M  1725.21,   122.18  C  1725.99    122.18   1726.63    121.55   1726.63    120.77  " /><path style="stroke-width: 0.85 ;&st7;   " d=" M  1905.10,   103.77  C  1905.10    102.99   1904.46    102.35   1903.68    102.35  " /><path style="stroke-width: 0.85 ;&st7;   " d=" M  1903.68,   102.35  C  1902.90    102.35   1902.27    102.99   1902.27    103.77  " /><path style="stroke-width: 0.85 ;&st7;   " d=" M  1902.27,   103.77  C  1902.27    104.55   1902.90    105.18   1903.68    105.18  " /><path style="stroke-width: 0.85 ;&st7;   " d=" M  1903.68,   105.18  C  1904.46    105.18   1905.10    104.55   1905.10    103.77  " /><path style="stroke-width: 0.85 ;&st7;   " d=" M  1922.10,   103.77  C  1922.10    102.99   1921.46    102.35   1920.68    102.35  " /><path style="stroke-width: 0.85 ;&st7;   " d=" M  1920.68,   102.35  C  1919.90    102.35   1919.26    102.99   1919.26    103.77  " /><path style="stroke-width: 0.85 ;&st7;   " d=" M  1919.26,   103.77  C  1919.26    104.55   1919.90    105.18   1920.68    105.18  " /><path style="stroke-width: 0.85 ;&st7;   " d=" M  1920.68,   105.18  C  1921.46    105.18   1922.10    104.55   1922.10    103.77  " /><path style="stroke-width: 0.85 ;&st7;   " d=" M  1922.10,    86.77  C  1922.10     85.99   1921.46     85.35   1920.68     85.35  " /><path style="stroke-width: 0.85 ;&st7;   " d=" M  1920.68,    85.35  C  1919.90     85.35   1919.26     85.99   1919.26     86.77  " /><path style="stroke-width: 0.85 ;&st7;   " d=" M  1919.26,    86.77  C  1919.26     87.55   1919.90     88.19   1920.68     88.19  " /><path style="stroke-width: 0.85 ;&st7;   " d=" M  1920.68,    88.19  C  1921.46     88.19   1922.10     87.55   1922.10     86.77  " /><path style="stroke-width: 0.85 ;&st7;   " d=" M  1888.10,    86.77  C  1888.10     85.99   1887.47     85.35   1886.68     85.35  " /><path style="stroke-width: 0.85 ;&st7;   " d=" M  1886.68,    85.35  C  1885.90     85.35   1885.27     85.99   1885.27     86.77  " /><path style="stroke-width: 0.85 ;&st7;   " d=" M  1885.27,    86.77  C  1885.27     87.55   1885.90     88.19   1886.68     88.19  " /><path style="stroke-width: 0.85 ;&st7;   " d=" M  1886.68,    88.19  C  1887.47     88.19   1888.10     87.55   1888.10     86.77  " /><path style="stroke-width: 0.85 ;&st7;  " d=" M  1767.70,   222.75  L  1767.70,   171.76  L  1742.21,   171.76  L  1742.21,   146.26  " /><path style="stroke-width: 0.85 ;&st7;  " d=" M  1750.71,   112.27  L  1657.22,   112.27  " /><path style="stroke-width: 0.85 ;&st7;  " d=" M  1750.71,   129.26  L  1657.22,   129.26  " /><path style="stroke-width: 0.85 ;&st7;  " d=" M  1726.63,   137.76  L  1740.79,   137.76  " /><path style="stroke-width: 0.85 ;&st7;  " d=" M  1733.71,    61.28  L  1733.71,   146.26  " /><path style="stroke-width: 0.85 ;&st7;  " d=" M  1716.71,    61.28  L  1716.71,   146.26  " /><path style="stroke-width: 1.42 ;&st7;  " d=" M  1657.22,    61.28  L  1657.22,   146.26  L  1750.71,   146.26  L  1750.71,    61.28  L  1657.22,    61.28  " /><path style="stroke-width: 0.85 ;&st7;  " d=" M  1657.22,    95.27  L  1750.71,    95.27  " /><path style="stroke-width: 0.85 ;&st7;  " d=" M  1726.63,   120.77  L  1740.79,   120.77  " /><path style="stroke-width: 0.85 ;&st7;  " d=" M  1657.22,    78.27  L  1750.71,    78.27  " /><path style="stroke-width: 0.85 ;&st7;  " d=" M  1725.21,   222.75  L  1725.21,   146.26  " /><path style="stroke-width: 1.42 ;&st7;  " d=" M  1844.19,   129.26  L  1844.19,   154.76  L  1912.18,   154.76  L  1912.18,   129.26  L  1844.19,   129.26  " /><path style="stroke-width: 0.85 ;&st7;  " d=" M  1905.10,   103.77  L  1919.26,   103.77  " /><path style="stroke-width: 0.85 ;&st7;  " d=" M  1886.68,   154.76  L  1886.68,   180.26  L  1869.69,   180.26  L  1869.69,   222.75  " /><path style="stroke-width: 0.85 ;&st7;  " d=" M  1888.10,    86.77  L  1919.26,    86.77  " /><path style="stroke-width: 1.42 ;&st7;  " d=" M  1648.72,    44.28  L  1648.72,   222.75  L  1971.67,   222.75  L  1971.67,    44.28  L  1648.72,    44.28  " /><path style="stroke-width: 0.85 ;&st7;  " d=" M  1810.20,   222.75  L  1810.20,   171.76  L  1852.69,   171.76  L  1852.69,   154.76  " /><path style="stroke-width: 0.85 ;&st7;  " d=" M  1920.68,   112.27  L  1920.68,   180.26  L  1946.17,   180.26  L  1946.17,   222.75  " /><path style="stroke-width: 0.85 ;&st7;  " d=" M  1903.68,   154.76  L  1903.68,   222.75  " /><path style="stroke-width: 0.85 ;&st7;  " d=" M  1903.68,   112.27  L  1903.68,   129.26  " /><path style="stroke-width: 0.85 ;&st7;  " d=" M  1886.68,   112.27  L  1886.68,   129.26  " /><path style="stroke-width: 0.85 ;&st7;  " d=" M  1824.93,   199.56  L  1822.60,   202.60  L  1821.13,   200.06  L  1824.93,   199.56  L  1823.65,   200.30  L  1822.67,   201.58  L  1822.05,   200.51  L  1823.65,   200.30  L  1823.01,   200.67  L  1822.70,   201.07  L  1822.50,   200.73  L  1823.01,   200.67  " /><path style="stroke-width: 0.85 ;&st7;  " d=" M  1822.93,   196.09  L  1820.60,   199.13  L  1819.13,   196.59  L  1822.93,   196.09  L  1821.65,   196.83  L  1820.66,   198.11  L  1820.04,   197.04  L  1821.65,   196.83  L  1821.01,   197.20  L  1820.70,   197.60  L  1820.50,   197.26  L  1821.01,   197.20  " /><path style="stroke-width: 0.28 ;&st9;  " d=" M  1810.20,   197.25  L  1815.86,   205.75  L  1804.53,   205.75  L  1810.20,   197.25  " /><path style="stroke-width: 1.42 ;&st7;  " d=" M  1929.18,    61.28  L  1929.18,   112.27  " /><path style="stroke-width: 0.85 ;&st7;  " d=" M  1912.18,    61.28  L  1912.18,   112.27  " /><path style="stroke-width: 0.85 ;&st7;  " d=" M  1895.18,    61.28  L  1895.18,   112.27  " /><path style="stroke-width: 0.85 ;&st7;  " d=" M  1878.19,    61.28  L  1878.19,   112.27  " /><path style="stroke-width: 1.42 ;&st7;  " d=" M  1844.19,   112.27  L  1929.18,   112.27  " /><path style="stroke-width: 0.85 ;&st7;  " d=" M  1844.19,    95.27  L  1929.18,    95.27  " /><path style="stroke-width: 1.42 ;&st7;  " d=" M  1844.19,   112.27  L  1844.19,    61.28  L  1929.18,    61.28  " /><path style="stroke-width: 0.85 ;&st7;  " d=" M  1844.19,    78.27  L  1929.18,    78.27  " /><path style="stroke-width: 0.85 ;&st7;   " d=" M  1726.63,   137.76  C  1726.63    136.98   1725.99    136.35   1725.21    136.35  " /><path style="stroke-width: 0.85 ;&st7;   " d=" M  1725.21,   136.35  C  1724.43    136.35   1723.80    136.98   1723.80    137.76  " /><path style="stroke-width: 0.85 ;&st7;   " d=" M  1723.80,   137.76  C  1723.80    138.54   1724.43    139.18   1725.21    139.18  " /><path style="stroke-width: 0.85 ;&st7;   " d=" M  1725.21,   139.18  C  1725.99    139.18   1726.63    138.54   1726.63    137.76  " /><path style="stroke-width: 0.85 ;&st7;   " d=" M  1743.63,   137.76  C  1743.63    136.98   1742.99    136.35   1742.21    136.35  " /><path style="stroke-width: 0.85 ;&st7;   " d=" M  1742.21,   136.35  C  1741.43    136.35   1740.79    136.98   1740.79    137.76  " /><path style="stroke-width: 0.85 ;&st7;   " d=" M  1740.79,   137.76  C  1740.79    138.54   1741.43    139.18   1742.21    139.18  " /><path style="stroke-width: 0.85 ;&st7;   " d=" M  1742.21,   139.18  C  1742.99    139.18   1743.63    138.54   1743.63    137.76  " /><path style="stroke-width: 0.85 ;&st7;   " d=" M  1743.63,   120.77  C  1743.63    119.98   1742.99    119.35   1742.21    119.35  " /><path style="stroke-width: 0.85 ;&st7;   " d=" M  1742.21,   119.35  C  1741.43    119.35   1740.79    119.98   1740.79    120.77  " /><path style="stroke-width: 0.85 ;&st7;   " d=" M  1740.79,   120.77  C  1740.79    121.55   1741.43    122.18   1742.21    122.18  " /><path style="stroke-width: 0.85 ;&st7;   " d=" M  1742.21,   122.18  C  1742.99    122.18   1743.63    121.55   1743.63    120.77  " /><text style="&st18;" transform="matrix(&st16;  1727.79  219.06 )">ACID</text><text style="&st18;" transform="matrix(&st16;  1674.7  119.91 )" ewd:textID="12">Face/ <tspan x="0 " dy="6.0">Defroster</tspan></text><text style="&st18;" transform="matrix(&st16;  1736.41  71.74 )">F/D</text><text style="&st18;" transform="matrix(&st16;  1717.71  71.74 )">ACID</text><text style="&st18;" transform="matrix(&st16;  1770.29  219.06 )">F/D</text><text style="&st18;" transform="matrix(&st16;  1679.0  102.91 )" ewd:textID="13">Face/ <tspan x="0 " dy="6.0">Foot</tspan></text><text style="&st18;" transform="matrix(&st16;  1680.55  88.74 )" ewd:textID="11">Face</text><text style="&st18;" transform="matrix(&st16;  1674.7  139.73 )" ewd:textID="9">Defroster</text><text style="&st18;" transform="matrix(&st16;  1812.78  219.06 )">A/C+</text><text style="&st18;" transform="matrix(&st16;  1872.27  219.06 )">FRS</text><text style="&st18;" transform="matrix(&st16;  1906.27  219.06 )">LED+</text><text style="&st18;" transform="matrix(&st16;  1948.76  219.06 )">REC</text><text style="&st18;" transform="matrix(&st16;  1914.54  71.74 )">REC</text><text style="&st18;" transform="matrix(&st16;  1896.07  71.74 )">LED+</text><text style="&st18;" transform="matrix(&st16;  1881.16  71.74 )">FRS</text><text style="&st18;" transform="matrix(&st16;  1854.62  105.74 )" ewd:textID="16">Lock</text><text style="&st18;" transform="matrix(&st16;  1855.01  88.74 )" ewd:textID="14">Free</text><text style="&st18;" transform="matrix(&st16;  1761.52  230.94 )">1</text><text style="&st18;" transform="matrix(&st16;  1804.01  230.94 )">2</text><text style="&st18;" transform="matrix(&st16;  1719.03  230.94 )">8</text><text style="&st18;" transform="matrix(&st16;  1863.5  230.94 )">3</text><text style="&st18;" transform="matrix(&st16;  1897.5  230.94 )">5</text><text style="&st18;" transform="matrix(&st16;  1939.99  230.94 )">4</text><g ewd:figtype="title"><text style="&st18;" transform="matrix(&st16;  1645.32  40.58 )" ewd:textID="20">No. 1 Heater Control Sub-Assembly</text><text style="&st18;" transform="matrix(&st16;  1645.31  33.47 )">E45</text></g></g><g ewd:figtype="gp" ewd:figID="33" ewd:code="ED"><path style="stroke-width: 0.85 ;&st7;  " d=" M  1946.17,   697.25  L  1946.17,   701.50  " /><path style="stroke-width: 0.85 ;&st7;  " d=" M  1937.68,   701.50  L  1954.67,   701.50  " /><path style="stroke-width: 0.85 ;&st7;  " d=" M  1941.92,   704.33  L  1950.42,   704.33  " /><path style="stroke-width: 0.85 ;&st7;  " d=" M  1943.34,   707.17  L  1949.01,   707.17  " /><path style="stroke-width: 0.85 ;&st7;  " d=" M  1944.76,   710.00  L  1947.59,   710.00  " /></g></svg>