﻿<?xml version="1.0" encoding="utf-8"?>
<!DOCTYPE svg PUBLIC "-//W3C//DTD SVG 1.0//EN" "http://www.w3.org/TR/2001/REC-SVG-20010904/DTD/svg10.dtd"[
	<!ENTITY ns_flows "http://ns.adobe.com/Flows/1.0/">
	<!ENTITY ns_svg "http://www.w3.org/2000/svg">
	<!ENTITY ns_xlink "http://www.w3.org/1999/xlink">
	<!ENTITY st0 "font-size:7px;font-family:'MS-PGothic';adobe-font-script:japanese;">
	<!ENTITY st1 "font-size:6px;font-family:'ArialMT';">
	<!-- White fill  -->
	<!ENTITY st2 "fill:#FFFFFF;stroke:#000000; stroke-width:1.41;stroke-linecap:round;stroke-linejoin:round;">
	<!-- Yellow fill  -->
	<!ENTITY st3 "fill:#FFFFCC;stroke:#FFFFCC; stroke-width:0.1;stroke-linecap:round;stroke-linejoin:round;">
	<!-- Gray fill  -->
	<!ENTITY st4 "fill:#CCCCCC;stroke:#CCCCCC; stroke-width:0.1;stroke-linecap:round;stroke-linejoin:round;">
	<!-- Light-blue fill -->
	<!ENTITY st5 "fill:#CCECF4;stroke:#000000; stroke-width:1.133;stroke-linecap:round;stroke-linejoin:round;">
	<!ENTITY st6 "fill:none;stroke-linecap:butt; stroke-linejoin:round;">
	<!ENTITY st7 "fill:none;stroke:#000000;stroke-linecap:round;stroke-linejoin:round;">
	<!ENTITY st8 "enable-background:new    ;">
	<!-- Black fill -->
	<!ENTITY st9 "fill:#000000;stroke:#000000; stroke-linecap:round;stroke-linejoin:round;">
	<!-- SRS note   -->
	<!ENTITY st10 "font-size:9px;font-family:'ArialMT';">
	<!ENTITY st11 "font-size:9px;font-family:'Svg Symbol';">
	<!ENTITY st12 "font-size:6px;font-family:'Svg Symbol';">
	<!ENTITY st13 "fill:none;stroke:#ff0000;stroke-linecap:round;stroke-linejoin:round;">
	<!-- Yellow fill  -->
	<!ENTITY st14 "fill:#FFFF00;stroke:#FFFF00; stroke-width:0.1;stroke-linecap:round;stroke-linejoin:round;">
	<!ENTITY st15 "font-size:6px;font-family:'MS-PGothic';adobe-font-script:japanese;">
	<!ENTITY st16 "1.00 0.00 0.00 1.00">
	<!ENTITY st17 "0.00 -1.00 1.00 0.00">
	<!ENTITY st18 "font-size:6px;font-family:'Arial';">
	<!ENTITY st19 "font-size:9px;font-family:'Arial';">
	<!ENTITY st20 "font-size:6px;font-family:'MS-PGothic','MS PGothic';adobe-font-script:japanese;">
	<!ENTITY st21 "font-size:7px;font-family:'MS-PGothic','MS PGothic';adobe-font-script:japanese;">
	<!ATTLIST svg
		xmlns:ewd CDATA #FIXED "http://shcl.co.jp/ewd"
		xmlns:a CDATA #FIXED "http://ns.adobe.com/AdobeSVGViewerExtensions/3.0/"
		ewd:ver CDATA #IMPLIED
	>
	<!ATTLIST a
		ewd:lineID CDATA #IMPLIED
		ewd:groupID CDATA #IMPLIED
		ewd:figtype CDATA #IMPLIED
		ewd:code CDATA #IMPLIED
		ewd:figID CDATA #IMPLIED
		ewd:pinNo CDATA #IMPLIED
		ewd:comment CDATA #IMPLIED >
	<!ATTLIST g
		ewd:lineID CDATA #IMPLIED
		ewd:groupID CDATA #IMPLIED
		ewd:figtype CDATA #IMPLIED
		ewd:code CDATA #IMPLIED
		ewd:figID CDATA #IMPLIED
		ewd:pinNo CDATA #IMPLIED
		ewd:comment CDATA #IMPLIED >
	<!ATTLIST text
		ewd:textID CDATA #IMPLIED >
	<!ATTLIST title
		ewd:textID CDATA #IMPLIED >
]>
<!-- Generator: Shintec Hozumi YS   -->
<svg onload="call_execInitLoadProc_svg('system')" style="overflow:visible;  enable-background:new 0 0 3088.357 710.000" viewBox="0 0 3088.357 710.000" height="710.000" width="3088.357" xml:space="preserve" ewd:ver="2.1.2.9" xmlns="&ns_svg;" xmlns:a="http://ns.adobe.com/AdobeSVGViewerExtensions/3.0/" xmlns:ewd="http://shcl.co.jp/ewd" xmlns:xlink="&ns_xlink;">
<path style="stroke-width: 1.42 ;&st7;  " d=" M  2167.14,   154.76  L  2175.64,   154.76  " /><path style="stroke-width: 1.42 ;&st7;  " d=" M  2252.12,   435.21  L  2243.63,   435.21  " /><text style="&st18;" transform="matrix(&st17;  2171.94  396.54 )">GR</text><text style="&st18;" transform="matrix(&st17;  2171.94  320.05 )">GR</text><text style="&st18;" transform="matrix(&st17;  2239.93  322.19 )">W-B</text><text style="&st18;" transform="matrix(&st17;  2239.93  398.67 )">W-B</text><text style="&st18;" transform="matrix(&st17;  2239.93  560.15 )">W-B</text><text style="&st18;" transform="matrix(&st16;  2279.66  355.03 )">W-B</text><text style="&st18;" transform="matrix(&st16;  2094.83  652.48 )">GR</text><text style="&st18;" transform="matrix(&st16;  2043.84  652.48 )">GR</text><text style="&st18;" transform="matrix(&st17;  2171.94  192.58 )">GR</text><text style="&st18;" transform="matrix(&st17;  2171.94  124.59 )">GR</text><path style="stroke-width: 1.42 ;&st7;  " d=" M  2184.14,   358.73  L  2175.64,   358.73  " /><text style="&st18;" transform="matrix(&st16;  2097.15  635.48 )">P</text><text style="&st18;" transform="matrix(&st16;  2094.83  584.49 )">GR</text><text style="&st18;" transform="matrix(&st16;  2046.16  635.48 )">P</text><text style="&st18;" transform="matrix(&st16;  2043.84  584.49 )">GR</text><path style="stroke-width: 1.42 ;&st7;  " d=" M  2252.12,   355.20  L  2247.15,   350.23  " /><path style="stroke-width: 1.42 ;&st7;  " d=" M  2235.13,   362.26  L  2240.10,   367.22  " /><path style="stroke-width: 1.42 ;&st7;  " d=" M  2247.15,   367.22  L  2252.12,   362.26  " /><path style="stroke-width: 1.42 ;&st7;  " d=" M  2240.10,   350.23  L  2235.13,   355.20  " /><text style="&st18;" transform="matrix(&st17;  2418.4  317.92 )">B</text><text style="&st18;" transform="matrix(&st17;  2469.39  317.73 )">P</text><text style="&st18;" transform="matrix(&st17;  2384.41  318.7 )">W</text><text style="&st18;" transform="matrix(&st17;  2350.41  320.02 )">LG</text><g ewd:figtype="conn" ewd:figID="2" ewd:code="G12"><path style="stroke-width: 0.85 ;&st7; stroke-dasharray:3, 1.5;" d=" M  2184.13,   295.84  L  2230.88,   295.84  " /><path style="stroke-width: 0.85 ;&st7; stroke-dasharray:3, 1.5;" d=" M  2184.13,   286.77  L  2230.88,   286.77  " /><path style="stroke-width: 0.85 ;&st7; stroke-dasharray:3, 1.5;" d=" M  2252.12,   295.84  L  2341.36,   295.84  " /><path style="stroke-width: 0.85 ;&st7; stroke-dasharray:3, 1.5;" d=" M  2252.12,   286.77  L  2341.36,   286.77  " /><path style="stroke-width: 0.85 ;&st7; stroke-dasharray:3, 1.5;" d=" M  2362.60,   295.84  L  2375.35,   295.84  " /><path style="stroke-width: 0.85 ;&st7; stroke-dasharray:3, 1.5;" d=" M  2362.60,   286.77  L  2375.35,   286.77  " /><path style="stroke-width: 0.85 ;&st7; stroke-dasharray:3, 1.5;" d=" M  2396.60,   295.84  L  2405.10,   295.84  " /><path style="stroke-width: 0.85 ;&st7; stroke-dasharray:3, 1.5;" d=" M  2396.60,   286.77  L  2405.10,   286.77  " /><path style="stroke-width: 0.85 ;&st7; stroke-dasharray:3, 1.5;" d=" M  2430.59,   295.84  L  2460.34,   295.84  " /><path style="stroke-width: 0.85 ;&st7; stroke-dasharray:3, 1.5;" d=" M  2430.59,   286.77  L  2460.34,   286.77  " /><path style="stroke-width: 1.42 ;&st7;  " d=" M  2158.64,   231.25  L  2158.64,   282.24  L  2490.08,   282.24  L  2490.08,   231.25  L  2158.64,   231.25  " /><g ewd:lineID="45"><text style="&st18;" transform="matrix(&st16;  2166.94  297.81 )">9</text><text style="&st18;" transform="matrix(&st16;  2166.94  288.74 )">9</text><text style="&st18;" transform="matrix(&st16;  2173.45  297.81 )">B</text><path style="stroke-width: 1.42 ;&st7;   " d=" M  2180.17,   286.77  C  2180.17    284.27   2178.14    282.24   2175.64    282.24  " /><path style="stroke-width: 1.42 ;&st7;   " d=" M  2175.64,   282.24  C  2173.13    282.24   2171.10    284.27   2171.10    286.77  " /><path style="stroke-width: 1.42 ;&st7;   " d=" M  2171.10,   286.77  C  2171.10    289.27   2173.13    291.30   2175.64    291.30  " /><path style="stroke-width: 1.42 ;&st7;   " d=" M  2175.64,   291.30  C  2178.14    291.30   2180.17    289.27   2180.17    286.77  " /><path style="stroke-width: 1.42 ;&st7;   " d=" M  2180.17,   295.84  C  2180.17    293.33   2178.14    291.30   2175.64    291.30  " /><path style="stroke-width: 1.42 ;&st7;   " d=" M  2175.64,   291.30  C  2173.13    291.30   2171.10    293.33   2171.10    295.84  " /><path style="stroke-width: 1.42 ;&st7;   " d=" M  2171.10,   295.84  C  2171.10    298.34   2173.13    300.37   2175.64    300.37  " /><path style="stroke-width: 1.42 ;&st7;   " d=" M  2175.64,   300.37  C  2178.14    300.37   2180.17    298.34   2180.17    295.84  " /><text style="&st18;" transform="matrix(&st16;  2173.33  288.74 )">A</text><text style="&st18;" transform="matrix(&st16;  2170.62  278.54 )">LIN</text></g><g ewd:comment="2,1" ewd:lineID="46"><text style="&st18;" transform="matrix(&st16;  2166.94  228.68 )">2</text><text style="&st18;" transform="matrix(&st16;  2166.94  219.62 )">2</text><path style="stroke-width: 1.42 ;&st7;   " d=" M  2180.17,   226.71  C  2180.17    224.21   2178.14    222.18   2175.64    222.18  " /><path style="stroke-width: 1.42 ;&st7;   " d=" M  2175.64,   222.18  C  2173.13    222.18   2171.10    224.21   2171.10    226.71  " /><path style="stroke-width: 1.42 ;&st7;   " d=" M  2171.10,   226.71  C  2171.10    229.22   2173.13    231.25   2175.64    231.25  " /><path style="stroke-width: 1.42 ;&st7;   " d=" M  2175.64,   231.25  C  2178.14    231.25   2180.17    229.22   2180.17    226.71  " /><path style="stroke-width: 1.42 ;&st7;   " d=" M  2180.17,   217.65  C  2180.17    215.15   2178.14    213.12   2175.64    213.12  " /><path style="stroke-width: 1.42 ;&st7;   " d=" M  2175.64,   213.12  C  2173.13    213.12   2171.10    215.15   2171.10    217.65  " /><path style="stroke-width: 1.42 ;&st7;   " d=" M  2171.10,   217.65  C  2171.10    220.15   2173.13    222.18   2175.64    222.18  " /><path style="stroke-width: 1.42 ;&st7;   " d=" M  2175.64,   222.18  C  2178.14    222.18   2180.17    220.15   2180.17    217.65  " /><text style="&st18;" transform="matrix(&st16;  2173.33  219.62 )">A</text><text style="&st18;" transform="matrix(&st16;  2173.45  228.68 )">B</text><text style="&st18;" transform="matrix(&st16;  2173.45  238.88 )">B</text><g ewd:code="" ewd:figID="70" ewd:comment="2" ewd:figtype="commref"><text style="&st18;" transform="matrix(&st16;  2180.73  228.68 )">(*2)</text></g><g ewd:code="" ewd:figID="71" ewd:comment="1" ewd:figtype="commref"><text style="&st18;" transform="matrix(&st16;  2180.73  219.62 )">(*1)</text></g></g><g ewd:lineID="50"><text style="&st18;" transform="matrix(&st16;  2234.93  297.81 )">1</text><text style="&st18;" transform="matrix(&st16;  2234.93  288.74 )">1</text><text style="&st18;" transform="matrix(&st16;  2241.44  297.81 )">B</text><path style="stroke-width: 1.42 ;&st7;   " d=" M  2248.16,   295.84  C  2248.16    293.33   2246.13    291.30   2243.63    291.30  " /><path style="stroke-width: 1.42 ;&st7;   " d=" M  2243.63,   291.30  C  2241.12    291.30   2239.09    293.33   2239.09    295.84  " /><path style="stroke-width: 1.42 ;&st7;   " d=" M  2239.09,   295.84  C  2239.09    298.34   2241.12    300.37   2243.63    300.37  " /><path style="stroke-width: 1.42 ;&st7;   " d=" M  2243.63,   300.37  C  2246.13    300.37   2248.16    298.34   2248.16    295.84  " /><path style="stroke-width: 1.42 ;&st7;   " d=" M  2248.16,   286.77  C  2248.16    284.27   2246.13    282.24   2243.63    282.24  " /><path style="stroke-width: 1.42 ;&st7;   " d=" M  2243.63,   282.24  C  2241.12    282.24   2239.09    284.27   2239.09    286.77  " /><path style="stroke-width: 1.42 ;&st7;   " d=" M  2239.09,   286.77  C  2239.09    289.27   2241.12    291.30   2243.63    291.30  " /><path style="stroke-width: 1.42 ;&st7;   " d=" M  2243.63,   291.30  C  2246.13    291.30   2248.16    289.27   2248.16    286.77  " /><text style="&st18;" transform="matrix(&st16;  2241.32  288.74 )">A</text><text style="&st18;" transform="matrix(&st16;  2236.98  278.54 )">GND</text></g><g ewd:lineID="52"><text style="&st18;" transform="matrix(&st16;  2345.41  288.74 )">4</text><text style="&st18;" transform="matrix(&st16;  2345.41  297.81 )">5</text><text style="&st18;" transform="matrix(&st16;  2351.8  288.74 )">A</text><path style="stroke-width: 1.42 ;&st7;   " d=" M  2358.64,   295.84  C  2358.64    293.33   2356.61    291.30   2354.11    291.30  " /><path style="stroke-width: 1.42 ;&st7;   " d=" M  2354.11,   291.30  C  2351.60    291.30   2349.57    293.33   2349.57    295.84  " /><path style="stroke-width: 1.42 ;&st7;   " d=" M  2349.57,   295.84  C  2349.57    298.34   2351.60    300.37   2354.11    300.37  " /><path style="stroke-width: 1.42 ;&st7;   " d=" M  2354.11,   300.37  C  2356.61    300.37   2358.64    298.34   2358.64    295.84  " /><path style="stroke-width: 1.42 ;&st7;   " d=" M  2358.64,   286.77  C  2358.64    284.27   2356.61    282.24   2354.11    282.24  " /><path style="stroke-width: 1.42 ;&st7;   " d=" M  2354.11,   282.24  C  2351.60    282.24   2349.57    284.27   2349.57    286.77  " /><path style="stroke-width: 1.42 ;&st7;   " d=" M  2349.57,   286.77  C  2349.57    289.27   2351.60    291.30   2354.11    291.30  " /><path style="stroke-width: 1.42 ;&st7;   " d=" M  2354.11,   291.30  C  2356.61    291.30   2358.64    289.27   2358.64    286.77  " /><text style="&st18;" transform="matrix(&st16;  2351.92  297.81 )">B</text><text style="&st18;" transform="matrix(&st16;  2348.04  278.54 )">LED</text></g><g ewd:lineID="53"><text style="&st18;" transform="matrix(&st16;  2379.41  288.74 )">5</text><text style="&st18;" transform="matrix(&st16;  2379.41  297.81 )">4</text><path style="stroke-width: 1.42 ;&st7;   " d=" M  2392.63,   295.84  C  2392.63    293.33   2390.60    291.30   2388.10    291.30  " /><path style="stroke-width: 1.42 ;&st7;   " d=" M  2388.10,   291.30  C  2385.60    291.30   2383.57    293.33   2383.57    295.84  " /><path style="stroke-width: 1.42 ;&st7;   " d=" M  2383.57,   295.84  C  2383.57    298.34   2385.60    300.37   2388.10    300.37  " /><path style="stroke-width: 1.42 ;&st7;   " d=" M  2388.10,   300.37  C  2390.60    300.37   2392.63    298.34   2392.63    295.84  " /><text style="&st18;" transform="matrix(&st16;  2385.8  288.74 )">A</text><text style="&st18;" transform="matrix(&st16;  2385.91  297.81 )">B</text><path style="stroke-width: 1.42 ;&st7;   " d=" M  2392.63,   286.77  C  2392.63    284.27   2390.60    282.24   2388.10    282.24  " /><path style="stroke-width: 1.42 ;&st7;   " d=" M  2388.10,   282.24  C  2385.60    282.24   2383.57    284.27   2383.57    286.77  " /><path style="stroke-width: 1.42 ;&st7;   " d=" M  2383.57,   286.77  C  2383.57    289.27   2385.60    291.30   2388.10    291.30  " /><path style="stroke-width: 1.42 ;&st7;   " d=" M  2388.10,   291.30  C  2390.60    291.30   2392.63    289.27   2392.63    286.77  " /><text style="&st18;" transform="matrix(&st16;  2379.36  278.54 )">AUTO</text></g><g ewd:lineID="54"><text style="&st18;" transform="matrix(&st16;  2410.3  297.81 )">10</text><text style="&st18;" transform="matrix(&st16;  2410.3  288.74 )">10</text><path style="stroke-width: 1.42 ;&st7;   " d=" M  2426.63,   286.77  C  2426.63    284.27   2424.60    282.24   2422.10    282.24  " /><path style="stroke-width: 1.42 ;&st7;   " d=" M  2422.10,   282.24  C  2419.59    282.24   2417.56    284.27   2417.56    286.77  " /><path style="stroke-width: 1.42 ;&st7;   " d=" M  2417.56,   286.77  C  2417.56    289.27   2419.59    291.30   2422.10    291.30  " /><path style="stroke-width: 1.42 ;&st7;   " d=" M  2422.10,   291.30  C  2424.60    291.30   2426.63    289.27   2426.63    286.77  " /><text style="&st18;" transform="matrix(&st16;  2419.91  297.81 )">B</text><path style="stroke-width: 1.42 ;&st7;   " d=" M  2426.63,   295.84  C  2426.63    293.33   2424.60    291.30   2422.10    291.30  " /><path style="stroke-width: 1.42 ;&st7;   " d=" M  2422.10,   291.30  C  2419.59    291.30   2417.56    293.33   2417.56    295.84  " /><path style="stroke-width: 1.42 ;&st7;   " d=" M  2417.56,   295.84  C  2417.56    298.34   2419.59    300.37   2422.10    300.37  " /><path style="stroke-width: 1.42 ;&st7;   " d=" M  2422.10,   300.37  C  2424.60    300.37   2426.63    298.34   2426.63    295.84  " /><text style="&st18;" transform="matrix(&st16;  2419.79  288.74 )">A</text><text style="&st18;" transform="matrix(&st16;  2417.97  278.54 )">UP</text></g><g ewd:lineID="55"><text style="&st18;" transform="matrix(&st16;  2464.39  288.74 )">7</text><text style="&st18;" transform="matrix(&st16;  2464.39  297.81 )">7</text><path style="stroke-width: 1.42 ;&st7;   " d=" M  2477.62,   286.77  C  2477.62    284.27   2475.59    282.24   2473.09    282.24  " /><path style="stroke-width: 1.42 ;&st7;   " d=" M  2473.09,   282.24  C  2470.58    282.24   2468.55    284.27   2468.55    286.77  " /><path style="stroke-width: 1.42 ;&st7;   " d=" M  2468.55,   286.77  C  2468.55    289.27   2470.58    291.30   2473.09    291.30  " /><path style="stroke-width: 1.42 ;&st7;   " d=" M  2473.09,   291.30  C  2475.59    291.30   2477.62    289.27   2477.62    286.77  " /><path style="stroke-width: 1.42 ;&st7;   " d=" M  2477.62,   295.84  C  2477.62    293.33   2475.59    291.30   2473.09    291.30  " /><path style="stroke-width: 1.42 ;&st7;   " d=" M  2473.09,   291.30  C  2470.58    291.30   2468.55    293.33   2468.55    295.84  " /><path style="stroke-width: 1.42 ;&st7;   " d=" M  2468.55,   295.84  C  2468.55    298.34   2470.58    300.37   2473.09    300.37  " /><path style="stroke-width: 1.42 ;&st7;   " d=" M  2473.09,   300.37  C  2475.59    300.37   2477.62    298.34   2477.62    295.84  " /><text style="&st18;" transform="matrix(&st16;  2470.78  288.74 )">A</text><text style="&st18;" transform="matrix(&st16;  2470.9  297.81 )">B</text><text style="&st18;" transform="matrix(&st16;  2463.57  278.54 )">DOWN</text></g><g ewd:figtype="title"><text style="&st18;" transform="matrix(&st16;  2282.71  220.73 )">G12(A),(B)</text><text style="&st18;" transform="matrix(&st16;  2282.71  227.55 )" ewd:textID="9">Front Power Window Regulator Motor Assembly RH</text></g></g><g ewd:figtype="conn" ewd:figID="6" ewd:code="G16"><path style="stroke-width: 0.28 ;&st9;  " d=" M  2354.11,   503.20  L  2348.44,   494.70  L  2359.77,   494.70  L  2354.11,   503.20  " /><path style="stroke-width: 0.85 ;&st7;  " d=" M  2354.11,   401.22  L  2354.11,   511.70  " /><path style="stroke-width: 1.42 ;&st7;  " d=" M  2303.11,   401.22  L  2303.11,   571.19  L  2515.58,   571.19  L  2515.58,   401.22  L  2303.11,   401.22  " /><path style="stroke-width: 0.85 ;&st7;   " d=" M  2474.50,   432.38  C  2474.50    431.60   2473.87    430.96   2473.09    430.96  " /><path style="stroke-width: 0.85 ;&st7;   " d=" M  2473.09,   430.96  C  2472.30    430.96   2471.67    431.60   2471.67    432.38  " /><path style="stroke-width: 0.85 ;&st7;   " d=" M  2471.67,   432.38  C  2471.67    433.16   2472.30    433.80   2473.09    433.80  " /><path style="stroke-width: 0.85 ;&st7;   " d=" M  2473.09,   433.80  C  2473.87    433.80   2474.50    433.16   2474.50    432.38  " /><path style="stroke-width: 0.85 ;&st7;   " d=" M  2474.50,   455.04  C  2474.50    454.26   2473.87    453.63   2473.09    453.63  " /><path style="stroke-width: 0.85 ;&st7;   " d=" M  2473.09,   453.63  C  2472.30    453.63   2471.67    454.26   2471.67    455.04  " /><path style="stroke-width: 0.85 ;&st7;   " d=" M  2471.67,   455.04  C  2471.67    455.82   2472.30    456.46   2473.09    456.46  " /><path style="stroke-width: 0.85 ;&st7;   " d=" M  2473.09,   456.46  C  2473.87    456.46   2474.50    455.82   2474.50    455.04  " /><path style="stroke-width: 0.85 ;&st7;   " d=" M  2423.51,   455.04  C  2423.51    454.26   2422.88    453.63   2422.10    453.63  " /><path style="stroke-width: 0.85 ;&st7;   " d=" M  2422.10,   453.63  C  2421.31    453.63   2420.68    454.26   2420.68    455.04  " /><path style="stroke-width: 0.85 ;&st7;   " d=" M  2420.68,   455.04  C  2420.68    455.82   2421.31    456.46   2422.10    456.46  " /><path style="stroke-width: 0.85 ;&st7;   " d=" M  2422.10,   456.46  C  2422.88    456.46   2423.51    455.82   2423.51    455.04  " /><path style="stroke-width: 1.42 ;&st7;  " d=" M  2388.10,   453.63  L  2382.44,   430.96  " /><path style="stroke-width: 1.42 ;&st7;  " d=" M  2447.59,   453.63  L  2449.29,   429.51  " /><path style="stroke-width: 1.42 ;&st7;  " d=" M  2498.58,   453.63  L  2500.28,   429.51  " /><path style="stroke-width: 1.42 ;&st7;  " d=" M  2473.09,   453.63  L  2467.42,   430.96  " /><path style="stroke-width: 0.85 ;&st7;   " d=" M  2500.00,   432.38  C  2500.00    431.60   2499.36    430.96   2498.58    430.96  " /><path style="stroke-width: 0.85 ;&st7;   " d=" M  2498.58,   430.96  C  2497.80    430.96   2497.17    431.60   2497.17    432.38  " /><path style="stroke-width: 0.85 ;&st7;   " d=" M  2497.17,   432.38  C  2497.17    433.16   2497.80    433.80   2498.58    433.80  " /><path style="stroke-width: 0.85 ;&st7;   " d=" M  2498.58,   433.80  C  2499.36    433.80   2500.00    433.16   2500.00    432.38  " /><path style="stroke-width: 0.85 ;&st7;   " d=" M  2500.00,   455.04  C  2500.00    454.26   2499.36    453.63   2498.58    453.63  " /><path style="stroke-width: 0.85 ;&st7;   " d=" M  2498.58,   453.63  C  2497.80    453.63   2497.17    454.26   2497.17    455.04  " /><path style="stroke-width: 0.85 ;&st7;   " d=" M  2497.17,   455.04  C  2497.17    455.82   2497.80    456.46   2498.58    456.46  " /><path style="stroke-width: 0.85 ;&st7;   " d=" M  2498.58,   456.46  C  2499.36    456.46   2500.00    455.82   2500.00    455.04  " /><path style="stroke-width: 0.85 ;&st7;   " d=" M  2423.51,   432.38  C  2423.51    431.60   2422.88    430.96   2422.10    430.96  " /><path style="stroke-width: 0.85 ;&st7;   " d=" M  2422.10,   430.96  C  2421.31    430.96   2420.68    431.60   2420.68    432.38  " /><path style="stroke-width: 0.85 ;&st7;   " d=" M  2420.68,   432.38  C  2420.68    433.16   2421.31    433.80   2422.10    433.80  " /><path style="stroke-width: 0.85 ;&st7;   " d=" M  2422.10,   433.80  C  2422.88    433.80   2423.51    433.16   2423.51    432.38  " /><path style="stroke-width: 0.85 ;&st7;   " d=" M  2389.52,   455.04  C  2389.52    454.26   2388.88    453.63   2388.10    453.63  " /><path style="stroke-width: 0.85 ;&st7;   " d=" M  2388.10,   453.63  C  2387.32    453.63   2386.68    454.26   2386.68    455.04  " /><path style="stroke-width: 0.85 ;&st7;   " d=" M  2386.68,   455.04  C  2386.68    455.82   2387.32    456.46   2388.10    456.46  " /><path style="stroke-width: 0.85 ;&st7;   " d=" M  2388.10,   456.46  C  2388.88    456.46   2389.52    455.82   2389.52    455.04  " /><path style="stroke-width: 0.85 ;&st7;   " d=" M  2389.52,   432.38  C  2389.52    431.60   2388.88    430.96   2388.10    430.96  " /><path style="stroke-width: 0.85 ;&st7;   " d=" M  2388.10,   430.96  C  2387.32    430.96   2386.68    431.60   2386.68    432.38  " /><path style="stroke-width: 0.85 ;&st7;   " d=" M  2386.68,   432.38  C  2386.68    433.16   2387.32    433.80   2388.10    433.80  " /><path style="stroke-width: 0.85 ;&st7;   " d=" M  2388.10,   433.80  C  2388.88    433.80   2389.52    433.16   2389.52    432.38  " /><path style="stroke-width: 0.85 ;&st7;   " d=" M  2449.01,   455.04  C  2449.01    454.26   2448.37    453.63   2447.59    453.63  " /><path style="stroke-width: 0.85 ;&st7;   " d=" M  2447.59,   453.63  C  2446.81    453.63   2446.17    454.26   2446.17    455.04  " /><path style="stroke-width: 0.85 ;&st7;   " d=" M  2446.17,   455.04  C  2446.17    455.82   2446.81    456.46   2447.59    456.46  " /><path style="stroke-width: 0.85 ;&st7;   " d=" M  2447.59,   456.46  C  2448.37    456.46   2449.01    455.82   2449.01    455.04  " /><path style="stroke-width: 0.85 ;&st7;   " d=" M  2449.01,   432.38  C  2449.01    431.60   2448.37    430.96   2447.59    430.96  " /><path style="stroke-width: 0.85 ;&st7;   " d=" M  2447.59,   430.96  C  2446.81    430.96   2446.17    431.60   2446.17    432.38  " /><path style="stroke-width: 0.85 ;&st7;   " d=" M  2446.17,   432.38  C  2446.17    433.16   2446.81    433.80   2447.59    433.80  " /><path style="stroke-width: 0.85 ;&st7;   " d=" M  2447.59,   433.80  C  2448.37    433.80   2449.01    433.16   2449.01    432.38  " /><path style="stroke-width: 0.85 ;&st7;  " d=" M  2371.10,   473.46  L  2371.10,   481.95  " /><path style="stroke-width: 1.42 ;&st7;  " d=" M  2422.10,   453.63  L  2416.43,   430.96  " /><path style="stroke-width: 0.85 ;&st7;  " d=" M  2361.48,   501.26  L  2368.84,   497.01  " /><path style="stroke-width: 0.85 ;&st7;  " d=" M  2366.84,   493.54  L  2359.48,   497.79  " /><path style="stroke-width: 0.85 ;&st7;  " d=" M  2358.36,   503.20  L  2349.86,   503.20  " /><path style="stroke-width: 0.85 ;&st7;  " d=" M  2320.11,   401.22  L  2320.11,   554.19  " /><path style="stroke-width: 0.85 ;&st7;  " d=" M  2368.84,   497.01  L  2366.51,   500.05  L  2365.04,   497.51  L  2368.84,   497.01  L  2367.56,   497.75  L  2366.58,   499.03  L  2365.96,   497.96  L  2367.56,   497.75  L  2366.92,   498.12  L  2366.61,   498.52  L  2366.41,   498.18  L  2366.92,   498.12  " /><path style="stroke-width: 0.85 ;&st7;  " d=" M  2366.84,   493.54  L  2364.51,   496.58  L  2363.04,   494.04  L  2366.84,   493.54  L  2365.56,   494.28  L  2364.57,   495.56  L  2363.95,   494.49  L  2365.56,   494.28  L  2364.92,   494.65  L  2364.60,   495.05  L  2364.41,   494.71  L  2364.92,   494.65  " /><path style="stroke-width: 0.85 ;&st7;  " d=" M  2420.90,   417.21  L  2420.63,   417.68  L  2420.54,   418.22  L  2420.63,   418.75  L  2420.90,   419.22  L  2421.32,   419.56  L  2421.82,   419.75  L  2422.37,   419.75  L  2422.87,   419.56  L  2423.29,   419.22  L  2423.56,   418.75  L  2423.65,   418.22  L  2423.56,   417.68  L  2423.29,   417.21  L  2422.87,   416.87  L  2422.37,   416.68  L  2421.82,   416.68  L  2421.32,   416.87  L  2420.90,   417.21  L  2421.30,   417.92  L  2421.30,   418.51  L  2421.67,   418.95  L  2422.24,   419.05  L  2422.75,   418.76  L  2422.94,   418.22  L  2422.75,   417.67  L  2422.24,   417.38  L  2421.67,   417.48  L  2422.09,   418.22  " /><path style="stroke-width: 0.85 ;&st7;  " d=" M  2473.09,   401.22  L  2473.09,   430.96  " /><path style="stroke-width: 0.85 ;&st7;  " d=" M  2471.89,   417.21  L  2471.62,   417.68  L  2471.53,   418.22  L  2471.62,   418.75  L  2471.89,   419.22  L  2472.31,   419.56  L  2472.81,   419.75  L  2473.36,   419.75  L  2473.86,   419.56  L  2474.28,   419.22  L  2474.55,   418.75  L  2474.64,   418.22  L  2474.55,   417.68  L  2474.28,   417.21  L  2473.86,   416.87  L  2473.36,   416.68  L  2472.81,   416.68  L  2472.31,   416.87  L  2471.89,   417.21  L  2472.29,   417.92  L  2472.29,   418.51  L  2472.66,   418.95  L  2473.23,   419.05  L  2473.74,   418.76  L  2473.94,   418.22  L  2473.74,   417.67  L  2473.23,   417.38  L  2472.66,   417.48  L  2473.09,   418.22  " /><path style="stroke-width: 0.85 ;&st7; stroke-dasharray:3, 1.5;" d=" M  2470.61,   443.71  L  2499.28,   443.71  " /><path style="stroke-width: 0.85 ;&st7;  " d=" M  2320.11,   554.19  L  2473.09,   554.19  L  2473.09,   456.46  " /><path style="stroke-width: 0.85 ;&st7;  " d=" M  2422.09,   418.22  L  2447.59,   418.22  L  2447.59,   430.96  " /><path style="stroke-width: 0.85 ;&st7;  " d=" M  2473.09,   418.22  L  2498.58,   418.22  L  2498.58,   430.96  " /><path style="stroke-width: 0.85 ;&st7;  " d=" M  2352.91,   553.19  L  2352.64,   553.66  L  2352.55,   554.19  L  2352.64,   554.73  L  2352.91,   555.20  L  2353.33,   555.54  L  2353.83,   555.73  L  2354.38,   555.73  L  2354.88,   555.54  L  2355.30,   555.20  L  2355.57,   554.73  L  2355.66,   554.19  L  2355.57,   553.66  L  2355.30,   553.19  L  2354.88,   552.84  L  2354.38,   552.66  L  2353.83,   552.66  L  2353.33,   552.84  L  2352.91,   553.19  L  2353.31,   553.90  L  2353.31,   554.48  L  2353.68,   554.93  L  2354.25,   555.03  L  2354.76,   554.74  L  2354.96,   554.19  L  2354.76,   553.65  L  2354.25,   553.36  L  2353.68,   553.46  L  2354.11,   554.19  " /><path style="stroke-width: 0.28 ;&st9;  " d=" M  2371.10,   477.71  L  2362.60,   483.37  L  2362.60,   472.04  L  2371.10,   477.71  " /><path style="stroke-width: 0.85 ;&st7;  " d=" M  2354.11,   477.71  L  2498.58,   477.71  L  2498.58,   456.46  " /><path style="stroke-width: 0.85 ;&st7;  " d=" M  2352.91,   476.70  L  2352.64,   477.17  L  2352.55,   477.71  L  2352.64,   478.24  L  2352.91,   478.71  L  2353.33,   479.05  L  2353.83,   479.24  L  2354.38,   479.24  L  2354.88,   479.05  L  2355.30,   478.71  L  2355.57,   478.24  L  2355.66,   477.71  L  2355.57,   477.17  L  2355.30,   476.70  L  2354.88,   476.36  L  2354.38,   476.17  L  2353.83,   476.17  L  2353.33,   476.36  L  2352.91,   476.70  L  2353.31,   477.41  L  2353.31,   478.00  L  2353.68,   478.44  L  2354.25,   478.54  L  2354.76,   478.25  L  2354.96,   477.71  L  2354.76,   477.16  L  2354.25,   476.87  L  2353.68,   476.97  L  2354.11,   477.71  " /><path style="stroke-width: 0.85 ;&st7;  " d=" M  2388.10,   401.22  L  2388.10,   430.96  " /><path style="stroke-width: 0.85 ;&st7;  " d=" M  2386.91,   553.19  L  2386.64,   553.66  L  2386.54,   554.19  L  2386.64,   554.73  L  2386.91,   555.20  L  2387.32,   555.54  L  2387.83,   555.73  L  2388.37,   555.73  L  2388.88,   555.54  L  2389.29,   555.20  L  2389.56,   554.73  L  2389.66,   554.19  L  2389.56,   553.66  L  2389.29,   553.19  L  2388.88,   552.84  L  2388.37,   552.66  L  2387.83,   552.66  L  2387.32,   552.84  L  2386.91,   553.19  L  2387.30,   553.90  L  2387.30,   554.48  L  2387.68,   554.93  L  2388.25,   555.03  L  2388.75,   554.74  L  2388.95,   554.19  L  2388.75,   553.65  L  2388.25,   553.36  L  2387.68,   553.46  L  2388.10,   554.19  " /><path style="stroke-width: 0.85 ;&st7;  " d=" M  2447.59,   456.46  L  2447.59,   477.71  " /><path style="stroke-width: 0.85 ;&st7;  " d=" M  2420.90,   553.19  L  2420.63,   553.66  L  2420.54,   554.19  L  2420.63,   554.73  L  2420.90,   555.20  L  2421.32,   555.54  L  2421.82,   555.73  L  2422.37,   555.73  L  2422.87,   555.54  L  2423.29,   555.20  L  2423.56,   554.73  L  2423.65,   554.19  L  2423.56,   553.66  L  2423.29,   553.19  L  2422.87,   552.84  L  2422.37,   552.66  L  2421.82,   552.66  L  2421.32,   552.84  L  2420.90,   553.19  L  2421.30,   553.90  L  2421.30,   554.48  L  2421.67,   554.93  L  2422.24,   555.03  L  2422.75,   554.74  L  2422.94,   554.19  L  2422.75,   553.65  L  2422.24,   553.36  L  2421.67,   553.46  L  2422.09,   554.19  " /><path style="stroke-width: 0.85 ;&st7;  " d=" M  2446.40,   476.70  L  2446.13,   477.17  L  2446.03,   477.71  L  2446.13,   478.24  L  2446.40,   478.71  L  2446.81,   479.05  L  2447.32,   479.24  L  2447.86,   479.24  L  2448.37,   479.05  L  2448.78,   478.71  L  2449.05,   478.24  L  2449.15,   477.71  L  2449.05,   477.17  L  2448.78,   476.70  L  2448.37,   476.36  L  2447.86,   476.17  L  2447.32,   476.17  L  2446.81,   476.36  L  2446.40,   476.70  L  2446.79,   477.41  L  2446.79,   478.00  L  2447.17,   478.44  L  2447.74,   478.54  L  2448.24,   478.25  L  2448.44,   477.71  L  2448.24,   477.16  L  2447.74,   476.87  L  2447.17,   476.97  L  2447.59,   477.71  " /><path style="stroke-width: 0.85 ;&st7;  " d=" M  2422.09,   456.46  L  2422.09,   554.19  " /><path style="stroke-width: 0.85 ;&st7;  " d=" M  2422.09,   401.22  L  2422.09,   430.96  " /><path style="stroke-width: 0.85 ;&st7;  " d=" M  2388.10,   456.46  L  2388.10,   554.19  " /><path style="stroke-width: 0.85 ;&st7; stroke-dasharray:3, 1.5;" d=" M  2419.62,   443.71  L  2448.29,   443.71  " /><text style="&st18;" transform="matrix(&st16;  2475.67  409.41 )">DOWN</text><text style="&st18;" transform="matrix(&st16;  2424.68  409.41 )">UP</text><text style="&st18;" transform="matrix(&st16;  2390.68  409.41 )">AUTO</text><text style="&st18;" transform="matrix(&st16;  2356.69  409.41 )">LED</text><text style="&st18;" transform="matrix(&st17;  2378.74  449.7 )" ewd:textID="3">Auto</text><text style="&st18;" transform="matrix(&st17;  2412.73  447.14 )" ewd:textID="20">Up</text><text style="&st18;" transform="matrix(&st17;  2463.73  450.56 )" ewd:textID="5">Down</text><path style="stroke-width: 0.85 ;&st7;  " d=" M  2354.11,   554.19  L  2354.11,   537.20  L  2351.27,   535.78  L  2356.94,   532.95  L  2351.27,   530.11  L  2356.94,   527.28  L  2351.27,   524.45  L  2356.94,   521.61  L  2354.11,   520.20  L  2354.11,   511.70  " /><text style="&st18;" transform="matrix(&st16;  2322.7  409.41 )">GND</text><text style="&st18;" transform="matrix(&st16;  2313.93  397.53 )">1</text><text style="&st18;" transform="matrix(&st16;  2347.92  397.53 )">4</text><text style="&st18;" transform="matrix(&st16;  2381.92  397.53 )">8</text><text style="&st18;" transform="matrix(&st16;  2415.91  397.53 )">6</text><text style="&st18;" transform="matrix(&st16;  2466.9  397.53 )">7</text><g ewd:figtype="title"><text style="&st18;" transform="matrix(&st17;  2530.3  574.1 )" ewd:textID="10">Front Power Window Regulator Switch Assembly RH</text><text style="&st18;" transform="matrix(&st17;  2523.19  574.09 )">G16</text></g></g><g ewd:figtype="jb" ewd:figID="23" ewd:code="10"><path style="stroke-width: 0.85 ;&st7;  " d=" M  2175.64,    69.77  L  2175.64,    78.27  " /><path style="stroke-width: 1.42 ;&st7;  " d=" M  2177.76,    95.27  L  2173.51,    95.27  " /><path style="stroke-width: 1.42 ;&st7;  " d=" M  2177.76,   103.77  L  2173.51,   103.77  " /><path style="stroke-width: 0.85 ;&st7;  " d=" M  2175.64,    78.27  L  2175.64,    95.27  " /><path style="stroke-width: 1.42 ;&st7;   " d=" M  2175.64,    66.94  C  2178.37     65.33   2179.29     61.80   2177.67     59.06  " /><path style="stroke-width: 1.42 ;&st7;   " d=" M  2177.67,    59.06  C  2177.15     58.18   2176.52     57.55   2175.64     57.03  " /><path style="stroke-width: 0.85 ;&st7;   " d=" M  2177.05,    45.69  C  2177.05     44.91   2176.42     44.28   2175.64     44.28  " /><path style="stroke-width: 0.85 ;&st7;   " d=" M  2175.64,    44.28  C  2174.85     44.28   2174.22     44.91   2174.22     45.69  " /><path style="stroke-width: 0.85 ;&st7;   " d=" M  2174.22,    45.69  C  2174.22     46.48   2174.85     47.11   2175.64     47.11  " /><path style="stroke-width: 0.85 ;&st7;   " d=" M  2175.64,    47.11  C  2176.42     47.11   2177.05     46.48   2177.05     45.69  " /><path style="stroke-width: 0.85 ;&st7;   " d=" M  2177.05,    68.36  C  2177.05     67.57   2176.42     66.94   2175.64     66.94  " /><path style="stroke-width: 0.85 ;&st7;   " d=" M  2175.64,    66.94  C  2174.85     66.94   2174.22     67.57   2174.22     68.36  " /><path style="stroke-width: 0.85 ;&st7;   " d=" M  2174.22,    68.36  C  2174.22     69.14   2174.85     69.77   2175.64     69.77  " /><path style="stroke-width: 0.85 ;&st7;   " d=" M  2175.64,    69.77  C  2176.42     69.77   2177.05     69.14   2177.05     68.36  " /><path style="stroke-width: 1.42 ;&st7;   " d=" M  2173.51,    95.27  C  2171.17     95.27   2169.26     97.17   2169.26     99.52  " /><path style="stroke-width: 1.42 ;&st7;   " d=" M  2169.26,    99.52  C  2169.26    101.87   2171.17    103.77   2173.51    103.77  " /><path style="stroke-width: 1.42 ;&st7;   " d=" M  2177.76,   103.77  C  2180.11    103.77   2182.01    101.87   2182.01     99.52  " /><path style="stroke-width: 1.42 ;&st7;   " d=" M  2182.01,    99.52  C  2182.01     97.17   2180.11     95.27   2177.76     95.27  " /><path style="stroke-width: 0.28 ;&st9;  " d=" M  2175.64,    90.37  L  2172.80,    87.54  L  2172.80,    91.79  L  2175.64,    94.62  L  2178.47,    91.79  L  2178.47,    87.54  L  2175.64,    90.37  " /><path style="stroke-width: 1.42 ;&st7;  " d=" M  2162.89,    35.78  L  2162.89,    78.27  L  2188.38,    78.27  L  2188.38,    35.78  L  2162.89,    35.78  " /><text style="&st18;" transform="matrix(&st16;  2192.06  53.34 )">20A <tspan x="0 " dy="6.0">DOOR </tspan><tspan x="0 " dy="6.0">F/R</tspan></text><text style="&st18;" transform="matrix(&st16;  2171.7  101.49 )">6D</text><text style="&st18;" transform="matrix(&st16;  2162.03  101.49 )">10</text><text style="&st18;" transform="matrix(&st16;  2167.59  32.08 )">(BAT)</text><path style="stroke-width: 1.42 ;&st7;   " d=" M  2175.64,    47.11  C  2172.90     48.72   2171.99     52.25   2173.60     54.99  " /><path style="stroke-width: 1.42 ;&st7;   " d=" M  2173.60,    54.99  C  2174.12     55.87   2174.75     56.51   2175.64     57.03  " /><text style="&st18;" transform="matrix(&st16;  2169.45  86.47 )">2</text></g><g ewd:figtype="w2w" ewd:figID="39" ewd:code="GE3"><path style="stroke-width: 1.42 ;&st7;  " d=" M  2179.88,   364.39  L  2175.64,   360.14  L  2171.39,   364.39  " /><path style="stroke-width: 1.42 ;&st7;  " d=" M  2179.88,   367.79  L  2175.64,   363.54  L  2171.39,   367.79  " /><text style="&st18;" transform="matrix(&st16;  2163.0  356.45 )">3</text></g><g ewd:figtype="w2w" ewd:figID="40" ewd:code="GE3"><path style="stroke-width: 1.42 ;&st7;  " d=" M  2179.88,   149.09  L  2175.64,   153.34  L  2171.39,   149.09  " /><path style="stroke-width: 1.42 ;&st7;  " d=" M  2171.39,   145.69  L  2175.64,   149.94  L  2179.88,   145.69  " /><text style="&st18;" transform="matrix(&st16;  2163.0  160.98 )">1</text></g><g ewd:figtype="w2w" ewd:figID="41" ewd:code="GE2"><path style="stroke-width: 1.42 ;&st7;  " d=" M  2247.87,   444.28  L  2243.62,   440.03  L  2239.37,   444.28  " /><path style="stroke-width: 1.42 ;&st7;  " d=" M  2247.87,   440.88  L  2243.62,   436.63  L  2239.37,   440.88  " /><text style="&st18;" transform="matrix(&st16;  2227.89  432.93 )">13</text></g><g ewd:figtype="gp" ewd:figID="48" ewd:code="ED"><path style="stroke-width: 0.85 ;&st7;  " d=" M  2243.62,   697.25  L  2243.62,   701.50  " /><path style="stroke-width: 0.85 ;&st7;  " d=" M  2235.13,   701.50  L  2252.12,   701.50  " /><path style="stroke-width: 0.85 ;&st7;  " d=" M  2239.37,   704.33  L  2247.87,   704.33  " /><path style="stroke-width: 0.85 ;&st7;  " d=" M  2240.79,   707.17  L  2246.46,   707.17  " /><path style="stroke-width: 0.85 ;&st7;  " d=" M  2242.21,   710.00  L  2245.04,   710.00  " /></g><g ewd:code="" ewd:figID="72" ewd:comment="1" ewd:figtype="commref"><text style="&st18;" transform="matrix(&st16;  2478.18  288.74 )">(*1)</text></g><g ewd:code="" ewd:figID="73" ewd:comment="2" ewd:figtype="commref"><text style="&st18;" transform="matrix(&st16;  2478.18  297.81 )">(*2)</text></g><g ewd:code="2" ewd:figID="69" ewd:comment="" ewd:figtype="comment"><text style="&st18;" transform="matrix(&st16;  2444.19  80.24 )" ewd:textID="2">* 2 :TDV Made</text></g><g ewd:code="1" ewd:figID="68" ewd:comment="" ewd:figtype="comment"><text style="&st18;" transform="matrix(&st16;  2444.19  71.74 )" ewd:textID="1">* 1 :TDB Made</text></g></svg>