﻿<?xml version="1.0" encoding="utf-8"?>
<!DOCTYPE svg PUBLIC "-//W3C//DTD SVG 1.0//EN" "http://www.w3.org/TR/2001/REC-SVG-20010904/DTD/svg10.dtd"[
	<!ENTITY ns_flows "http://ns.adobe.com/Flows/1.0/">
	<!ENTITY ns_svg "http://www.w3.org/2000/svg">
	<!ENTITY ns_xlink "http://www.w3.org/1999/xlink">
	<!ENTITY st0 "font-size:7px;font-family:'MS-PGothic';adobe-font-script:japanese;">
	<!ENTITY st1 "font-size:6px;font-family:'ArialMT';">
	<!-- White fill  -->
	<!ENTITY st2 "fill:#FFFFFF;stroke:#000000; stroke-width:1.41;stroke-linecap:round;stroke-linejoin:round;">
	<!-- Yellow fill  -->
	<!ENTITY st3 "fill:#FFFFCC;stroke:#FFFFCC; stroke-width:0.1;stroke-linecap:round;stroke-linejoin:round;">
	<!-- Gray fill  -->
	<!ENTITY st4 "fill:#CCCCCC;stroke:#CCCCCC; stroke-width:0.1;stroke-linecap:round;stroke-linejoin:round;">
	<!-- Light-blue fill -->
	<!ENTITY st5 "fill:#CCECF4;stroke:#000000; stroke-width:1.133;stroke-linecap:round;stroke-linejoin:round;">
	<!ENTITY st6 "fill:none;stroke-linecap:butt; stroke-linejoin:round;">
	<!ENTITY st7 "fill:none;stroke:#000000;stroke-linecap:round;stroke-linejoin:round;">
	<!ENTITY st8 "enable-background:new    ;">
	<!-- Black fill -->
	<!ENTITY st9 "fill:#000000;stroke:#000000; stroke-linecap:round;stroke-linejoin:round;">
	<!-- SRS note   -->
	<!ENTITY st10 "font-size:9px;font-family:'ArialMT';">
	<!ENTITY st11 "font-size:9px;font-family:'Svg Symbol';">
	<!ENTITY st12 "font-size:6px;font-family:'Svg Symbol';">
	<!ENTITY st13 "fill:none;stroke:#ff0000;stroke-linecap:round;stroke-linejoin:round;">
	<!-- Yellow fill  -->
	<!ENTITY st14 "fill:#FFFF00;stroke:#FFFF00; stroke-width:0.1;stroke-linecap:round;stroke-linejoin:round;">
	<!ENTITY st15 "font-size:6px;font-family:'MS-PGothic';adobe-font-script:japanese;">
	<!ENTITY st16 "1.00 0.00 0.00 1.00">
	<!ENTITY st17 "0.00 -1.00 1.00 0.00">
	<!ENTITY st18 "font-size:6px;font-family:'Arial';">
	<!ENTITY st19 "font-size:9px;font-family:'Arial';">
	<!ENTITY st20 "font-size:6px;font-family:'MS-PGothic','MS PGothic';adobe-font-script:japanese;">
	<!ENTITY st21 "font-size:7px;font-family:'MS-PGothic','MS PGothic';adobe-font-script:japanese;">
	<!ATTLIST svg
		xmlns:ewd CDATA #FIXED "http://shcl.co.jp/ewd"
		xmlns:a CDATA #FIXED "http://ns.adobe.com/AdobeSVGViewerExtensions/3.0/"
		ewd:ver CDATA #IMPLIED
	>
	<!ATTLIST a
		ewd:lineID CDATA #IMPLIED
		ewd:groupID CDATA #IMPLIED
		ewd:figtype CDATA #IMPLIED
		ewd:code CDATA #IMPLIED
		ewd:figID CDATA #IMPLIED
		ewd:pinNo CDATA #IMPLIED
		ewd:comment CDATA #IMPLIED >
	<!ATTLIST g
		ewd:lineID CDATA #IMPLIED
		ewd:groupID CDATA #IMPLIED
		ewd:figtype CDATA #IMPLIED
		ewd:code CDATA #IMPLIED
		ewd:figID CDATA #IMPLIED
		ewd:pinNo CDATA #IMPLIED
		ewd:comment CDATA #IMPLIED >
	<!ATTLIST text
		ewd:textID CDATA #IMPLIED >
	<!ATTLIST title
		ewd:textID CDATA #IMPLIED >
]>
<!-- Generator: Shintec Hozumi YS   -->
<svg onload="call_execInitLoadProc_svg('system')" style="overflow:visible;  enable-background:new 0 0 909.873 710.000" viewBox="0 0 909.873 710.000" height="710.000" width="909.873" xml:space="preserve" ewd:ver="2.1.2.9" xmlns="&ns_svg;" xmlns:a="http://ns.adobe.com/AdobeSVGViewerExtensions/3.0/" xmlns:ewd="http://shcl.co.jp/ewd" xmlns:xlink="&ns_xlink;">
<text style="&st18;" transform="matrix(&st16;  550.22  609.99 )">Y</text><text style="&st18;" transform="matrix(&st16;  550.22  558.99 )">Y</text><path style="stroke-width: 1.42 ;&st7;  " d=" M   620.40,   460.71  L   628.89,   460.71  " /><path style="stroke-width: 1.42 ;&st7;  " d=" M   696.88,   460.71  L   705.38,   460.71  " /><path style="stroke-width: 1.42 ;&st7;  " d=" M   739.38,   460.71  L   747.88,   460.71  " /><path style="stroke-width: 1.42 ;&st7;  " d=" M   781.87,   460.71  L   790.37,   460.71  " /><path style="stroke-width: 1.42 ;&st7;  " d=" M   824.36,   460.71  L   832.86,   460.71  " /><path style="stroke-width: 1.42 ;&st7;  " d=" M   866.86,   460.71  L   875.35,   460.71  " /><text style="&st18;" transform="matrix(&st17;  701.69  496.39 )">Y</text><text style="&st18;" transform="matrix(&st17;  625.2  496.39 )">Y</text><text style="&st18;" transform="matrix(&st17;  701.69  436.9 )">Y</text><text style="&st18;" transform="matrix(&st17;  625.2  436.9 )">Y</text><text style="&st18;" transform="matrix(&st17;  625.2  334.92 )">Y</text><text style="&st18;" transform="matrix(&st16;  574.49  169.45 )">E108</text><text style="&st18;" transform="matrix(&st16;  574.5  176.56 )" ewd:textID="10">Outer Mirror Switch Assembly</text><text style="&st18;" transform="matrix(&st17;  744.18  437.17 )">G</text><text style="&st18;" transform="matrix(&st17;  755.51  439.93 )">(*3)</text><text style="&st18;" transform="matrix(&st17;  786.67  437.17 )">G</text><text style="&st18;" transform="matrix(&st17;  798.0  439.93 )">(*3)</text><text style="&st18;" transform="matrix(&st17;  829.16  436.79 )">L</text><text style="&st18;" transform="matrix(&st17;  840.5  439.93 )">(*3)</text><text style="&st18;" transform="matrix(&st17;  871.66  436.79 )">L</text><text style="&st18;" transform="matrix(&st17;  882.99  439.93 )">(*3)</text><text style="&st18;" transform="matrix(&st17;  744.18  335.19 )">G</text><text style="&st18;" transform="matrix(&st17;  755.51  337.94 )">(*3)</text><text style="&st18;" transform="matrix(&st17;  829.16  334.8 )">L</text><text style="&st18;" transform="matrix(&st17;  840.5  337.94 )">(*3)</text><text style="&st18;" transform="matrix(&st16;  544.98  643.98 )">G(*3)</text><text style="&st18;" transform="matrix(&st16;  545.26  626.98 )">B(*3)</text><text style="&st18;" transform="matrix(&st16;  545.14  592.99 )">V(*3)</text><text style="&st18;" transform="matrix(&st16;  545.33  575.99 )">R(*3)</text><g ewd:figtype="conn" ewd:figID="1" ewd:code="E122"><path style="stroke-width: 1.42 ;&st7;  " d=" M   739.38,   384.22  L   739.38,   401.22  L   883.85,   401.22  L   883.85,   384.22  L   739.38,   384.22  " /><path style="stroke-width: 0.85 ;&st7;  " d=" M   747.87,   401.22  L   747.87,   384.22  " /><path style="stroke-width: 0.85 ;&st7;  " d=" M   790.37,   401.22  L   790.37,   392.72  L   747.87,   392.72  " /><path style="stroke-width: 0.85 ;&st7;  " d=" M   832.86,   401.22  L   832.86,   384.22  " /><path style="stroke-width: 0.85 ;&st7;  " d=" M   875.35,   401.22  L   875.35,   392.72  L   832.86,   392.72  " /><path style="stroke-width: 0.85 ;&st7;  " d=" M   746.68,   391.72  L   746.41,   392.19  L   746.32,   392.72  L   746.41,   393.25  L   746.68,   393.72  L   747.10,   394.07  L   747.60,   394.26  L   748.15,   394.26  L   748.65,   394.07  L   749.07,   393.72  L   749.34,   393.25  L   749.43,   392.72  L   749.34,   392.19  L   749.07,   391.72  L   748.65,   391.37  L   748.15,   391.18  L   747.60,   391.18  L   747.10,   391.37  L   746.68,   391.72  L   747.08,   392.43  L   747.08,   393.01  L   747.45,   393.46  L   748.02,   393.56  L   748.53,   393.27  L   748.72,   392.72  L   748.53,   392.17  L   748.02,   391.88  L   747.45,   391.98  L   747.87,   392.72  " /><path style="stroke-width: 0.85 ;&st7;  " d=" M   831.67,   391.72  L   831.40,   392.19  L   831.30,   392.72  L   831.40,   393.25  L   831.67,   393.72  L   832.08,   394.07  L   832.59,   394.26  L   833.13,   394.26  L   833.64,   394.07  L   834.05,   393.72  L   834.33,   393.25  L   834.42,   392.72  L   834.33,   392.19  L   834.05,   391.72  L   833.64,   391.37  L   833.13,   391.18  L   832.59,   391.18  L   832.08,   391.37  L   831.67,   391.72  L   832.06,   392.43  L   832.06,   393.01  L   832.44,   393.46  L   833.01,   393.56  L   833.51,   393.27  L   833.71,   392.72  L   833.51,   392.17  L   833.01,   391.88  L   832.44,   391.98  L   832.86,   392.72  " /><text style="&st18;" transform="matrix(&st16;  741.69  409.41 )">3</text><text style="&st18;" transform="matrix(&st16;  741.69  380.53 )">1</text><text style="&st18;" transform="matrix(&st16;  784.18  409.41 )">2</text><text style="&st18;" transform="matrix(&st16;  826.68  409.41 )">6</text><text style="&st18;" transform="matrix(&st16;  826.68  380.53 )">4</text><text style="&st18;" transform="matrix(&st16;  869.17  409.41 )">5</text><g ewd:figtype="title"><text style="&st18;" transform="matrix(&st17;  898.57  404.12 )" ewd:textID="8">No. 14 Junction <tspan x="0 " dy="6.0">Connector</tspan></text><text style="&st18;" transform="matrix(&st17;  891.75  404.12 )">E122</text></g></g><g ewd:figtype="jb" ewd:figID="6" ewd:code="10"><path style="stroke-width: 1.42 ;&st7;  " d=" M   631.02,   367.22  L   626.77,   367.22  " /><path style="stroke-width: 1.42 ;&st7;  " d=" M   631.02,   375.72  L   626.77,   375.72  " /><path style="stroke-width: 1.42 ;&st7;  " d=" M   631.02,   409.72  L   626.77,   409.72  " /><path style="stroke-width: 1.42 ;&st7;  " d=" M   631.02,   418.22  L   626.77,   418.22  " /><path style="stroke-width: 1.42 ;&st7;  " d=" M   707.51,   409.72  L   703.26,   409.72  " /><path style="stroke-width: 1.42 ;&st7;  " d=" M   707.51,   418.22  L   703.26,   418.22  " /><path style="stroke-width: 1.42 ;&st7;   " d=" M   626.77,   367.22  C   624.42    367.22    622.52    369.13    622.52    371.47  " /><path style="stroke-width: 1.42 ;&st7;   " d=" M   622.52,   371.47  C   622.52    373.82    624.42    375.72    626.77    375.72  " /><path style="stroke-width: 1.42 ;&st7;   " d=" M   631.02,   375.72  C   633.37    375.72    635.27    373.82    635.27    371.47  " /><path style="stroke-width: 1.42 ;&st7;   " d=" M   635.27,   371.47  C   635.27    369.13    633.37    367.22    631.02    367.22  " /><path style="stroke-width: 1.42 ;&st7;   " d=" M   626.77,   409.72  C   624.42    409.72    622.52    411.62    622.52    413.97  " /><path style="stroke-width: 1.42 ;&st7;   " d=" M   622.52,   413.97  C   622.52    416.31    624.42    418.22    626.77    418.22  " /><path style="stroke-width: 1.42 ;&st7;   " d=" M   631.02,   418.22  C   633.37    418.22    635.27    416.31    635.27    413.97  " /><path style="stroke-width: 1.42 ;&st7;   " d=" M   635.27,   413.97  C   635.27    411.62    633.37    409.72    631.02    409.72  " /><path style="stroke-width: 1.42 ;&st7;   " d=" M   703.26,   409.72  C   700.91    409.72    699.01    411.62    699.01    413.97  " /><path style="stroke-width: 1.42 ;&st7;   " d=" M   699.01,   413.97  C   699.01    416.31    700.91    418.22    703.26    418.22  " /><path style="stroke-width: 1.42 ;&st7;   " d=" M   707.51,   418.22  C   709.85    418.22    711.76    416.31    711.76    413.97  " /><path style="stroke-width: 1.42 ;&st7;   " d=" M   711.76,   413.97  C   711.76    411.62    709.85    409.72    707.51    409.72  " /><path style="stroke-width: 0.85 ;&st7;  " d=" M   628.89,   375.72  L   628.89,   409.72  " /><path style="stroke-width: 0.85 ;&st7;  " d=" M   627.70,   391.72  L   627.43,   392.19  L   627.34,   392.72  L   627.43,   393.25  L   627.70,   393.72  L   628.12,   394.07  L   628.62,   394.26  L   629.17,   394.26  L   629.67,   394.07  L   630.09,   393.72  L   630.36,   393.25  L   630.45,   392.72  L   630.36,   392.19  L   630.09,   391.72  L   629.67,   391.37  L   629.17,   391.18  L   628.62,   391.18  L   628.12,   391.37  L   627.70,   391.72  L   628.10,   392.43  L   628.10,   393.01  L   628.47,   393.46  L   629.04,   393.56  L   629.55,   393.27  L   629.74,   392.72  L   629.55,   392.17  L   629.04,   391.88  L   628.47,   391.98  L   628.89,   392.72  " /><path style="stroke-width: 0.85 ;&st7;  " d=" M   628.89,   392.72  L   705.38,   392.72  L   705.38,   409.72  " /><path style="stroke-width: 0.28 ;&st9;  " d=" M   628.89,   380.62  L   631.73,   383.45  L   631.73,   379.20  L   628.89,   376.37  L   626.06,   379.20  L   626.06,   383.45  L   628.89,   380.62  " /><path style="stroke-width: 0.28 ;&st9;  " d=" M   628.89,   404.82  L   626.06,   401.99  L   626.06,   406.24  L   628.89,   409.07  L   631.73,   406.24  L   631.73,   401.99  L   628.89,   404.82  " /><path style="stroke-width: 0.28 ;&st9;  " d=" M   705.38,   404.82  L   702.55,   401.99  L   702.55,   406.24  L   705.38,   409.07  L   708.21,   406.24  L   708.21,   401.99  L   705.38,   404.82  " /><text style="&st18;" transform="matrix(&st16;  624.92  373.44 )">6C</text><text style="&st18;" transform="matrix(&st16;  615.29  373.44 )">32</text><text style="&st18;" transform="matrix(&st16;  624.92  415.94 )">6C</text><text style="&st18;" transform="matrix(&st16;  615.29  415.94 )">33</text><text style="&st18;" transform="matrix(&st16;  701.41  415.94 )">6C</text><text style="&st18;" transform="matrix(&st16;  691.77  415.94 )">34</text></g><g ewd:figtype="w2w" ewd:figID="12" ewd:code="GE3"><path style="stroke-width: 1.42 ;&st7;  " d=" M   624.65,   451.64  L   628.89,   455.89  L   633.14,   451.64  " /><path style="stroke-width: 1.42 ;&st7;  " d=" M   633.14,   455.04  L   628.89,   459.29  L   624.65,   455.04  " /><text style="&st18;" transform="matrix(&st16;  613.16  466.93 )">18</text></g><g ewd:figtype="w2w" ewd:figID="13" ewd:code="HE3"><path style="stroke-width: 1.42 ;&st7;  " d=" M   701.13,   451.64  L   705.38,   455.89  L   709.63,   451.64  " /><path style="stroke-width: 1.42 ;&st7;  " d=" M   709.63,   455.04  L   705.38,   459.29  L   701.13,   455.04  " /><text style="&st18;" transform="matrix(&st16;  689.65  466.93 )">18</text></g><g ewd:figtype="w2w" ewd:figID="14" ewd:code="GE2"><path style="stroke-width: 1.42 ;&st7;  " d=" M   743.63,   451.64  L   747.87,   455.89  L   752.12,   451.64  " /><path style="stroke-width: 1.42 ;&st7;  " d=" M   752.12,   455.04  L   747.87,   459.29  L   743.63,   455.04  " /><text style="&st18;" transform="matrix(&st16;  732.14  466.93 )">10</text></g><g ewd:figtype="w2w" ewd:figID="15" ewd:code="HE3"><path style="stroke-width: 1.42 ;&st7;  " d=" M   786.12,   451.64  L   790.37,   455.89  L   794.62,   451.64  " /><path style="stroke-width: 1.42 ;&st7;  " d=" M   794.62,   455.04  L   790.37,   459.29  L   786.12,   455.04  " /><text style="&st18;" transform="matrix(&st16;  774.63  466.93 )">17</text></g><g ewd:figtype="w2w" ewd:figID="16" ewd:code="GE2"><path style="stroke-width: 1.42 ;&st7;  " d=" M   828.61,   451.64  L   832.86,   455.89  L   837.11,   451.64  " /><path style="stroke-width: 1.42 ;&st7;  " d=" M   837.11,   455.04  L   832.86,   459.29  L   828.61,   455.04  " /><text style="&st18;" transform="matrix(&st16;  820.23  466.93 )">2</text></g><g ewd:figtype="w2w" ewd:figID="17" ewd:code="HE3"><path style="stroke-width: 1.42 ;&st7;  " d=" M   871.10,   451.64  L   875.35,   455.89  L   879.60,   451.64  " /><path style="stroke-width: 1.42 ;&st7;  " d=" M   879.60,   455.04  L   875.35,   459.29  L   871.10,   455.04  " /><text style="&st18;" transform="matrix(&st16;  859.62  466.93 )">14</text></g><g ewd:code="1" ewd:figID="21" ewd:comment="" ewd:figtype="comment"><text style="&st18;" transform="matrix(&st16;  837.95  46.25 )" ewd:textID="1">* 1 :TDB Made</text></g><g ewd:code="3" ewd:figID="22" ewd:comment="" ewd:figtype="comment"><text style="&st18;" transform="matrix(&st16;  837.95  63.24 )" ewd:textID="3">* 3 :w/ Retractor</text></g><g ewd:code="2" ewd:figID="20" ewd:comment="" ewd:figtype="comment"><text style="&st18;" transform="matrix(&st16;  837.95  54.75 )" ewd:textID="2">* 2 :TDV Made</text></g></svg>