﻿<?xml version="1.0" encoding="utf-8"?>
<!DOCTYPE svg PUBLIC "-//W3C//DTD SVG 1.0//EN" "http://www.w3.org/TR/2001/REC-SVG-20010904/DTD/svg10.dtd"[
	<!ENTITY ns_flows "http://ns.adobe.com/Flows/1.0/">
	<!ENTITY ns_svg "http://www.w3.org/2000/svg">
	<!ENTITY ns_xlink "http://www.w3.org/1999/xlink">
	<!ENTITY st0 "font-size:7px;font-family:'MS-PGothic';adobe-font-script:japanese;">
	<!ENTITY st1 "font-size:6px;font-family:'ArialMT';">
	<!-- White fill  -->
	<!ENTITY st2 "fill:#FFFFFF;stroke:#000000; stroke-width:1.41;stroke-linecap:round;stroke-linejoin:round;">
	<!-- Yellow fill  -->
	<!ENTITY st3 "fill:#FFFFCC;stroke:#FFFFCC; stroke-width:0.1;stroke-linecap:round;stroke-linejoin:round;">
	<!-- Gray fill  -->
	<!ENTITY st4 "fill:#CCCCCC;stroke:#CCCCCC; stroke-width:0.1;stroke-linecap:round;stroke-linejoin:round;">
	<!-- Light-blue fill -->
	<!ENTITY st5 "fill:#CCECF4;stroke:#000000; stroke-width:1.133;stroke-linecap:round;stroke-linejoin:round;">
	<!ENTITY st6 "fill:none;stroke-linecap:butt; stroke-linejoin:round;">
	<!ENTITY st7 "fill:none;stroke:#000000;stroke-linecap:round;stroke-linejoin:round;">
	<!ENTITY st8 "enable-background:new    ;">
	<!-- Black fill -->
	<!ENTITY st9 "fill:#000000;stroke:#000000; stroke-linecap:round;stroke-linejoin:round;">
	<!-- SRS note   -->
	<!ENTITY st10 "font-size:9px;font-family:'ArialMT';">
	<!ENTITY st11 "font-size:9px;font-family:'Svg Symbol';">
	<!ENTITY st12 "font-size:6px;font-family:'Svg Symbol';">
	<!ENTITY st13 "fill:none;stroke:#ff0000;stroke-linecap:round;stroke-linejoin:round;">
	<!-- Yellow fill  -->
	<!ENTITY st14 "fill:#FFFF00;stroke:#FFFF00; stroke-width:0.1;stroke-linecap:round;stroke-linejoin:round;">
	<!ENTITY st15 "font-size:6px;font-family:'MS-PGothic';adobe-font-script:japanese;">
	<!ENTITY st16 "1.00 0.00 0.00 1.00">
	<!ENTITY st17 "0.00 -1.00 1.00 0.00">
	<!ENTITY st18 "font-size:6px;font-family:'Arial';">
	<!ENTITY st19 "font-size:9px;font-family:'Arial';">
	<!ENTITY st20 "font-size:6px;font-family:'MS-PGothic','MS PGothic';adobe-font-script:japanese;">
	<!ENTITY st21 "font-size:7px;font-family:'MS-PGothic','MS PGothic';adobe-font-script:japanese;">
	<!ATTLIST svg
		xmlns:ewd CDATA #FIXED "http://shcl.co.jp/ewd"
		xmlns:a CDATA #FIXED "http://ns.adobe.com/AdobeSVGViewerExtensions/3.0/"
		ewd:ver CDATA #IMPLIED
	>
	<!ATTLIST a
		ewd:lineID CDATA #IMPLIED
		ewd:groupID CDATA #IMPLIED
		ewd:figtype CDATA #IMPLIED
		ewd:code CDATA #IMPLIED
		ewd:figID CDATA #IMPLIED
		ewd:pinNo CDATA #IMPLIED
		ewd:comment CDATA #IMPLIED >
	<!ATTLIST g
		ewd:lineID CDATA #IMPLIED
		ewd:groupID CDATA #IMPLIED
		ewd:figtype CDATA #IMPLIED
		ewd:code CDATA #IMPLIED
		ewd:figID CDATA #IMPLIED
		ewd:pinNo CDATA #IMPLIED
		ewd:comment CDATA #IMPLIED >
	<!ATTLIST text
		ewd:textID CDATA #IMPLIED >
	<!ATTLIST title
		ewd:textID CDATA #IMPLIED >
]>
<!-- Generator: Shintec Hozumi YS   -->
<svg onload="call_execInitLoadProc_svg('system')" style="overflow:visible;  enable-background:new 0 0 2926.884 710.000" viewBox="0 0 2926.884 710.000" height="710.000" width="2926.884" xml:space="preserve" ewd:ver="2.1.2.9" xmlns="&ns_svg;" xmlns:a="http://ns.adobe.com/AdobeSVGViewerExtensions/3.0/" xmlns:ewd="http://shcl.co.jp/ewd" xmlns:xlink="&ns_xlink;"><script type="text/javascript" xlink:href="../../../../../system/js/ewd/fig/svgfig.js" xmlns:xlink="http://www.w3.org/1999/xlink" />
<g id="ewd_top"><a ewd:figtype="conn" style="cursor:pointer;" ewd:code="E14,L11,L47" ewd:figID="1"><path style="fill:#CCECF4;stroke:#000000; stroke-width:1.133; stroke-linecap:round;stroke-linejoin:round; " d=" M   535.41,   273.74  L   535.41,   333.23  L  2269.12,   333.23  L  2269.12,   273.74  L   535.41,   273.74 " /><title ewd:textID="22">Airbag ECU Assembly</title></a><a ewd:figtype="rb" style="cursor:pointer;" ewd:code="3" ewd:figID="2"><path style="fill:#CCECF4;stroke:#000000; stroke-width:0; stroke-linecap:round;stroke-linejoin:round; " d=" M  1249.29,   129.26  L  1249.29,   163.26  L  1283.29,   163.26  L  1283.29,   129.26  L  1249.29,   129.26 " /></a><a ewd:figtype="conn" style="cursor:pointer;" ewd:code="E27" ewd:figID="3"><path style="fill:#CCECF4;stroke:#000000; stroke-width:1.133; stroke-linecap:round;stroke-linejoin:round; " d=" M  1342.78,   129.26  L  1342.78,   163.26  L  1410.76,   163.26  L  1410.76,   129.26  L  1342.78,   129.26 " /><title ewd:textID="50">No. 1 Lower Instrument Panel Airbag Assembly</title></a><a ewd:figtype="conn" style="cursor:pointer;" ewd:code="A39" ewd:figID="4"><path style="fill:#CCECF4;stroke:#000000; stroke-width:1.133; stroke-linecap:round;stroke-linejoin:round; " d=" M  2439.09,   460.71  L  2439.09,   443.71  L  2388.10,   443.71  L  2388.10,   460.71  L  2439.09,   460.71 " /><title ewd:textID="49">No. 1 CAN Junction Connector</title></a><a ewd:figtype="conn" style="cursor:pointer;" ewd:code="E49" ewd:figID="5"><path style="fill:#CCECF4;stroke:#000000; stroke-width:1.133; stroke-linecap:round;stroke-linejoin:round; " d=" M   535.41,   129.26  L   535.41,   163.26  L   637.39,   163.26  L   637.39,   129.26  L   535.41,   129.26 " /><title ewd:textID="61">Telltale Light Assembly</title></a><a ewd:figtype="conn" style="cursor:pointer;" ewd:code="E9,z2" ewd:figID="6"><path style="fill:#CCECF4;stroke:#000000; stroke-width:1.133; stroke-linecap:round;stroke-linejoin:round; " d=" M   722.38,   528.70  L   790.37,   528.70  L   790.37,   545.69  L   722.38,   545.69  L   722.38,   528.70 " /><title ewd:textID="60">Spiral Cable Sub-Assembly , Driver Side Squib (Horn Button Assembly)</title></a><a ewd:figtype="conn" style="cursor:pointer;" ewd:code="L87" ewd:figID="7"><path style="fill:#CCECF4;stroke:#000000; stroke-width:1.133; stroke-linecap:round;stroke-linejoin:round; " d=" M  2099.15,   129.26  L  2099.15,   163.26  L  2184.14,   163.26  L  2184.14,   129.26  L  2099.15,   129.26 " /><title ewd:textID="35">Front Seat Airbag Assembly LH</title></a><a ewd:figtype="conn" style="cursor:pointer;" ewd:code="L93" ewd:figID="8"><path style="fill:#CCECF4;stroke:#000000; stroke-width:1.133; stroke-linecap:round;stroke-linejoin:round; " d=" M  1946.17,   129.26  L  1946.17,   163.26  L  2031.16,   163.26  L  2031.16,   129.26  L  1946.17,   129.26 " /><title ewd:textID="36">Front Seat Airbag Assembly RH</title></a><a ewd:figtype="conn" style="cursor:pointer;" ewd:code="L86" ewd:figID="9"><path style="fill:#CCECF4;stroke:#000000; stroke-width:1.133; stroke-linecap:round;stroke-linejoin:round; " d=" M  1818.70,   129.26  L  1818.70,   163.26  L  1903.68,   163.26  L  1903.68,   129.26  L  1818.70,   129.26 " /><title ewd:textID="27">Curtain Shield Airbag Sub-Assembly LH</title></a><a ewd:figtype="conn" style="cursor:pointer;" ewd:code="L92,L100" ewd:figID="10"><path style="fill:#CCECF4;stroke:#000000; stroke-width:1.133; stroke-linecap:round;stroke-linejoin:round; " d=" M  1691.22,   129.26  L  1691.22,   163.26  L  1776.20,   163.26  L  1776.20,   129.26  L  1691.22,   129.26 " /><title ewd:textID="28">Curtain Shield Airbag Sub-Assembly RH</title></a><a ewd:figtype="conn" style="cursor:pointer;" ewd:code="A15" ewd:figID="11"><path style="fill:#CCECF4;stroke:#000000; stroke-width:1.133; stroke-linecap:round;stroke-linejoin:round; " d=" M  1334.28,   554.19  L  1334.28,   588.19  L  1410.76,   588.19  L  1410.76,   554.19  L  1334.28,   554.19 " /><title ewd:textID="34">Front Airbag Sensor RH</title></a><a ewd:figtype="conn" style="cursor:pointer;" ewd:code="A6" ewd:figID="12"><path style="fill:#CCECF4;stroke:#000000; stroke-width:1.133; stroke-linecap:round;stroke-linejoin:round; " d=" M  1206.80,   554.19  L  1206.80,   588.19  L  1283.29,   588.19  L  1283.29,   554.19  L  1206.80,   554.19 " /><title ewd:textID="33">Front Airbag Sensor LH</title></a><a ewd:figtype="conn" style="cursor:pointer;" ewd:code="d1" ewd:figID="13"><path style="fill:#CCECF4;stroke:#000000; stroke-width:1.133; stroke-linecap:round;stroke-linejoin:round; " d=" M   875.35,   554.19  L   875.35,   588.19  L   951.84,   588.19  L   951.84,   554.19  L   875.35,   554.19 " /><title ewd:textID="43">Instrument Panel Passenger Airbag without Door Assembly</title></a><a ewd:figtype="conn" style="cursor:pointer;" ewd:code="z2" ewd:figID="14"><path style="fill:#CCECF4;stroke:#000000; stroke-width:1.133; stroke-linecap:round;stroke-linejoin:round; " d=" M   790.37,   554.76  L   790.37,   588.75  L   722.38,   588.75  L   722.38,   554.76  L   790.37,   554.76 " /><title ewd:textID="60">Spiral Cable Sub-Assembly , Driver Side Squib (Horn Button Assembly)</title></a><a ewd:figtype="conn" style="cursor:pointer;" ewd:code="E43" ewd:figID="15"><path style="fill:#CCECF4;stroke:#000000; stroke-width:1.133; stroke-linecap:round;stroke-linejoin:round; " d=" M  2660.06,   282.24  L  2660.06,   511.70  L  2906.51,   511.70  L  2906.51,   282.24  L  2660.06,   282.24 " /><title ewd:textID="26">Combination Meter Assembly</title></a><a ewd:figtype="conn" style="cursor:pointer;" ewd:code="E55" ewd:figID="16"><path style="fill:#CCECF4;stroke:#000000; stroke-width:1.133; stroke-linecap:round;stroke-linejoin:round; " d=" M  2549.57,   299.24  L  2549.57,   273.74  L  2303.12,   273.74  L  2303.12,   299.24  L  2549.57,   299.24 " /><title ewd:textID="51">No. 2 CAN Junction Connector</title></a><a ewd:figtype="conn" style="cursor:pointer;" ewd:code="L85" ewd:figID="17"><path style="fill:#CCECF4;stroke:#000000; stroke-width:1.133; stroke-linecap:round;stroke-linejoin:round; " d=" M  2099.15,   392.72  L  2099.15,   435.21  L  2175.64,   435.21  L  2175.64,   392.72  L  2099.15,   392.72 " /><title ewd:textID="37">Front Seat Outer Belt Assembly LH</title></a><a ewd:figtype="conn" style="cursor:pointer;" ewd:code="L44" ewd:figID="18"><path style="fill:#CCECF4;stroke:#000000; stroke-width:1.133; stroke-linecap:round;stroke-linejoin:round; " d=" M  1614.73,   494.70  L  1614.73,   528.70  L  1682.72,   528.70  L  1682.72,   494.70  L  1614.73,   494.70 " /><title ewd:textID="55">Rear Airbag Sensor RH</title></a><a ewd:figtype="conn" style="cursor:pointer;" ewd:code="L9" ewd:figID="19"><path style="fill:#CCECF4;stroke:#000000; stroke-width:1.133; stroke-linecap:round;stroke-linejoin:round; " d=" M  1912.18,   494.70  L  1912.18,   528.70  L  1980.17,   528.70  L  1980.17,   494.70  L  1912.18,   494.70 " /><title ewd:textID="54">Rear Airbag Sensor LH</title></a><a ewd:figtype="conn" style="cursor:pointer;" ewd:code="L72,L73" ewd:figID="20"><path style="fill:#CCECF4;stroke:#000000; stroke-width:1.133; stroke-linecap:round;stroke-linejoin:round; " d=" M  1912.18,   401.22  L  1912.18,   435.21  L  1980.17,   435.21  L  1980.17,   401.22  L  1912.18,   401.22 " /><title ewd:textID="57">Side Airbag Sensor Assembly LH , Rear Airbag Sensor LH</title></a><a ewd:figtype="conn" style="cursor:pointer;" ewd:code="L91" ewd:figID="21"><path style="fill:#CCECF4;stroke:#000000; stroke-width:1.133; stroke-linecap:round;stroke-linejoin:round; " d=" M  1776.20,   401.22  L  1776.20,   443.71  L  1852.69,   443.71  L  1852.69,   401.22  L  1776.20,   401.22 " /><title ewd:textID="38">Front Seat Outer Belt Assembly RH</title></a><a ewd:figtype="conn" style="cursor:pointer;" ewd:code="L43,L81" ewd:figID="22"><path style="fill:#CCECF4;stroke:#000000; stroke-width:1.133; stroke-linecap:round;stroke-linejoin:round; " d=" M  1614.73,   401.22  L  1614.73,   435.21  L  1682.72,   435.21  L  1682.72,   401.22  L  1614.73,   401.22 " /><title ewd:textID="58">Side Airbag Sensor Assembly RH</title></a><a ewd:figtype="conn" style="cursor:pointer;" ewd:code="E13" ewd:figID="23"><path style="fill:#CCECF4;stroke:#000000; stroke-width:1.133; stroke-linecap:round;stroke-linejoin:round; " d=" M  2379.60,   163.26  L  2379.60,   205.75  L  2447.59,   205.75  L  2447.59,   163.26  L  2379.60,   163.26 " /><title>DLC3</title></a><a ewd:figtype="rb" style="cursor:pointer;" ewd:code="FUSE9" ewd:figID="24"><path style="fill:#CCECF4;stroke:#000000; stroke-width:0; stroke-linecap:round;stroke-linejoin:round; " d=" M  2672.80,    35.78  L  2672.80,    78.27  L  2698.30,    78.27  L  2698.30,    35.78  L  2672.80,    35.78 " /></a><a ewd:figtype="conn" style="cursor:pointer;" ewd:code="E115" ewd:figID="25"><path style="fill:#CCECF4;stroke:#000000; stroke-width:1.133; stroke-linecap:round;stroke-linejoin:round; " d=" M   875.35,   103.77  L   875.35,   163.26  L  1002.83,   163.26  L  1002.83,   103.77  L   875.35,   103.77 " /><title ewd:textID="21">Airbag Cut Off Switch</title></a><a ewd:figtype="conn" style="cursor:pointer;" ewd:code="A40,A69" ewd:figID="26"><path style="fill:#CCECF4;stroke:#000000; stroke-width:1.133; stroke-linecap:round;stroke-linejoin:round; " d=" M  2371.10,   537.20  L  2456.09,   537.20  L  2456.09,   579.69  L  2371.10,   579.69  L  2371.10,   537.20 " /><title>ECM</title></a><a ewd:figtype="jb" style="cursor:pointer;" ewd:code="10" ewd:figID="30"><path style="&st4; " d=" M  2736.54,    35.78  L  2736.54,   103.77  L  2796.03,   103.77  L  2796.03,    35.78  L  2736.54,    35.78  " /></a><a ewd:figtype="jb" style="cursor:pointer;" ewd:code="10" ewd:figID="31"><path style="&st4; " d=" M  2668.55,   154.76  L  2668.55,   205.75  L  2694.05,   205.75  L  2694.05,   154.76  L  2668.55,   154.76  " /></a><a ewd:figtype="jb" style="cursor:pointer;" ewd:code="10" ewd:figID="32"><path style="&st4; " d=" M   535.41,   460.71  L   628.89,   460.71  L   628.89,   409.72  L   535.41,   409.72  L   535.41,   460.71  " /></a><a ewd:figtype="jb" style="cursor:pointer;" ewd:code="10" ewd:figID="33"><path style="&st4; " d=" M   688.38,    35.78  L   688.38,   103.77  L   815.86,   103.77  L   815.86,    35.78  L   688.38,    35.78  " /></a><a ewd:figtype="jb" style="cursor:pointer;" ewd:code="10" ewd:figID="34"><path style="&st4; " d=" M  1249.29,   163.26  L  1274.79,   163.26  L  1274.79,   197.25  L  1249.29,   197.25  L  1249.29,   163.26  " /></a><a ewd:figtype="fuse" style="cursor:pointer;" ewd:code="FUSE56" ewd:figID="46"><path style="&st7; stroke-width:0;" d=" M   692.63,    35.78  L   692.63,    78.27  L   718.13,    78.27  L   718.13,    35.78  L   692.63,    35.78 " /></a><a ewd:figtype="fuse" style="cursor:pointer;" ewd:code="FUSE60" ewd:figID="47"><path style="&st7; stroke-width:0;" d=" M   760.62,    35.78  L   760.62,    78.27  L   786.12,    78.27  L   786.12,    35.78  L   760.62,    35.78 " /></a><a ewd:figtype="fuse" style="cursor:pointer;" ewd:code="FUSE9" ewd:figID="48"><path style="&st7; stroke-width:0;" d=" M  2672.80,    35.78  L  2672.80,    78.27  L  2698.30,    78.27  L  2698.30,    35.78  L  2672.80,    35.78 " /></a><a ewd:figtype="fuse" style="cursor:pointer;" ewd:code="FUSE51" ewd:figID="49"><path style="&st7; stroke-width:0;" d=" M  2740.79,    35.78  L  2740.79,    78.27  L  2766.29,    78.27  L  2766.29,    35.78  L  2740.79,    35.78 " /></a><a style="cursor:pointer;" ewd:lineID="1"><path style="stroke:#000000;stroke-width: 5.10 ;&st6;" d=" M   552.41,   460.71  L   552.41,   681.67  " /><path style="stroke:#FFFFFF;stroke-width: 4.53 ;&st6;" d=" M   552.41,   460.71  L   552.41,   681.67  " /><path style="stroke:#000000;stroke-width: 1.13 ;&st6;" d=" M   552.41,   460.71  L   552.41,   681.67  " /></a><a style="cursor:pointer;" ewd:lineID="2"><path style="stroke:#000000;stroke-width: 5.10 ;&st6;" d=" M   552.41,   409.72  L   552.41,   342.29  " /><path style="stroke:#FFFFFF;stroke-width: 4.53 ;&st6;" d=" M   552.41,   409.72  L   552.41,   342.29  " /><path style="stroke:#000000;stroke-width: 1.13 ;&st6;" d=" M   552.41,   409.72  L   552.41,   342.29  " /></a><a style="cursor:pointer;" ewd:lineID="3"><path style="stroke:#000000;stroke-width: 5.10 ;&st6;" d=" M   552.41,   163.26  L   552.41,   264.67  " /></a><a style="cursor:pointer;" ewd:lineID="4"><path style="stroke:#FF0000;stroke-width: 5.10 ;&st6;" d=" M   586.40,   163.26  L   586.40,   264.67  " /></a><a style="cursor:pointer;" ewd:lineID="5"><path style="stroke:#000000;stroke-width: 5.10 ;&st6;" d=" M   620.40,   681.67  L   620.40,   460.71  " /><path style="stroke:#FFFFFF;stroke-width: 4.53 ;&st6;" d=" M   620.40,   681.67  L   620.40,   460.71  " /><path style="stroke:#000000;stroke-width: 1.13 ;&st6;" d=" M   620.40,   681.67  L   620.40,   460.71  " /></a><a style="cursor:pointer;" ewd:lineID="6"><path style="stroke:#000000;stroke-width: 5.10 ;&st6;" d=" M   620.40,   409.72  L   620.40,   342.29  " /><path style="stroke:#FFFFFF;stroke-width: 4.53 ;&st6;" d=" M   620.40,   409.72  L   620.40,   342.29  " /><path style="stroke:#000000;stroke-width: 1.13 ;&st6;" d=" M   620.40,   409.72  L   620.40,   342.29  " /></a><a style="cursor:pointer;" ewd:lineID="7"><path style="stroke:#000000;stroke-width: 5.10 ;&st6;" d=" M   620.40,   163.26  L   620.40,   197.25  L   705.38,   197.25  L   705.38,   103.77  " /></a><a style="cursor:pointer;" ewd:lineID="8"><path style="stroke:#FFE600;stroke-width: 5.10 ;&st6;" d=" M   739.38,   519.63  L   739.38,   342.29  " /><path style="stroke:#FFFFFF;stroke-width: 2.27 ;&st6;" d=" M   739.38,   519.63  L   739.38,   342.29  " /><path style="stroke:#000000;stroke-width: 1.13 ;&st6;" d=" M   739.38,   519.63  L   739.38,   342.29  " /></a><a style="cursor:pointer;" ewd:lineID="9"><path style="stroke:#FFE600;stroke-width: 5.10 ;&st6;" d=" M   773.37,   519.63  L   773.37,   342.29  " /></a><a style="cursor:pointer;" ewd:lineID="10"><path style="stroke:#000000;stroke-width: 5.10 ;&st6;" d=" M   773.37,   103.77  L   773.37,   264.67  " /></a><a style="cursor:pointer;" ewd:lineID="11"><path style="stroke:#FFE600;stroke-width: 5.10 ;&st6;" d=" M   892.35,   450.23  L   892.35,   545.13  " /><path style="stroke:#FFFFFF;stroke-width: 2.27 ;&st6;" d=" M   892.35,   450.23  L   892.35,   545.13  " /><path style="stroke:#FF0000;stroke-width: 1.13 ;&st6;" d=" M   892.35,   450.23  L   892.35,   545.13  " /></a><a style="cursor:pointer;" ewd:lineID="12"><path style="stroke:#FFE600;stroke-width: 5.10 ;&st6;" d=" M   892.35,   435.21  L   892.35,   342.29  " /><path style="stroke:#FFFFFF;stroke-width: 2.27 ;&st6;" d=" M   892.35,   435.21  L   892.35,   342.29  " /><path style="stroke:#000000;stroke-width: 1.13 ;&st6;" d=" M   892.35,   435.21  L   892.35,   342.29  " /></a><a style="cursor:pointer;" ewd:lineID="13"><path style="stroke:#000000;stroke-width: 5.10 ;&st6;" d=" M   892.35,   163.26  L   892.35,   264.67  " /></a><a style="cursor:pointer;" ewd:lineID="14"><path style="stroke:#FFE600;stroke-width: 5.10 ;&st6;" d=" M   934.84,   450.23  L   934.84,   545.13  " /><path style="stroke:#FFFFFF;stroke-width: 2.27 ;&st6;" d=" M   934.84,   450.23  L   934.84,   545.13  " /><path style="stroke:#008837;stroke-width: 1.13 ;&st6;" d=" M   934.84,   450.23  L   934.84,   545.13  " /></a><a style="cursor:pointer;" ewd:lineID="15"><path style="stroke:#FFE600;stroke-width: 5.10 ;&st6;" d=" M   934.84,   435.21  L   934.84,   342.29  " /></a><a style="cursor:pointer;" ewd:lineID="16"><path style="stroke:#00A0C6;stroke-width: 5.10 ;&st6;" d=" M   977.34,   163.26  L   977.34,   264.67  " /></a><a style="cursor:pointer;" ewd:lineID="17"> d=" M  1223.80,   443.71  L  1223.80,   554.19 
	
		<path style="stroke:#000000;stroke-width: 5.10 ;&st6;" d=" M  1223.80,   443.71  L  1223.80,   554.19  " /><path style="stroke:#FFFFFF;stroke-width: 4.53 ;&st6;" d=" M  1223.80,   443.71  L  1223.80,   554.19  " /></a><a style="cursor:pointer;" ewd:lineID="18"> d=" M  1223.80,   428.70  L  1223.80,   342.29 
	
		<path style="stroke:#000000;stroke-width: 5.10 ;&st6;" d=" M  1223.80,   428.70  L  1223.80,   342.29  " /><path style="stroke:#FFFFFF;stroke-width: 4.53 ;&st6;" d=" M  1223.80,   428.70  L  1223.80,   342.29  " /></a><a style="cursor:pointer;" ewd:lineID="19"><path style="stroke:#000000;stroke-width: 5.10 ;&st6;" d=" M  1266.29,   443.71  L  1266.29,   554.19  " /></a><a style="cursor:pointer;" ewd:lineID="20"><path style="stroke:#000000;stroke-width: 5.10 ;&st6;" d=" M  1266.29,   428.98  L  1266.29,   342.29  " /></a><a style="cursor:pointer;" ewd:lineID="21"><path style="stroke:#000000;stroke-width: 5.10 ;&st6;" d=" M  1266.29,   264.67  L  1266.29,   197.25  " /></a><a style="cursor:pointer;" ewd:lineID="22"> d=" M  1351.27,   443.71  L  1351.27,   554.19 
	
		<path style="stroke:#000000;stroke-width: 5.10 ;&st6;" d=" M  1351.27,   443.71  L  1351.27,   554.19  " /><path style="stroke:#FFFFFF;stroke-width: 4.53 ;&st6;" d=" M  1351.27,   443.71  L  1351.27,   554.19  " /></a><a style="cursor:pointer;" ewd:lineID="23"> d=" M  1351.27,   428.70  L  1351.27,   342.29 
	
		<path style="stroke:#000000;stroke-width: 5.10 ;&st6;" d=" M  1351.27,   428.70  L  1351.27,   342.29  " /><path style="stroke:#FFFFFF;stroke-width: 4.53 ;&st6;" d=" M  1351.27,   428.70  L  1351.27,   342.29  " /></a><a style="cursor:pointer;" ewd:lineID="24"><path style="stroke:#FFE600;stroke-width: 5.10 ;&st6;" d=" M  1359.77,   163.26  L  1359.77,   264.67  " /></a><a style="cursor:pointer;" ewd:lineID="25"><path style="stroke:#000000;stroke-width: 5.10 ;&st6;" d=" M  1393.77,   443.71  L  1393.77,   554.19  " /></a><a style="cursor:pointer;" ewd:lineID="26"><path style="stroke:#000000;stroke-width: 5.10 ;&st6;" d=" M  1393.77,   428.98  L  1393.77,   342.29  " /></a><a style="cursor:pointer;" ewd:lineID="27"><path style="stroke:#000000;stroke-width: 5.10 ;&st6;" d=" M  1393.77,   163.26  L  1393.77,   264.67  " /></a><a ewd:comment="1,3" style="cursor:pointer;" ewd:lineID="28"> d=" M  1631.73,   444.28  L  1631.73,   494.70 
	
		<path style="stroke:#000000;stroke-width: 5.10 ;&st6;" d=" M  1631.73,   444.28  L  1631.73,   494.70  " /><path style="stroke:#FFFFFF;stroke-width: 4.53 ;&st6;" d=" M  1631.73,   444.28  L  1631.73,   494.70  " /></a><a ewd:comment="1" style="cursor:pointer;" ewd:lineID="29"><path style="stroke:#008837;stroke-width: 5.10 ;&st6;" d=" M  1631.73,   383.09  L  1631.73,   342.29  " /></a><a ewd:comment="1,3" style="cursor:pointer;" ewd:lineID="30"><path style="stroke:#000000;stroke-width: 5.10 ;&st6;" d=" M  1665.72,   444.28  L  1665.72,   494.70  " /></a><a ewd:comment="1" style="cursor:pointer;" ewd:lineID="31"><path style="stroke:#FF0000;stroke-width: 5.10 ;&st6;" d=" M  1665.72,   383.09  L  1665.72,   342.29  " /></a><a ewd:comment="3" style="cursor:pointer;" ewd:lineID="32"><path style="stroke:#FFE600;stroke-width: 5.10 ;&st6;" d=" M  1708.21,   181.39  L  1708.21,   264.67  " /></a><a ewd:comment="3" style="cursor:pointer;" ewd:lineID="33"><path style="stroke:#FFE600;stroke-width: 5.10 ;&st6;" d=" M  1750.71,   181.39  L  1750.71,   264.67  " /><path style="stroke:#FFFFFF;stroke-width: 2.27 ;&st6;" d=" M  1750.71,   181.39  L  1750.71,   264.67  " /><path style="stroke:#000000;stroke-width: 1.13 ;&st6;" d=" M  1750.71,   181.39  L  1750.71,   264.67  " /></a><a style="cursor:pointer;" ewd:lineID="34"><path style="stroke:#FFE600;stroke-width: 5.10 ;&st6;" d=" M  1793.20,   401.22  L  1793.20,   351.36  " /><path style="stroke:#FFFFFF;stroke-width: 2.27 ;&st6;" d=" M  1793.20,   401.22  L  1793.20,   351.36  " /><path style="stroke:#000000;stroke-width: 1.13 ;&st6;" d=" M  1793.20,   401.22  L  1793.20,   351.36  " /></a><a style="cursor:pointer;" ewd:lineID="35"><path style="stroke:#FFE600;stroke-width: 5.10 ;&st6;" d=" M  1835.69,   401.22  L  1835.69,   351.36  " /></a><a ewd:comment="3" style="cursor:pointer;" ewd:lineID="36"><path style="stroke:#FFE600;stroke-width: 5.10 ;&st6;" d=" M  1835.69,   163.26  L  1835.69,   264.67  " /></a><a ewd:comment="3" style="cursor:pointer;" ewd:lineID="37"><path style="stroke:#FFE600;stroke-width: 5.10 ;&st6;" d=" M  1878.19,   163.26  L  1878.19,   264.67  " /><path style="stroke:#FFFFFF;stroke-width: 2.27 ;&st6;" d=" M  1878.19,   163.26  L  1878.19,   264.67  " /><path style="stroke:#000000;stroke-width: 1.13 ;&st6;" d=" M  1878.19,   163.26  L  1878.19,   264.67  " /></a><a ewd:comment="1,3" style="cursor:pointer;" ewd:lineID="38"> d=" M  1929.18,   444.28  L  1929.18,   494.70 
	
		<path style="stroke:#000000;stroke-width: 5.10 ;&st6;" d=" M  1929.18,   444.28  L  1929.18,   494.70  " /><path style="stroke:#FFFFFF;stroke-width: 4.53 ;&st6;" d=" M  1929.18,   444.28  L  1929.18,   494.70  " /></a><a ewd:comment="1" style="cursor:pointer;" ewd:lineID="39"><path style="stroke:#008837;stroke-width: 5.10 ;&st6;" d=" M  1929.18,   383.09  L  1929.18,   342.29  " /></a><a ewd:comment="1,3" style="cursor:pointer;" ewd:lineID="40"><path style="stroke:#000000;stroke-width: 5.10 ;&st6;" d=" M  1963.17,   444.28  L  1963.17,   494.70  " /></a><a ewd:comment="1" style="cursor:pointer;" ewd:lineID="41"><path style="stroke:#FF0000;stroke-width: 5.10 ;&st6;" d=" M  1963.17,   383.09  L  1963.17,   342.29  " /></a><a ewd:comment="1" style="cursor:pointer;" ewd:lineID="42"><path style="stroke:#FFE600;stroke-width: 5.10 ;&st6;" d=" M  1963.17,   163.26  L  1963.17,   264.67  " /><path style="stroke:#FFFFFF;stroke-width: 2.27 ;&st6;" d=" M  1963.17,   163.26  L  1963.17,   264.67  " /><path style="stroke:#000000;stroke-width: 1.13 ;&st6;" d=" M  1963.17,   163.26  L  1963.17,   264.67  " /></a><a ewd:comment="1" style="cursor:pointer;" ewd:lineID="43"><path style="stroke:#FFE600;stroke-width: 5.10 ;&st6;" d=" M  2005.66,   163.26  L  2005.66,   264.67  " /></a><a style="cursor:pointer;" ewd:lineID="44"><path style="stroke:#FFE600;stroke-width: 5.10 ;&st6;" d=" M  2116.15,   392.72  L  2116.15,   351.36  " /><path style="stroke:#FFFFFF;stroke-width: 2.27 ;&st6;" d=" M  2116.15,   392.72  L  2116.15,   351.36  " /><path style="stroke:#000000;stroke-width: 1.13 ;&st6;" d=" M  2116.15,   392.72  L  2116.15,   351.36  " /></a><a ewd:comment="1" style="cursor:pointer;" ewd:lineID="45"><path style="stroke:#FFE600;stroke-width: 5.10 ;&st6;" d=" M  2116.15,   163.26  L  2116.15,   264.67  " /><path style="stroke:#FFFFFF;stroke-width: 2.27 ;&st6;" d=" M  2116.15,   163.26  L  2116.15,   264.67  " /><path style="stroke:#000000;stroke-width: 1.13 ;&st6;" d=" M  2116.15,   163.26  L  2116.15,   264.67  " /></a><a style="cursor:pointer;" ewd:lineID="46"><path style="stroke:#FFE600;stroke-width: 5.10 ;&st6;" d=" M  2158.64,   392.72  L  2158.64,   351.36  " /></a><a ewd:comment="1" style="cursor:pointer;" ewd:lineID="47"><path style="stroke:#FFE600;stroke-width: 5.10 ;&st6;" d=" M  2158.64,   163.26  L  2158.64,   264.67  " /></a><a style="cursor:pointer;" ewd:lineID="48"><path style="stroke:#56077D;stroke-width: 5.10 ;&st6;" d=" M  2311.61,   273.74  L  2311.61,   231.25  L  2252.12,   231.25  L  2252.12,   264.67  " /></a><a style="cursor:pointer;" ewd:lineID="49"> d=" M  2345.61,   273.74  L  2345.61,   205.75  L  2218.13,   205.75  L  2218.13,   264.67 
	
		<path style="stroke:#000000;stroke-width: 5.10 ;&st6;" d=" M  2345.61,   273.74  L  2345.61,   205.75  L  2218.13,   205.75  L  2218.13,   264.67  " /><path style="stroke:#FFFFFF;stroke-width: 4.53 ;&st6;" d=" M  2345.61,   273.74  L  2345.61,   205.75  L  2218.13,   205.75  L  2218.13,   264.67  " /></a><a style="cursor:pointer;" ewd:lineID="50"><path style="stroke:#000000;stroke-width: 5.10 ;&st6;" d=" M  2396.60,   460.71  L  2396.60,   519.07  " /></a><a style="cursor:pointer;" ewd:lineID="51"><path style="stroke:#00A0C6;stroke-width: 5.10 ;&st6;" d=" M  2396.60,   384.22  L  2396.60,   443.71  " /></a><a style="cursor:pointer;" ewd:lineID="52"><path style="stroke:#00A0C6;stroke-width: 5.10 ;&st6;" d=" M  2396.60,   299.24  L  2396.60,   369.49  " /></a><a style="cursor:pointer;" ewd:lineID="53"><path style="stroke:#FF0000;stroke-width: 5.10 ;&st6;" d=" M  2396.60,   205.75  L  2396.60,   273.74  " /></a><a style="cursor:pointer;" ewd:lineID="54"> d=" M  2430.59,   460.71  L  2430.59,   519.07 
	
		<path style="stroke:#000000;stroke-width: 5.10 ;&st6;" d=" M  2430.59,   460.71  L  2430.59,   519.07  " /><path style="stroke:#FFFFFF;stroke-width: 4.53 ;&st6;" d=" M  2430.59,   460.71  L  2430.59,   519.07  " /></a><a style="cursor:pointer;" ewd:lineID="55"> d=" M  2430.59,   384.22  L  2430.59,   443.71 
	
		<path style="stroke:#000000;stroke-width: 5.10 ;&st6;" d=" M  2430.59,   384.22  L  2430.59,   443.71  " /><path style="stroke:#FFFFFF;stroke-width: 4.53 ;&st6;" d=" M  2430.59,   384.22  L  2430.59,   443.71  " /></a><a style="cursor:pointer;" ewd:lineID="56"> d=" M  2430.59,   369.21  L  2430.59,   299.24 
	
		<path style="stroke:#000000;stroke-width: 5.10 ;&st6;" d=" M  2430.59,   369.21  L  2430.59,   299.24  " /><path style="stroke:#FFFFFF;stroke-width: 4.53 ;&st6;" d=" M  2430.59,   369.21  L  2430.59,   299.24  " /></a><a style="cursor:pointer;" ewd:lineID="57"> d=" M  2430.59,   205.75  L  2430.59,   273.74 
	
		<path style="stroke:#000000;stroke-width: 5.10 ;&st6;" d=" M  2430.59,   205.75  L  2430.59,   273.74  " /><path style="stroke:#FFFFFF;stroke-width: 4.53 ;&st6;" d=" M  2430.59,   205.75  L  2430.59,   273.74  " /></a><a style="cursor:pointer;" ewd:lineID="58"> d=" M  2685.55,   205.75  L  2685.55,   273.17 
	
		<path style="stroke:#000000;stroke-width: 5.10 ;&st6;" d=" M  2685.55,   205.75  L  2685.55,   273.17  " /><path style="stroke:#FFFFFF;stroke-width: 4.53 ;&st6;" d=" M  2685.55,   205.75  L  2685.55,   273.17  " /></a><a style="cursor:pointer;" ewd:lineID="59"> d=" M  2685.55,   103.77  L  2685.55,   154.76 
	
		<path style="stroke:#000000;stroke-width: 5.10 ;&st6;" d=" M  2685.55,   103.77  L  2685.55,   154.76  " /><path style="stroke:#FFFFFF;stroke-width: 4.53 ;&st6;" d=" M  2685.55,   103.77  L  2685.55,   154.76  " /></a><a style="cursor:pointer;" ewd:lineID="60"> d=" M  2711.05,   520.76  L  2711.05,   596.69  L  2541.08,   596.69  L  2541.08,   299.24 
	
		<path style="stroke:#000000;stroke-width: 5.10 ;&st6;" d=" M  2711.05,   520.76  L  2711.05,   596.69  L  2541.08,   596.69  L  2541.08,   299.24  " /><path style="stroke:#FFFFFF;stroke-width: 4.53 ;&st6;" d=" M  2711.05,   520.76  L  2711.05,   596.69  L  2541.08,   596.69  L  2541.08,   299.24  " /></a><a style="cursor:pointer;" ewd:lineID="61"><path style="stroke:#7FC97F;stroke-width: 5.10 ;&st6;" d=" M  2745.04,   520.76  L  2745.04,   613.68  L  2507.08,   613.68  L  2507.08,   299.24  " /></a><a style="cursor:pointer;" ewd:lineID="62"><path style="stroke:#F668B2;stroke-width: 5.10 ;&st6;" d=" M  2753.54,   273.17  L  2753.54,   103.77  " /></a><a style="cursor:pointer;" ewd:lineID="63"><path style="stroke:#992903;stroke-width: 5.10 ;&st6;" d=" M  2847.02,   520.76  L  2847.02,   681.67  " /></a><a ewd:figtype="w2w" style="cursor:pointer;" ewd:pinNo="1" ewd:code="Ed1" ewd:figID="35"><path style="&st2;" d=" M   900.85,   435.21  L   883.85,   435.21  L   883.85,   443.71  L   900.85,   443.71  L   900.85,   435.21 " /><text style="&st8;" transform="matrix(&st16;  887.54  441.58 )"><tspan x="0" style="&st18;" y="0">Ed1</tspan></text></a><a ewd:figtype="w2w" style="cursor:pointer;" ewd:pinNo="2" ewd:code="Ed1" ewd:figID="36"><path style="&st2;" d=" M   943.34,   435.21  L   926.35,   435.21  L   926.35,   443.71  L   943.34,   443.71  L   943.34,   435.21 " /><text style="&st8;" transform="matrix(&st16;  930.03  441.58 )"><tspan x="0" style="&st18;" y="0">Ed1</tspan></text></a><a ewd:figtype="w2w" style="cursor:pointer;" ewd:pinNo="3" ewd:code="AE5" ewd:figID="37"><path style="&st2;" d=" M  1232.29,   435.21  L  1215.30,   435.21  L  1215.30,   443.71  L  1232.29,   443.71  L  1232.29,   435.21 " /><text style="&st8;" transform="matrix(&st16;  1218.49  441.58 )"><tspan x="0" style="&st18;" y="0">AE5</tspan></text></a><a ewd:figtype="w2w" style="cursor:pointer;" ewd:pinNo="4" ewd:code="AE5" ewd:figID="38"><path style="&st2;" d=" M  1274.79,   435.21  L  1257.79,   435.21  L  1257.79,   443.71  L  1274.79,   443.71  L  1274.79,   435.21 " /><text style="&st8;" transform="matrix(&st16;  1260.98  441.58 )"><tspan x="0" style="&st18;" y="0">AE5</tspan></text></a><a ewd:figtype="w2w" style="cursor:pointer;" ewd:pinNo="2" ewd:code="AE5" ewd:figID="39"><path style="&st2;" d=" M  1359.77,   435.21  L  1342.78,   435.21  L  1342.78,   443.71  L  1359.77,   443.71  L  1359.77,   435.21 " /><text style="&st8;" transform="matrix(&st16;  1345.97  441.58 )"><tspan x="0" style="&st18;" y="0">AE5</tspan></text></a><a ewd:figtype="w2w" style="cursor:pointer;" ewd:pinNo="1" ewd:code="AE5" ewd:figID="40"><path style="&st2;" d=" M  1402.27,   435.21  L  1385.27,   435.21  L  1385.27,   443.71  L  1402.27,   443.71  L  1402.27,   435.21 " /><text style="&st8;" transform="matrix(&st16;  1388.46  441.58 )"><tspan x="0" style="&st18;" y="0">AE5</tspan></text></a><a ewd:figtype="w2w" style="cursor:pointer;" ewd:pinNo="8" ewd:code="AE9" ewd:figID="41"><path style="&st2;" d=" M  2405.10,   375.72  L  2388.10,   375.72  L  2388.10,   384.22  L  2405.10,   384.22  L  2405.10,   375.72 " /><text style="&st8;" transform="matrix(&st16;  2391.29  382.09 )"><tspan x="0" style="&st18;" y="0">AE9</tspan></text></a><a ewd:figtype="w2w" style="cursor:pointer;" ewd:pinNo="7" ewd:code="AE9" ewd:figID="42"><path style="&st2;" d=" M  2439.09,   375.72  L  2422.10,   375.72  L  2422.10,   384.22  L  2439.09,   384.22  L  2439.09,   375.72 " /><text style="&st8;" transform="matrix(&st16;  2425.29  382.09 )"><tspan x="0" style="&st18;" y="0">AE9</tspan></text></a><a ewd:figtype="gp" style="cursor:pointer;" ewd:code="EA" ewd:figID="43"><path style="&st2;" d=" M   541.78,   681.67  L   563.03,   681.67  L   552.41,   697.25  L   541.78,   681.67 " /><text style="&st8;" transform="matrix(&st16;  548.61  689.46 )"><tspan x="0" style="&st18;" y="0">EA</tspan></text></a><a ewd:figtype="gp" style="cursor:pointer;" ewd:code="EB" ewd:figID="44"><path style="&st2;" d=" M   609.77,   681.67  L   631.02,   681.67  L   620.40,   697.25  L   609.77,   681.67 " /><text style="&st8;" transform="matrix(&st16;  616.71  689.46 )"><tspan x="0" style="&st18;" y="0">EB</tspan></text></a><a ewd:figtype="gp" style="cursor:pointer;" ewd:code="ED" ewd:figID="45"><path style="&st2;" d=" M  2836.40,   681.67  L  2857.65,   681.67  L  2847.02,   697.25  L  2836.40,   681.67 " /><text style="&st8;" transform="matrix(&st16;  2843.15  689.46 )"><tspan x="0" style="&st18;" y="0">ED</tspan></text></a></g></svg>