﻿<?xml version="1.0" encoding="utf-8"?>
<!DOCTYPE svg PUBLIC "-//W3C//DTD SVG 1.0//EN" "http://www.w3.org/TR/2001/REC-SVG-20010904/DTD/svg10.dtd"[
	<!ENTITY ns_flows "http://ns.adobe.com/Flows/1.0/">
	<!ENTITY ns_svg "http://www.w3.org/2000/svg">
	<!ENTITY ns_xlink "http://www.w3.org/1999/xlink">
	<!ENTITY st0 "font-size:7px;font-family:'MS-PGothic';adobe-font-script:japanese;">
	<!ENTITY st1 "font-size:6px;font-family:'ArialMT';">
	<!-- White fill  -->
	<!ENTITY st2 "fill:#FFFFFF;stroke:#000000; stroke-width:1.41;stroke-linecap:round;stroke-linejoin:round;">
	<!-- Yellow fill  -->
	<!ENTITY st3 "fill:#FFFFCC;stroke:#FFFFCC; stroke-width:0.1;stroke-linecap:round;stroke-linejoin:round;">
	<!-- Gray fill  -->
	<!ENTITY st4 "fill:#CCCCCC;stroke:#CCCCCC; stroke-width:0.1;stroke-linecap:round;stroke-linejoin:round;">
	<!-- Light-blue fill -->
	<!ENTITY st5 "fill:#CCECF4;stroke:#000000; stroke-width:1.133;stroke-linecap:round;stroke-linejoin:round;">
	<!ENTITY st6 "fill:none;stroke-linecap:butt; stroke-linejoin:round;">
	<!ENTITY st7 "fill:none;stroke:#000000;stroke-linecap:round;stroke-linejoin:round;">
	<!ENTITY st8 "enable-background:new    ;">
	<!-- Black fill -->
	<!ENTITY st9 "fill:#000000;stroke:#000000; stroke-linecap:round;stroke-linejoin:round;">
	<!-- SRS note   -->
	<!ENTITY st10 "font-size:9px;font-family:'ArialMT';">
	<!ENTITY st11 "font-size:9px;font-family:'Svg Symbol';">
	<!ENTITY st12 "font-size:6px;font-family:'Svg Symbol';">
	<!ENTITY st13 "fill:none;stroke:#ff0000;stroke-linecap:round;stroke-linejoin:round;">
	<!-- Yellow fill  -->
	<!ENTITY st14 "fill:#FFFF00;stroke:#FFFF00; stroke-width:0.1;stroke-linecap:round;stroke-linejoin:round;">
	<!ENTITY st15 "font-size:6px;font-family:'MS-PGothic';adobe-font-script:japanese;">
	<!ENTITY st16 "1.00 0.00 0.00 1.00">
	<!ENTITY st17 "0.00 -1.00 1.00 0.00">
	<!ENTITY st18 "font-size:6px;font-family:'Arial';">
	<!ENTITY st19 "font-size:9px;font-family:'Arial';">
	<!ENTITY st20 "font-size:6px;font-family:'MS-PGothic','MS PGothic';adobe-font-script:japanese;">
	<!ENTITY st21 "font-size:7px;font-family:'MS-PGothic','MS PGothic';adobe-font-script:japanese;">
	<!ATTLIST svg
		xmlns:ewd CDATA #FIXED "http://shcl.co.jp/ewd"
		xmlns:a CDATA #FIXED "http://ns.adobe.com/AdobeSVGViewerExtensions/3.0/"
		ewd:ver CDATA #IMPLIED
	>
	<!ATTLIST a
		ewd:lineID CDATA #IMPLIED
		ewd:groupID CDATA #IMPLIED
		ewd:figtype CDATA #IMPLIED
		ewd:code CDATA #IMPLIED
		ewd:figID CDATA #IMPLIED
		ewd:pinNo CDATA #IMPLIED
		ewd:comment CDATA #IMPLIED >
	<!ATTLIST g
		ewd:lineID CDATA #IMPLIED
		ewd:groupID CDATA #IMPLIED
		ewd:figtype CDATA #IMPLIED
		ewd:code CDATA #IMPLIED
		ewd:figID CDATA #IMPLIED
		ewd:pinNo CDATA #IMPLIED
		ewd:comment CDATA #IMPLIED >
	<!ATTLIST text
		ewd:textID CDATA #IMPLIED >
	<!ATTLIST title
		ewd:textID CDATA #IMPLIED >
]>
<!-- Generator: Shintec Hozumi YS   -->
<svg onload="call_execInitLoadProc_svg('system')" style="overflow:visible;  enable-background:new 0 0 3557.464 710.000" viewBox="0 0 3557.464 710.000" height="710.000" width="3557.464" xml:space="preserve" ewd:ver="2.1.2.9" xmlns="&ns_svg;" xmlns:a="http://ns.adobe.com/AdobeSVGViewerExtensions/3.0/" xmlns:ewd="http://shcl.co.jp/ewd" xmlns:xlink="&ns_xlink;"><script type="text/javascript" xlink:href="../../../../../system/js/ewd/fig/svgfig.js" xmlns:xlink="http://www.w3.org/1999/xlink" />
<g id="ewd_top"><a ewd:figtype="conn" style="cursor:pointer;" ewd:code="E49" ewd:figID="1"><path style="fill:#CCECF4;stroke:#000000; stroke-width:1.133; stroke-linecap:round;stroke-linejoin:round; " d=" M  2966.00,   350.23  L  2966.00,   384.22  L  3000.00,   384.22  L  3000.00,   350.23  L  2966.00,   350.23 " /><title ewd:textID="68">Telltale Light Assembly</title></a><a ewd:figtype="conn" style="cursor:pointer;" ewd:code="E60" ewd:figID="2"><path style="fill:#CCECF4;stroke:#000000; stroke-width:1.133; stroke-linecap:round;stroke-linejoin:round; " d=" M   620.40,   494.70  L   620.40,   630.68  L   739.38,   630.68  L   739.38,   494.70  L   620.40,   494.70 " /><title ewd:textID="30">Engine Switch</title></a><a ewd:figtype="conn" style="cursor:pointer;" ewd:code="E59" ewd:figID="3"><path style="fill:#CCECF4;stroke:#000000; stroke-width:1.133; stroke-linecap:round;stroke-linejoin:round; " d=" M   543.91,   452.21  L   722.38,   452.21  L   722.38,   401.22  L   543.91,   401.22  L   543.91,   452.21 " /><title ewd:textID="24">Certification ECU</title></a><a ewd:figtype="conn" style="cursor:pointer;" ewd:code="E55" ewd:figID="4"><path style="fill:#CCECF4;stroke:#000000; stroke-width:1.133; stroke-linecap:round;stroke-linejoin:round; " d=" M   356.94,   435.21  L   356.94,   460.71  L   475.92,   460.71  L   475.92,   435.21  L   356.94,   435.21 " /><title ewd:textID="46">No. 2 CAN Junction Connector</title></a><a ewd:figtype="rb" style="cursor:pointer;" ewd:code="FUSE8" ewd:figID="5"><path style="fill:#CCECF4;stroke:#000000; stroke-width:0; stroke-linecap:round;stroke-linejoin:round; " d=" M   208.22,    35.78  L   208.22,    78.27  L   233.71,    78.27  L   233.71,    35.78  L   208.22,    35.78 " /></a><a ewd:figtype="conn" style="cursor:pointer;" ewd:code="A61" ewd:figID="6"><path style="fill:#CCECF4;stroke:#000000; stroke-width:1.133; stroke-linecap:round;stroke-linejoin:round; " d=" M   212.46,   137.76  L   229.46,   137.76  L   229.46,   154.76  L   212.46,   154.76  L   212.46,   137.76 " /><title ewd:textID="50">No. 12 Junction Connector</title></a><a ewd:figtype="conn" style="cursor:pointer;" ewd:code="E120" ewd:figID="7"><path style="fill:#CCECF4;stroke:#000000; stroke-width:1.133; stroke-linecap:round;stroke-linejoin:round; " d=" M   203.97,   239.75  L   203.97,   273.74  L   237.96,   273.74  L   237.96,   239.75  L   203.97,   239.75 " /><title ewd:textID="29">Door Control Battery</title></a><a ewd:figtype="conn" style="cursor:pointer;" ewd:code="E46" ewd:figID="8"><path style="fill:#CCECF4;stroke:#000000; stroke-width:1.133; stroke-linecap:round;stroke-linejoin:round; " d=" M  1835.69,   316.23  L  1835.69,   367.22  L  1886.68,   367.22  L  1886.68,   316.23  L  1835.69,   316.23 " /><title ewd:textID="47">No. 2 Heater Control Sub-Assembly</title></a><a ewd:figtype="rb" style="cursor:pointer;" ewd:code="FUSE48" ewd:figID="9"><path style="fill:#CCECF4;stroke:#000000; stroke-width:0; stroke-linecap:round;stroke-linejoin:round; " d=" M   769.12,    35.78  L   769.12,    78.27  L   794.62,    78.27  L   794.62,    35.78  L   769.12,    35.78 " /></a><a ewd:figtype="conn" style="cursor:pointer;" ewd:code="E8,z12" ewd:figID="10"><path style="fill:#CCECF4;stroke:#000000; stroke-width:1.133; stroke-linecap:round;stroke-linejoin:round; " d=" M  2158.64,   299.24  L  2158.64,   316.23  L  2311.61,   316.23  L  2311.61,   299.24  L  2158.64,   299.24 " /><title ewd:textID="60">Spiral Cable Sub-Assembly , Steering Pad Switch Assembly</title></a><a ewd:figtype="conn" style="cursor:pointer;" ewd:code="z12" ewd:figID="11"><path style="fill:#CCECF4;stroke:#000000; stroke-width:1.133; stroke-linecap:round;stroke-linejoin:round; " d=" M  2311.61,   325.30  L  2311.61,   486.20  L  2158.64,   486.20  L  2158.64,   325.30  L  2311.61,   325.30 " /><title ewd:textID="60">Spiral Cable Sub-Assembly , Steering Pad Switch Assembly</title></a><a ewd:figtype="conn" style="cursor:pointer;" ewd:code="E16" ewd:figID="12"><path style="fill:#CCECF4;stroke:#000000; stroke-width:1.133; stroke-linecap:round;stroke-linejoin:round; " d=" M  2354.11,   316.23  L  2354.11,   350.23  L  2388.10,   350.23  L  2388.10,   316.23  L  2354.11,   316.23 " /><title ewd:textID="21">A/C Control Assembly</title></a><a ewd:figtype="conn" style="cursor:pointer;" ewd:code="E118" ewd:figID="13"><path style="fill:#CCECF4;stroke:#000000; stroke-width:1.133; stroke-linecap:round;stroke-linejoin:round; " d=" M  2362.61,   511.70  L  2362.61,   528.70  L  2694.05,   528.70  L  2694.05,   511.70  L  2362.61,   511.70 " /><title ewd:textID="51">No. 13 Junction Connector</title></a><a ewd:figtype="conn" style="cursor:pointer;" ewd:code="E41" ewd:figID="14"><path style="fill:#CCECF4;stroke:#000000; stroke-width:1.133; stroke-linecap:round;stroke-linejoin:round; " d=" M  2430.59,   282.24  L  2430.59,   418.22  L  2481.59,   418.22  L  2481.59,   282.24  L  2430.59,   282.24 " /><title ewd:textID="32">Hazard Warning Signal Switch Assembly</title></a><a ewd:figtype="conn" style="cursor:pointer;" ewd:code="E39" ewd:figID="15"><path style="fill:#CCECF4;stroke:#000000; stroke-width:1.133; stroke-linecap:round;stroke-linejoin:round; " d=" M  2796.03,   341.73  L  2796.03,   392.72  L  2847.02,   392.72  L  2847.02,   341.73  L  2796.03,   341.73 " /><title ewd:textID="69">Transmission Floor Shift Assembly</title></a><a ewd:figtype="conn" style="cursor:pointer;" ewd:code="E108,E113" ewd:figID="16"><path style="fill:#CCECF4;stroke:#000000; stroke-width:1.133; stroke-linecap:round;stroke-linejoin:round; " d=" M  2515.58,   282.24  L  2515.58,   418.22  L  2566.57,   418.22  L  2566.57,   282.24  L  2515.58,   282.24 " /><title ewd:textID="53">Outer Mirror Switch Assembly</title></a><a ewd:figtype="conn" style="cursor:pointer;" ewd:code="F3" ewd:figID="17"><path style="fill:#CCECF4;stroke:#000000; stroke-width:1.133; stroke-linecap:round;stroke-linejoin:round; " d=" M  3042.49,   350.23  L  3042.49,   384.22  L  3076.49,   384.22  L  3076.49,   350.23  L  3042.49,   350.23 " /><title ewd:textID="26">Clock Assembly</title></a><a ewd:figtype="conn" style="cursor:pointer;" ewd:code="E112" ewd:figID="18"><path style="fill:#CCECF4;stroke:#000000; stroke-width:1.133; stroke-linecap:round;stroke-linejoin:round; " d=" M  2881.02,   282.24  L  2881.02,   418.22  L  2932.01,   418.22  L  2932.01,   282.24  L  2881.02,   282.24 " /><title ewd:textID="54">Pattern Select Switch Assembly</title></a><a ewd:figtype="conn" style="cursor:pointer;" ewd:code="E117" ewd:figID="19"><path style="fill:#CCECF4;stroke:#000000; stroke-width:1.133; stroke-linecap:round;stroke-linejoin:round; " d=" M  2634.56,   350.23  L  2634.56,   384.22  L  2668.55,   384.22  L  2668.55,   350.23  L  2634.56,   350.23 " /><title ewd:textID="31">Glove Box Light Assembly</title></a><a ewd:figtype="conn" style="cursor:pointer;" ewd:code="E1,E104" ewd:figID="20"><path style="fill:#CCECF4;stroke:#000000; stroke-width:1.133; stroke-linecap:round;stroke-linejoin:round; " d=" M  2736.54,   350.23  L  2736.54,   384.22  L  2770.54,   384.22  L  2770.54,   350.23  L  2736.54,   350.23 " /><title ewd:textID="44">Navigation Receiver Assembly , Radio Receiver Assembly</title></a><a ewd:figtype="conn" style="cursor:pointer;" ewd:code="E19" ewd:figID="21"><path style="fill:#CCECF4;stroke:#000000; stroke-width:1.133; stroke-linecap:round;stroke-linejoin:round; " d=" M  1988.67,   316.23  L  1988.67,   367.22  L  2039.66,   367.22  L  2039.66,   316.23  L  1988.67,   316.23 " /><title ewd:textID="49">No. 3 Heater Control Sub-Assembly</title></a><a ewd:figtype="conn" style="cursor:pointer;" ewd:code="E45" ewd:figID="22"><path style="fill:#CCECF4;stroke:#000000; stroke-width:1.133; stroke-linecap:round;stroke-linejoin:round; " d=" M  1912.18,   316.23  L  1912.18,   367.22  L  1963.17,   367.22  L  1963.17,   316.23  L  1912.18,   316.23 " /><title ewd:textID="45">No. 1 Heater Control Sub-Assembly</title></a><a ewd:figtype="conn" style="cursor:pointer;" ewd:code="E43" ewd:figID="23"><path style="fill:#CCECF4;stroke:#000000; stroke-width:1.133; stroke-linecap:round;stroke-linejoin:round; " d=" M  3280.45,   197.25  L  3280.45,   503.20  L  3535.41,   503.20  L  3535.41,   197.25  L  3280.45,   197.25 " /><title ewd:textID="27">Combination Meter Assembly</title></a><a ewd:figtype="rb" style="cursor:pointer;" ewd:code="FUSE9" ewd:figID="24"><path style="fill:#CCECF4;stroke:#000000; stroke-width:0; stroke-linecap:round;stroke-linejoin:round; " d=" M  3335.69,    35.78  L  3335.69,    78.27  L  3361.19,    78.27  L  3361.19,    35.78  L  3335.69,    35.78 " /></a><a ewd:figtype="conn" style="cursor:pointer;" ewd:code="L65,L97" ewd:figID="25"><path style="fill:#CCECF4;stroke:#000000; stroke-width:1.133; stroke-linecap:round;stroke-linejoin:round; " d=" M   934.84,   426.71  L   934.84,   477.71  L   985.84,   477.71  L   985.84,   426.71  L   934.84,   426.71 " /><title ewd:textID="57">Rear Combination Light Assembly RH</title></a><a ewd:figtype="conn" style="cursor:pointer;" ewd:code="L4" ewd:figID="26"><path style="fill:#CCECF4;stroke:#000000; stroke-width:1.133; stroke-linecap:round;stroke-linejoin:round; " d=" M  1104.82,   452.21  L  1104.82,   452.21  C  1104.81    447.48   1100.98    443.66   1096.26    443.66  L  1096.26,   443.66  C  1091.53    443.66   1087.70    447.49   1087.70    452.21  L  1087.70,   452.21  C  1087.71    456.94   1091.54    460.77   1096.26    460.77  L  1096.26,   460.77  C  1100.99    460.77   1104.81    456.94   1104.82    452.21 " /><title ewd:textID="40">License Plate Light Assembly RH</title></a><a ewd:figtype="conn" style="cursor:pointer;" ewd:code="L3" ewd:figID="27"><path style="fill:#CCECF4;stroke:#000000; stroke-width:1.133; stroke-linecap:round;stroke-linejoin:round; " d=" M  1155.81,   452.21  L  1155.81,   452.21  C  1155.81    447.48   1151.98    443.66   1147.25    443.66  L  1147.25,   443.66  C  1142.53    443.66   1138.70    447.49   1138.70    452.21  L  1138.70,   452.21  C  1138.70    456.94   1142.53    460.77   1147.25    460.77  L  1147.25,   460.77  C  1151.98    460.77   1155.81    456.94   1155.81    452.21 " /><title ewd:textID="39">License Plate Light Assembly LH</title></a><a ewd:figtype="conn" style="cursor:pointer;" ewd:code="L64,L98" ewd:figID="28"><path style="fill:#CCECF4;stroke:#000000; stroke-width:1.133; stroke-linecap:round;stroke-linejoin:round; " d=" M   841.36,   426.71  L   841.36,   477.71  L   892.35,   477.71  L   892.35,   426.71  L   841.36,   426.71 " /><title ewd:textID="56">Rear Combination Light Assembly LH</title></a><a ewd:figtype="conn" style="cursor:pointer;" ewd:code="L66" ewd:figID="29"><path style="fill:#CCECF4;stroke:#000000; stroke-width:1.133; stroke-linecap:round;stroke-linejoin:round; " d=" M  1189.80,   426.71  L  1189.80,   477.71  L  1240.79,   477.71  L  1240.79,   426.71  L  1189.80,   426.71 " /><title ewd:textID="56">Rear Combination Light Assembly LH</title></a><a ewd:figtype="conn" style="cursor:pointer;" ewd:code="L96" ewd:figID="30"><path style="fill:#CCECF4;stroke:#000000; stroke-width:1.133; stroke-linecap:round;stroke-linejoin:round; " d=" M  1444.76,   409.72  L  1444.76,   494.70  L  1495.75,   494.70  L  1495.75,   409.72  L  1444.76,   409.72 " /><title ewd:textID="57">Rear Combination Light Assembly RH</title></a><a ewd:figtype="conn" style="cursor:pointer;" ewd:code="L95" ewd:figID="31"><path style="fill:#CCECF4;stroke:#000000; stroke-width:1.133; stroke-linecap:round;stroke-linejoin:round; " d=" M  1274.79,   409.72  L  1274.79,   494.70  L  1325.78,   494.70  L  1325.78,   409.72  L  1274.79,   409.72 " /><title ewd:textID="56">Rear Combination Light Assembly LH</title></a><a ewd:figtype="conn" style="cursor:pointer;" ewd:code="L67" ewd:figID="32"><path style="fill:#CCECF4;stroke:#000000; stroke-width:1.133; stroke-linecap:round;stroke-linejoin:round; " d=" M  1359.77,   426.71  L  1359.77,   477.71  L  1410.76,   477.71  L  1410.76,   426.71  L  1359.77,   426.71 " /><title ewd:textID="57">Rear Combination Light Assembly RH</title></a><a ewd:figtype="conn" style="cursor:pointer;" ewd:code="A45" ewd:figID="33"><path style="fill:#CCECF4;stroke:#000000; stroke-width:1.133; stroke-linecap:round;stroke-linejoin:round; " d=" M  1691.22,   443.71  L  1691.22,   528.70  L  1742.21,   528.70  L  1742.21,   443.71  L  1691.22,   443.71 " /><title ewd:textID="35">Headlight Assembly RH</title></a><a ewd:figtype="conn" style="cursor:pointer;" ewd:code="A43" ewd:figID="34"><path style="fill:#CCECF4;stroke:#000000; stroke-width:1.133; stroke-linecap:round;stroke-linejoin:round; " d=" M  1597.73,   443.71  L  1597.73,   528.70  L  1648.72,   528.70  L  1648.72,   443.71  L  1597.73,   443.71 " /><title ewd:textID="34">Headlight Assembly LH</title></a><a ewd:figtype="conn" style="cursor:pointer;" ewd:code="E10" ewd:figID="35"><path style="fill:#CCECF4;stroke:#000000; stroke-width:1.133; stroke-linecap:round;stroke-linejoin:round; " d=" M    17.00,   426.71  L    17.00,   545.69  L   271.95,   545.69  L   271.95,   426.71  L    17.00,   426.71 " /><title ewd:textID="36">Headlight Dimmer Switch Assembly</title></a><a ewd:figtype="conn" style="cursor:pointer;" ewd:code="E121" ewd:figID="36"><path style="fill:#CCECF4;stroke:#000000; stroke-width:1.133; stroke-linecap:round;stroke-linejoin:round; " d=" M  3152.97,   282.24  L  3152.97,   418.22  L  3203.96,   418.22  L  3203.96,   282.24  L  3152.97,   282.24 " /><title ewd:textID="54">Pattern Select Switch Assembly</title></a><a ewd:figtype="conn" style="cursor:pointer;" ewd:code="E53" ewd:figID="37"><path style="fill:#CCECF4;stroke:#000000; stroke-width:1.133; stroke-linecap:round;stroke-linejoin:round; " d=" M  1852.69,   103.77  L  1852.69,   154.76  L  3203.96,   154.76  L  3203.96,   103.77  L  1852.69,   103.77 " /><title ewd:textID="48">No. 2 Junction Connector</title></a><a ewd:figtype="rb" style="cursor:pointer;" ewd:code="1" ewd:figID="38"><path style="fill:#CCECF4;stroke:#000000; stroke-width:0; stroke-linecap:round;stroke-linejoin:round; " d=" M  1801.70,   231.25  L  1759.21,   231.25  L  1759.21,   265.24  L  1801.70,   265.24  L  1801.70,   231.25 " /></a><a ewd:figtype="rb" style="cursor:pointer;" ewd:code="FUSE6" ewd:figID="39"><path style="fill:#CCECF4;stroke:#000000; stroke-width:0; stroke-linecap:round;stroke-linejoin:round; " d=" M  1737.96,    78.27  L  1737.96,   120.77  L  1763.46,   120.77  L  1763.46,    78.27  L  1737.96,    78.27 " /></a><a ewd:figtype="conn" style="cursor:pointer;" ewd:code="E31" ewd:figID="40"><path style="fill:#CCECF4;stroke:#000000; stroke-width:1.133; stroke-linecap:round;stroke-linejoin:round; " d=" M    50.99,   341.73  L    50.99,   375.72  L   815.86,   375.72  L   815.86,   341.73  L    50.99,   341.73 " /><title ewd:textID="42">Main Body ECU</title></a><a ewd:figtype="jb" style="cursor:pointer;" ewd:code="10" ewd:figID="46"><path style="&st4; " d=" M    50.99,   341.73  L   229.46,   341.73  L   229.46,   307.73  L   186.97,   307.73  L   186.97,    35.78  L    50.99,    35.78  L    50.99,   341.73  " /></a><a ewd:figtype="jb" style="cursor:pointer;" ewd:code="10" ewd:figID="47"><path style="&st4; " d=" M   314.45,   554.19  L   339.94,   554.19  L   339.94,   503.20  L   314.45,   503.20  L   314.45,   554.19  " /></a><a ewd:figtype="jb" style="cursor:pointer;" ewd:code="10" ewd:figID="48"><path style="&st4; " d=" M  2099.15,   392.72  L  2124.65,   392.72  L  2124.65,   341.73  L  2099.15,   341.73  L  2099.15,   392.72  " /></a><a ewd:figtype="jb" style="cursor:pointer;" ewd:code="1" ewd:figID="49"><path style="&st4; " d=" M   764.87,    95.27  L   764.87,   103.77  L   790.37,   103.77  L   790.37,    95.27  L   764.87,    95.27  " /></a><a ewd:figtype="jb" style="cursor:pointer;" ewd:code="10" ewd:figID="50"><path style="&st4; " d=" M  3492.92,    35.78  L  3492.92,   103.77  L  3552.41,   103.77  L  3552.41,    35.78  L  3492.92,    35.78  " /></a><a ewd:figtype="jb" style="cursor:pointer;" ewd:code="10" ewd:figID="51"><path style="&st4; " d=" M  3424.93,    69.77  L  3424.93,   120.77  L  3450.42,   120.77  L  3450.42,    69.77  L  3424.93,    69.77  " /></a><a ewd:figtype="jb" style="cursor:pointer;" ewd:code="10" ewd:figID="52"><path style="&st4; " d=" M   739.38,   341.73  L   798.87,   341.73  L   798.87,   290.74  L  1725.21,   290.74  L  1725.21,   248.24  L  1283.29,   248.24  L  1283.29,   146.26  L   739.38,   146.26  L   739.38,   341.73  " /></a><a ewd:figtype="jb" style="cursor:pointer;" ewd:code="10" ewd:figID="53"><path style="&st4; " d=" M   756.37,   418.22  L   807.37,   418.22  L   807.37,   375.72  L   756.37,   375.72  L   756.37,   418.22  " /></a><a ewd:figtype="fuse" style="cursor:pointer;" ewd:code="FUSE54" ewd:figID="80"><path style="&st7; stroke-width:0;" d=" M    55.24,    35.78  L    55.24,    78.27  L    80.74,    78.27  L    80.74,    35.78  L    55.24,    35.78 " /></a><a ewd:figtype="fuse" style="cursor:pointer;" ewd:code="FUSE55" ewd:figID="81"><path style="&st7; stroke-width:0;" d=" M   123.23,    35.78  L   123.23,    78.27  L   148.73,    78.27  L   148.73,    35.78  L   123.23,    35.78 " /></a><a ewd:figtype="fuse" style="cursor:pointer;" ewd:code="FUSE8" ewd:figID="82"><path style="&st7; stroke-width:0;" d=" M   208.22,    35.78  L   208.22,    78.27  L   233.71,    78.27  L   233.71,    35.78  L   208.22,    35.78 " /></a><a ewd:figtype="fuse" style="cursor:pointer;" ewd:code="FUSE48" ewd:figID="83"><path style="&st7; stroke-width:0;" d=" M   769.12,    35.78  L   769.12,    78.27  L   794.62,    78.27  L   794.62,    35.78  L   769.12,    35.78 " /></a><a ewd:figtype="fuse" style="cursor:pointer;" ewd:code="FUSE52" ewd:figID="84"><path style="&st7; stroke-width:0;" d=" M  1109.06,   188.75  L  1109.06,   231.25  L  1134.56,   231.25  L  1134.56,   188.75  L  1109.06,   188.75 " /></a><a ewd:figtype="fuse" style="cursor:pointer;" ewd:code="FUSE65" ewd:figID="85"><path style="&st7; stroke-width:0;" d=" M  1219.55,   188.75  L  1219.55,   231.25  L  1245.04,   231.25  L  1245.04,   188.75  L  1219.55,   188.75 " /></a><a ewd:figtype="fuse" style="cursor:pointer;" ewd:code="FUSE6" ewd:figID="86"><path style="&st7; stroke-width:0;" d=" M  1737.96,    78.27  L  1737.96,   120.77  L  1763.46,   120.77  L  1763.46,    78.27  L  1737.96,    78.27 " /></a><a ewd:figtype="fuse" style="cursor:pointer;" ewd:code="FUSE9" ewd:figID="87"><path style="&st7; stroke-width:0;" d=" M  3335.69,    35.78  L  3335.69,    78.27  L  3361.19,    78.27  L  3361.19,    35.78  L  3335.69,    35.78 " /></a><a ewd:figtype="fuse" style="cursor:pointer;" ewd:code="FUSE51" ewd:figID="88"><path style="&st7; stroke-width:0;" d=" M  3497.17,    35.78  L  3497.17,    78.27  L  3522.66,    78.27  L  3522.66,    35.78  L  3497.17,    35.78 " /></a><a style="cursor:pointer;" ewd:lineID="1"> d=" M   135.98,   384.79  L   135.98,   426.71 
	
		<path style="stroke:#000000;stroke-width: 5.10 ;&st6;" d=" M   135.98,   384.79  L   135.98,   426.71  " /><path style="stroke:#FFFFFF;stroke-width: 4.53 ;&st6;" d=" M   135.98,   384.79  L   135.98,   426.71  " /></a><a style="cursor:pointer;" ewd:lineID="2"><path style="stroke:#56077D;stroke-width: 5.10 ;&st6;" d=" M   220.96,   273.74  L   220.96,   307.73  " /></a><a style="cursor:pointer;" ewd:lineID="3"><path style="stroke:#FF0000;stroke-width: 5.10 ;&st6;" d=" M   220.96,   239.75  L   220.96,   203.48  " /></a><a style="cursor:pointer;" ewd:lineID="4"><path style="stroke:#FF0000;stroke-width: 5.10 ;&st6;" d=" M   220.96,   154.76  L   220.96,   188.75  " /></a><a style="cursor:pointer;" ewd:lineID="5"><path style="stroke:#FF0000;stroke-width: 5.10 ;&st6;" d=" M   220.96,   103.77  L   220.96,   137.76  " /></a><a style="cursor:pointer;" ewd:lineID="6"><path style="stroke:#000000;stroke-width: 5.10 ;&st6;" d=" M   331.44,   681.67  L   331.44,   554.19  " /><path style="stroke:#FFFFFF;stroke-width: 4.53 ;&st6;" d=" M   331.44,   681.67  L   331.44,   554.19  " /><path style="stroke:#000000;stroke-width: 1.13 ;&st6;" d=" M   331.44,   681.67  L   331.44,   554.19  " /></a><a style="cursor:pointer;" ewd:lineID="7"><path style="stroke:#000000;stroke-width: 5.10 ;&st6;" d=" M   331.44,   503.20  L   331.44,   477.71  L   297.45,   477.71  L   297.45,   588.19  L   237.96,   588.19  L   237.96,   545.69  " /><path style="stroke:#FFFFFF;stroke-width: 4.53 ;&st6;" d=" M   331.44,   503.20  L   331.44,   477.71  L   297.45,   477.71  L   297.45,   588.19  L   237.96,   588.19  L   237.96,   545.69  " /><path style="stroke:#000000;stroke-width: 1.13 ;&st6;" d=" M   331.44,   503.20  L   331.44,   477.71  L   297.45,   477.71  L   297.45,   588.19  L   237.96,   588.19  L   237.96,   545.69  " /></a><a style="cursor:pointer;" ewd:lineID="8"><path style="stroke:#000000;stroke-width: 5.10 ;&st6;" d=" M   365.44,   384.79  L   365.44,   435.21  " /></a><a style="cursor:pointer;" ewd:lineID="9"> d=" M   399.43,   460.71  L   399.43,   647.68  L   866.86,   647.68  L   866.86,   622.18  L  3399.43,   622.18  L  3399.43,   512.27 
	
		<path style="stroke:#000000;stroke-width: 5.10 ;&st6;" d=" M   399.43,   460.71  L   399.43,   647.68  L   866.86,   647.68  L   866.86,   622.18  L  3399.43,   622.18  L  3399.43,   512.27  " /><path style="stroke:#FFFFFF;stroke-width: 4.53 ;&st6;" d=" M   399.43,   460.71  L   399.43,   647.68  L   866.86,   647.68  L   866.86,   622.18  L  3399.43,   622.18  L  3399.43,   512.27  " /></a><a style="cursor:pointer;" ewd:lineID="10"> d=" M   399.43,   384.79  L   399.43,   435.21 
	
		<path style="stroke:#000000;stroke-width: 5.10 ;&st6;" d=" M   399.43,   384.79  L   399.43,   435.21  " /><path style="stroke:#FFFFFF;stroke-width: 4.53 ;&st6;" d=" M   399.43,   384.79  L   399.43,   435.21  " /></a><a ewd:comment="9" style="cursor:pointer;" ewd:lineID="11"><path style="stroke:#F668B2;stroke-width: 5.10 ;&st6;" d=" M   560.91,   461.27  L   560.91,   554.19  L   467.42,   554.19  L   467.42,   460.71  " /></a><a ewd:comment="9" style="cursor:pointer;" ewd:lineID="12"> d=" M   594.90,   461.27  L   594.90,   579.69  L   433.43,   579.69  L   433.43,   460.71 
	
		<path style="stroke:#000000;stroke-width: 5.10 ;&st6;" d=" M   594.90,   461.27  L   594.90,   579.69  L   433.43,   579.69  L   433.43,   460.71  " /><path style="stroke:#FFFFFF;stroke-width: 4.53 ;&st6;" d=" M   594.90,   461.27  L   594.90,   579.69  L   433.43,   579.69  L   433.43,   460.71  " /></a><a ewd:comment="9" style="cursor:pointer;" ewd:lineID="13"><path style="stroke:#008837;stroke-width: 5.10 ;&st6;" d=" M   662.89,   461.27  L   662.89,   494.70  " /></a><a ewd:comment="9" style="cursor:pointer;" ewd:lineID="14"><path style="stroke:#992903;stroke-width: 5.10 ;&st6;" d=" M   705.38,   461.27  L   705.38,   494.70  " /></a><a style="cursor:pointer;" ewd:lineID="15"><path style="stroke:#000000;stroke-width: 5.10 ;&st6;" d=" M   773.37,   418.22  L   773.37,   681.67  " /><path style="stroke:#FFFFFF;stroke-width: 4.53 ;&st6;" d=" M   773.37,   418.22  L   773.37,   681.67  " /><path style="stroke:#000000;stroke-width: 1.13 ;&st6;" d=" M   773.37,   418.22  L   773.37,   681.67  " /></a><a style="cursor:pointer;" ewd:lineID="16"> d=" M   781.87,   103.77  L   781.87,   146.26 
	
		<path style="stroke:#000000;stroke-width: 5.10 ;&st6;" d=" M   781.87,   103.77  L   781.87,   146.26  " /><path style="stroke:#FFFFFF;stroke-width: 4.53 ;&st6;" d=" M   781.87,   103.77  L   781.87,   146.26  " /></a><a style="cursor:pointer;" ewd:lineID="17"><path style="stroke:#000000;stroke-width: 5.10 ;&st6;" d=" M   866.86,   495.84  L   866.86,   554.19  L   951.84,   554.19  " /><path style="stroke:#FFFFFF;stroke-width: 4.53 ;&st6;" d=" M   866.86,   495.84  L   866.86,   554.19  L   951.84,   554.19  " /><path style="stroke:#000000;stroke-width: 1.13 ;&st6;" d=" M   866.86,   495.84  L   866.86,   554.19  L   951.84,   554.19  " /></a><a style="cursor:pointer;" ewd:lineID="18"><path style="stroke:#008837;stroke-width: 5.10 ;&st6;" d=" M   866.86,   408.58  L   866.86,   333.23  L  1079.32,   333.23  L  1090.30,   344.21  " /></a><a style="cursor:pointer;" ewd:lineID="19"><path style="stroke:#000000;stroke-width: 5.10 ;&st6;" d=" M   960.34,   681.67  L   960.34,   673.17  L   968.84,   664.67  L  1215.30,   664.67  L  1215.30,   562.69  " /><path style="stroke:#FFFFFF;stroke-width: 4.53 ;&st6;" d=" M   960.34,   681.67  L   960.34,   673.17  L   968.84,   664.67  L  1215.30,   664.67  L  1215.30,   562.69  " /><path style="stroke:#000000;stroke-width: 1.13 ;&st6;" d=" M   960.34,   681.67  L   960.34,   673.17  L   968.84,   664.67  L  1215.30,   664.67  L  1215.30,   562.69  " /></a><a style="cursor:pointer;" ewd:lineID="20"><path style="stroke:#000000;stroke-width: 5.10 ;&st6;" d=" M   960.34,   562.69  L   960.34,   681.67  " /><path style="stroke:#FFFFFF;stroke-width: 4.53 ;&st6;" d=" M   960.34,   562.69  L   960.34,   681.67  " /><path style="stroke:#000000;stroke-width: 1.13 ;&st6;" d=" M   960.34,   562.69  L   960.34,   681.67  " /></a><a style="cursor:pointer;" ewd:lineID="21"><path style="stroke:#000000;stroke-width: 5.10 ;&st6;" d=" M   960.34,   495.84  L   960.34,   545.69  " /><path style="stroke:#FFFFFF;stroke-width: 4.53 ;&st6;" d=" M   960.34,   495.84  L   960.34,   545.69  " /><path style="stroke:#000000;stroke-width: 1.13 ;&st6;" d=" M   960.34,   495.84  L   960.34,   545.69  " /></a><a style="cursor:pointer;" ewd:lineID="22"><path style="stroke:#008837;stroke-width: 5.10 ;&st6;" d=" M   960.34,   408.58  L   960.34,   350.23  L  1087.82,   350.23  " /></a><a style="cursor:pointer;" ewd:lineID="23"><path style="stroke:#000000;stroke-width: 5.10 ;&st6;" d=" M   968.84,   554.19  L  1087.82,   554.19  " /><path style="stroke:#FFFFFF;stroke-width: 4.53 ;&st6;" d=" M   968.84,   554.19  L  1087.82,   554.19  " /><path style="stroke:#000000;stroke-width: 1.13 ;&st6;" d=" M   968.84,   554.19  L  1087.82,   554.19  " /></a><a style="cursor:pointer;" ewd:lineID="24"><path style="stroke:#000000;stroke-width: 5.10 ;&st6;" d=" M  1096.32,   460.71  L  1096.32,   545.69  " /><path style="stroke:#FFFFFF;stroke-width: 4.53 ;&st6;" d=" M  1096.32,   460.71  L  1096.32,   545.69  " /><path style="stroke:#000000;stroke-width: 1.13 ;&st6;" d=" M  1096.32,   460.71  L  1096.32,   545.69  " /></a><a style="cursor:pointer;" ewd:lineID="25"><path style="stroke:#008837;stroke-width: 5.10 ;&st6;" d=" M  1096.32,   443.71  L  1096.32,   358.73  " /></a><a style="cursor:pointer;" ewd:lineID="26"><path style="stroke:#008837;stroke-width: 5.10 ;&st6;" d=" M  1096.32,   290.74  L  1096.32,   341.73  " /></a><a style="cursor:pointer;" ewd:lineID="27"><path style="stroke:#000000;stroke-width: 5.10 ;&st6;" d=" M  1104.82,   554.19  L  1147.31,   554.19  L  1147.31,   460.71  " /><path style="stroke:#FFFFFF;stroke-width: 4.53 ;&st6;" d=" M  1104.82,   554.19  L  1147.31,   554.19  L  1147.31,   460.71  " /><path style="stroke:#000000;stroke-width: 1.13 ;&st6;" d=" M  1104.82,   554.19  L  1147.31,   554.19  L  1147.31,   460.71  " /></a><a style="cursor:pointer;" ewd:lineID="28"><path style="stroke:#008837;stroke-width: 5.10 ;&st6;" d=" M  1104.82,   350.23  L  1138.81,   350.23  " /></a><a style="cursor:pointer;" ewd:lineID="29"><path style="stroke:#008837;stroke-width: 5.10 ;&st6;" d=" M  1121.81,   146.26  L  1121.81,    27.28  L  2753.54,    27.28  L  2753.54,   103.77  " /></a><a style="cursor:pointer;" ewd:lineID="30"><path style="stroke:#008837;stroke-width: 5.10 ;&st6;" d=" M  1147.31,   358.73  L  1147.31,   443.71  " /></a><a style="cursor:pointer;" ewd:lineID="31"><path style="stroke:#7FC97F;stroke-width: 5.10 ;&st6;" d=" M  1155.81,   146.26  L  1155.81,    52.78  L  1861.19,    52.78  L  1861.19,   103.77  " /></a><a style="cursor:pointer;" ewd:lineID="32"><path style="stroke:#008837;stroke-width: 5.10 ;&st6;" d=" M  1206.80,   350.23  L  1155.81,   350.23  " /></a><a ewd:comment="8" style="cursor:pointer;" ewd:lineID="33"><path style="stroke:#000000;stroke-width: 5.10 ;&st6;" d=" M  1215.30,   477.71  L  1215.30,   545.69  " /><path style="stroke:#FFFFFF;stroke-width: 4.53 ;&st6;" d=" M  1215.30,   477.71  L  1215.30,   545.69  " /><path style="stroke:#000000;stroke-width: 1.13 ;&st6;" d=" M  1215.30,   477.71  L  1215.30,   545.69  " /></a><a ewd:comment="8" style="cursor:pointer;" ewd:lineID="34"><path style="stroke:#008837;stroke-width: 5.10 ;&st6;" d=" M  1215.30,   358.73  L  1215.30,   426.71  " /></a><a style="cursor:pointer;" ewd:lineID="35"><path style="stroke:#000000;stroke-width: 5.10 ;&st6;" d=" M  1291.78,   554.19  L  1223.80,   554.19  " /><path style="stroke:#FFFFFF;stroke-width: 4.53 ;&st6;" d=" M  1291.78,   554.19  L  1223.80,   554.19  " /><path style="stroke:#000000;stroke-width: 1.13 ;&st6;" d=" M  1291.78,   554.19  L  1223.80,   554.19  " /></a><a style="cursor:pointer;" ewd:lineID="36"><path style="stroke:#008837;stroke-width: 5.10 ;&st6;" d=" M  1291.78,   350.23  L  1223.80,   350.23  " /></a><a ewd:comment="7" style="cursor:pointer;" ewd:lineID="37"><path style="stroke:#000000;stroke-width: 5.10 ;&st6;" d=" M  1300.28,   494.70  L  1300.28,   545.69  " /><path style="stroke:#FFFFFF;stroke-width: 4.53 ;&st6;" d=" M  1300.28,   494.70  L  1300.28,   545.69  " /><path style="stroke:#000000;stroke-width: 1.13 ;&st6;" d=" M  1300.28,   494.70  L  1300.28,   545.69  " /></a><a ewd:comment="7" style="cursor:pointer;" ewd:lineID="38"><path style="stroke:#008837;stroke-width: 5.10 ;&st6;" d=" M  1300.28,   358.73  L  1300.28,   409.72  " /></a><a style="cursor:pointer;" ewd:lineID="39"><path style="stroke:#000000;stroke-width: 5.10 ;&st6;" d=" M  1376.77,   554.19  L  1308.78,   554.19  " /><path style="stroke:#FFFFFF;stroke-width: 4.53 ;&st6;" d=" M  1376.77,   554.19  L  1308.78,   554.19  " /><path style="stroke:#000000;stroke-width: 1.13 ;&st6;" d=" M  1376.77,   554.19  L  1308.78,   554.19  " /></a><a style="cursor:pointer;" ewd:lineID="40"><path style="stroke:#008837;stroke-width: 5.10 ;&st6;" d=" M  1376.77,   350.23  L  1308.78,   350.23  " /></a><a ewd:comment="8" style="cursor:pointer;" ewd:lineID="41"><path style="stroke:#000000;stroke-width: 5.10 ;&st6;" d=" M  1385.27,   477.71  L  1385.27,   545.69  " /><path style="stroke:#FFFFFF;stroke-width: 4.53 ;&st6;" d=" M  1385.27,   477.71  L  1385.27,   545.69  " /><path style="stroke:#000000;stroke-width: 1.13 ;&st6;" d=" M  1385.27,   477.71  L  1385.27,   545.69  " /></a><a ewd:comment="8" style="cursor:pointer;" ewd:lineID="42"><path style="stroke:#008837;stroke-width: 5.10 ;&st6;" d=" M  1385.27,   358.73  L  1385.27,   426.71  " /></a><a ewd:comment="7" style="cursor:pointer;" ewd:lineID="43"><path style="stroke:#000000;stroke-width: 5.10 ;&st6;" d=" M  1470.25,   494.70  L  1470.25,   554.19  L  1393.77,   554.19  " /><path style="stroke:#FFFFFF;stroke-width: 4.53 ;&st6;" d=" M  1470.25,   494.70  L  1470.25,   554.19  L  1393.77,   554.19  " /><path style="stroke:#000000;stroke-width: 1.13 ;&st6;" d=" M  1470.25,   494.70  L  1470.25,   554.19  L  1393.77,   554.19  " /></a><a ewd:comment="7" style="cursor:pointer;" ewd:lineID="44"><path style="stroke:#008837;stroke-width: 5.10 ;&st6;" d=" M  1470.25,   409.72  L  1470.25,   350.23  L  1393.77,   350.23  " /></a><a style="cursor:pointer;" ewd:lineID="45"><path style="stroke:#000000;stroke-width: 5.10 ;&st6;" d=" M  1623.23,   681.67  L  1623.23,   588.19  " /><path style="stroke:#FFFFFF;stroke-width: 4.53 ;&st6;" d=" M  1623.23,   681.67  L  1623.23,   588.19  " /><path style="stroke:#000000;stroke-width: 1.13 ;&st6;" d=" M  1623.23,   681.67  L  1623.23,   588.19  " /></a><a style="cursor:pointer;" ewd:lineID="46"><path style="stroke:#000000;stroke-width: 5.10 ;&st6;" d=" M  1623.23,   546.83  L  1623.23,   571.19  " /><path style="stroke:#FFFFFF;stroke-width: 4.53 ;&st6;" d=" M  1623.23,   546.83  L  1623.23,   571.19  " /><path style="stroke:#000000;stroke-width: 1.13 ;&st6;" d=" M  1623.23,   546.83  L  1623.23,   571.19  " /></a><a ewd:comment="1,17,2,17,19,18" style="cursor:pointer;" ewd:lineID="47"><path style="stroke:#008837;stroke-width: 5.10 ;&st6;" d=" M  1623.23,   416.52  L  1623.23,   290.74  " /></a><a ewd:comment="21" style="cursor:pointer;" ewd:lineID="48"><path style="stroke:#FF0000;stroke-width: 5.10 ;&st6;" d=" M  1623.23,   416.52  L  1623.23,   409.72  L  1640.23,   392.72  L  1640.23,   384.22  L  1750.71,   384.22  L  1750.71,   324.73  L  1767.70,   307.73  L  1767.70,   299.24  " /></a><a style="cursor:pointer;" ewd:lineID="49"><path style="stroke:#000000;stroke-width: 5.10 ;&st6;" d=" M  1716.71,   681.67  L  1716.71,   588.19  " /><path style="stroke:#FFFFFF;stroke-width: 4.53 ;&st6;" d=" M  1716.71,   681.67  L  1716.71,   588.19  " /><path style="stroke:#000000;stroke-width: 1.13 ;&st6;" d=" M  1716.71,   681.67  L  1716.71,   588.19  " /></a><a style="cursor:pointer;" ewd:lineID="50"><path style="stroke:#000000;stroke-width: 5.10 ;&st6;" d=" M  1716.71,   546.83  L  1716.71,   571.19  " /><path style="stroke:#FFFFFF;stroke-width: 4.53 ;&st6;" d=" M  1716.71,   546.83  L  1716.71,   571.19  " /><path style="stroke:#000000;stroke-width: 1.13 ;&st6;" d=" M  1716.71,   546.83  L  1716.71,   571.19  " /></a><a ewd:comment="1,17,2,17,19,18" style="cursor:pointer;" ewd:lineID="51"><path style="stroke:#008837;stroke-width: 5.10 ;&st6;" d=" M  1716.71,   416.52  L  1716.71,   290.74  " /></a><a ewd:comment="21" style="cursor:pointer;" ewd:lineID="52"><path style="stroke:#56077D;stroke-width: 5.10 ;&st6;" d=" M  1767.70,   299.24  L  1767.70,   401.22  L  1725.21,   401.22  L  1716.71,   409.72  L  1716.71,   416.52  " /></a><a ewd:comment="21" style="cursor:pointer;" ewd:lineID="53"><path style="stroke:#000000;stroke-width: 5.10 ;&st6;" d=" M  1767.70,   197.25  L  1767.70,   188.75  L  1750.71,   171.76  L  1750.71,   146.26  " /></a><a ewd:comment="21" style="cursor:pointer;" ewd:lineID="54"><path style="stroke:#F668B2;stroke-width: 5.10 ;&st6;" d=" M  1793.20,   299.24  L  1793.20,   605.18  L   798.87,   605.18  L   798.87,   418.22  " /></a><a ewd:comment="21" style="cursor:pointer;" ewd:lineID="55"><path style="stroke:#000000;stroke-width: 5.10 ;&st6;" d=" M  1793.20,   197.25  L  1793.20,   171.76  L  1767.70,   171.76  L  1767.70,   197.25  " /></a><a ewd:comment="6" style="cursor:pointer;" ewd:lineID="56"><path style="stroke:#000000;stroke-width: 5.10 ;&st6;" d=" M  1861.19,   367.22  L  1861.19,   681.67  " /><path style="stroke:#FFFFFF;stroke-width: 4.53 ;&st6;" d=" M  1861.19,   367.22  L  1861.19,   681.67  " /><path style="stroke:#000000;stroke-width: 1.13 ;&st6;" d=" M  1861.19,   367.22  L  1861.19,   681.67  " /></a><a ewd:comment="6" style="cursor:pointer;" ewd:lineID="57"><path style="stroke:#7FC97F;stroke-width: 5.10 ;&st6;" d=" M  1861.19,   154.76  L  1861.19,   316.23  " /></a><a ewd:comment="6" style="cursor:pointer;" ewd:lineID="58"><path style="stroke:#FF0000;stroke-width: 5.10 ;&st6;" d=" M  1937.68,   367.22  L  1937.68,   579.69  L  2456.09,   579.69  L  2456.09,   528.70  " /></a><a ewd:comment="6" style="cursor:pointer;" ewd:lineID="59"><path style="stroke:#7FC97F;stroke-width: 5.10 ;&st6;" d=" M  1937.68,   154.76  L  1937.68,   316.23  " /></a><a ewd:comment="6" style="cursor:pointer;" ewd:lineID="60"><path style="stroke:#FF0000;stroke-width: 5.10 ;&st6;" d=" M  2014.16,   367.22  L  2014.16,   562.69  L  2371.10,   562.69  L  2371.10,   528.70  " /></a><a ewd:comment="6" style="cursor:pointer;" ewd:lineID="61"><path style="stroke:#7FC97F;stroke-width: 5.10 ;&st6;" d=" M  2014.16,   154.76  L  2014.16,   316.23  " /></a><a ewd:comment="22" style="cursor:pointer;" ewd:lineID="62"><path style="stroke:#000000;stroke-width: 5.10 ;&st6;" d=" M  2116.15,   681.67  L  2116.15,   392.72  " /><path style="stroke:#FFFFFF;stroke-width: 4.53 ;&st6;" d=" M  2116.15,   681.67  L  2116.15,   392.72  " /><path style="stroke:#000000;stroke-width: 1.13 ;&st6;" d=" M  2116.15,   681.67  L  2116.15,   392.72  " /></a><a ewd:comment="22" style="cursor:pointer;" ewd:lineID="63"><path style="stroke:#000000;stroke-width: 5.10 ;&st6;" d=" M  2116.15,   341.73  L  2116.15,   265.24  L  2175.64,   265.24  L  2175.64,   290.17  " /><path style="stroke:#FFFFFF;stroke-width: 4.53 ;&st6;" d=" M  2116.15,   341.73  L  2116.15,   265.24  L  2175.64,   265.24  L  2175.64,   290.17  " /><path style="stroke:#000000;stroke-width: 1.13 ;&st6;" d=" M  2116.15,   341.73  L  2116.15,   265.24  L  2175.64,   265.24  L  2175.64,   290.17  " /></a><a ewd:comment="22" style="cursor:pointer;" ewd:lineID="64"><path style="stroke:#7FC97F;stroke-width: 5.10 ;&st6;" d=" M  2209.63,   154.76  L  2209.63,   290.17  " /></a><a ewd:comment="5" style="cursor:pointer;" ewd:lineID="65"> d=" M  2371.10,   350.23  L  2371.10,   511.70 
	
		<path style="stroke:#000000;stroke-width: 5.10 ;&st6;" d=" M  2371.10,   350.23  L  2371.10,   511.70  " /><path style="stroke:#FFFFFF;stroke-width: 4.53 ;&st6;" d=" M  2371.10,   350.23  L  2371.10,   511.70  " /></a><a ewd:comment="5" style="cursor:pointer;" ewd:lineID="66"><path style="stroke:#7FC97F;stroke-width: 5.10 ;&st6;" d=" M  2371.10,   154.76  L  2371.10,   316.23  " /></a><a style="cursor:pointer;" ewd:lineID="67"> d=" M  2456.09,   511.70  L  2456.09,   418.22 
	
		<path style="stroke:#000000;stroke-width: 5.10 ;&st6;" d=" M  2456.09,   511.70  L  2456.09,   418.22  " /><path style="stroke:#FFFFFF;stroke-width: 4.53 ;&st6;" d=" M  2456.09,   511.70  L  2456.09,   418.22  " /></a><a style="cursor:pointer;" ewd:lineID="68"><path style="stroke:#7FC97F;stroke-width: 5.10 ;&st6;" d=" M  2456.09,   154.76  L  2456.09,   282.24  " /></a><a style="cursor:pointer;" ewd:lineID="69"><path style="stroke:#000000;stroke-width: 5.10 ;&st6;" d=" M  2541.08,   528.70  L  2541.08,   681.67  " /><path style="stroke:#FFFFFF;stroke-width: 4.53 ;&st6;" d=" M  2541.08,   528.70  L  2541.08,   681.67  " /><path style="stroke:#000000;stroke-width: 1.13 ;&st6;" d=" M  2541.08,   528.70  L  2541.08,   681.67  " /></a><a style="cursor:pointer;" ewd:lineID="70"> d=" M  2541.08,   511.70  L  2541.08,   436.35 
	
		<path style="stroke:#000000;stroke-width: 5.10 ;&st6;" d=" M  2541.08,   511.70  L  2541.08,   436.35  " /><path style="stroke:#FFFFFF;stroke-width: 4.53 ;&st6;" d=" M  2541.08,   511.70  L  2541.08,   436.35  " /></a><a style="cursor:pointer;" ewd:lineID="71"><path style="stroke:#7FC97F;stroke-width: 5.10 ;&st6;" d=" M  2541.08,   154.76  L  2541.08,   264.11  " /></a><a ewd:comment="16" style="cursor:pointer;" ewd:lineID="72"><path style="stroke:#000000;stroke-width: 5.10 ;&st6;" d=" M  2651.56,   384.22  L  2651.56,   511.70  " /><path style="stroke:#FFFFFF;stroke-width: 4.53 ;&st6;" d=" M  2651.56,   384.22  L  2651.56,   511.70  " /><path style="stroke:#000000;stroke-width: 1.13 ;&st6;" d=" M  2651.56,   384.22  L  2651.56,   511.70  " /></a><a ewd:comment="16" style="cursor:pointer;" ewd:lineID="73"><path style="stroke:#7FC97F;stroke-width: 5.10 ;&st6;" d=" M  2651.56,   154.76  L  2651.56,   350.23  " /></a><a style="cursor:pointer;" ewd:lineID="74"><path style="stroke:#992903;stroke-width: 5.10 ;&st6;" d=" M  2753.54,   402.35  L  2753.54,   681.67  " /></a><a style="cursor:pointer;" ewd:lineID="75"><path style="stroke:#008837;stroke-width: 5.10 ;&st6;" d=" M  2753.54,   154.76  L  2753.54,   332.10  " /></a><a style="cursor:pointer;" ewd:lineID="76"><path style="stroke:#FF0000;stroke-width: 5.10 ;&st6;" d=" M  2821.53,   392.72  L  2821.53,   562.69  L  2685.55,   562.69  L  2685.55,   528.70  " /></a><a style="cursor:pointer;" ewd:lineID="77"><path style="stroke:#008837;stroke-width: 5.10 ;&st6;" d=" M  2821.53,   154.76  L  2821.53,   341.73  " /></a><a ewd:comment="14" style="cursor:pointer;" ewd:lineID="78"> d=" M  2906.51,   418.22  L  2906.51,   579.69  L  2651.56,   579.69  L  2651.56,   528.70 
	
		<path style="stroke:#000000;stroke-width: 5.10 ;&st6;" d=" M  2906.51,   418.22  L  2906.51,   579.69  L  2651.56,   579.69  L  2651.56,   528.70  " /><path style="stroke:#FFFFFF;stroke-width: 4.53 ;&st6;" d=" M  2906.51,   418.22  L  2906.51,   579.69  L  2651.56,   579.69  L  2651.56,   528.70  " /></a><a ewd:comment="14" style="cursor:pointer;" ewd:lineID="79"><path style="stroke:#7FC97F;stroke-width: 5.10 ;&st6;" d=" M  2906.51,   282.24  L  2906.51,   154.76  " /></a><a style="cursor:pointer;" ewd:lineID="80"><path style="stroke:#7FC97F;stroke-width: 5.10 ;&st6;" d=" M  2983.00,   154.76  L  2983.00,   350.23  " /></a><a style="cursor:pointer;" ewd:lineID="81"><path style="stroke:#000000;stroke-width: 5.10 ;&st6;" d=" M  3059.49,   537.20  L  3059.49,   681.67  " /><path style="stroke:#FFFFFF;stroke-width: 4.53 ;&st6;" d=" M  3059.49,   537.20  L  3059.49,   681.67  " /><path style="stroke:#000000;stroke-width: 1.13 ;&st6;" d=" M  3059.49,   537.20  L  3059.49,   681.67  " /></a><a style="cursor:pointer;" ewd:lineID="82"><path style="stroke:#000000;stroke-width: 5.10 ;&st6;" d=" M  3059.49,   384.22  L  3059.49,   522.46  " /><path style="stroke:#FFFFFF;stroke-width: 4.53 ;&st6;" d=" M  3059.49,   384.22  L  3059.49,   522.46  " /><path style="stroke:#000000;stroke-width: 1.13 ;&st6;" d=" M  3059.49,   384.22  L  3059.49,   522.46  " /></a><a style="cursor:pointer;" ewd:lineID="83"><path style="stroke:#008837;stroke-width: 5.10 ;&st6;" d=" M  3059.49,   350.23  L  3059.49,   279.97  " /></a><a style="cursor:pointer;" ewd:lineID="84"><path style="stroke:#008837;stroke-width: 5.10 ;&st6;" d=" M  3059.49,   154.76  L  3059.49,   265.24  " /></a><a ewd:comment="18" style="cursor:pointer;" ewd:lineID="85"><path style="stroke:#992903;stroke-width: 5.10 ;&st6;" d=" M  3178.47,   418.22  L  3178.47,   596.69  L  2617.56,   596.69  L  2617.56,   528.70  " /></a><a ewd:comment="18" style="cursor:pointer;" ewd:lineID="86"><path style="stroke:#008837;stroke-width: 5.10 ;&st6;" d=" M  3178.47,   282.24  L  3178.47,   154.76  " /></a><a style="cursor:pointer;" ewd:lineID="87"> d=" M  3348.44,   103.77  L  3348.44,   137.76  L  3399.43,   137.76  L  3399.43,    52.78  L  3441.92,    52.78  L  3441.92,    69.77 
	
		<path style="stroke:#000000;stroke-width: 5.10 ;&st6;" d=" M  3348.44,   103.77  L  3348.44,   137.76  L  3399.43,   137.76  L  3399.43,    52.78  L  3441.92,    52.78  L  3441.92,    69.77  " /><path style="stroke:#FFFFFF;stroke-width: 4.53 ;&st6;" d=" M  3348.44,   103.77  L  3348.44,   137.76  L  3399.43,   137.76  L  3399.43,    52.78  L  3441.92,    52.78  L  3441.92,    69.77  " /></a><a style="cursor:pointer;" ewd:lineID="88"><path style="stroke:#7FC97F;stroke-width: 5.10 ;&st6;" d=" M  3433.43,   512.27  L  3433.43,   639.18  L   883.85,   639.18  L   883.85,   664.67  L   365.44,   664.67  L   365.44,   460.71  " /></a><a style="cursor:pointer;" ewd:lineID="89"> d=" M  3441.92,   120.77  L  3441.92,   188.19 
	
		<path style="stroke:#000000;stroke-width: 5.10 ;&st6;" d=" M  3441.92,   120.77  L  3441.92,   188.19  " /><path style="stroke:#FFFFFF;stroke-width: 4.53 ;&st6;" d=" M  3441.92,   120.77  L  3441.92,   188.19  " /></a><a style="cursor:pointer;" ewd:lineID="90"><path style="stroke:#992903;stroke-width: 5.10 ;&st6;" d=" M  3492.92,   512.27  L  3492.92,   681.67  " /></a><a style="cursor:pointer;" ewd:lineID="91"><path style="stroke:#F668B2;stroke-width: 5.10 ;&st6;" d=" M  3509.91,   103.77  L  3509.91,   188.19  " /></a><a ewd:figtype="w2w" style="cursor:pointer;" ewd:pinNo="17" ewd:code="AE10" ewd:figID="54"><path style="&st2;" d=" M   229.46,   188.75  L   212.46,   188.75  L   212.46,   197.25  L   229.46,   197.25  L   229.46,   188.75 " /><text style="&st8;" transform="matrix(&st16;  214.15  195.12 )"><tspan x="0" style="&st18;" y="0">AE10</tspan></text></a><a ewd:figtype="w2w" style="cursor:pointer;" ewd:pinNo="6" ewd:code="EF2" ewd:figID="55"><path style="&st2;" d=" M  3067.99,   528.70  L  3050.99,   528.70  L  3050.99,   537.20  L  3067.99,   537.20  L  3067.99,   528.70 " /><text style="&st8;" transform="matrix(&st16;  3054.37  535.07 )"><tspan x="0" style="&st18;" y="0">EF2</tspan></text></a><a ewd:figtype="w2w" style="cursor:pointer;" ewd:pinNo="10" ewd:code="EF2" ewd:figID="56"><path style="&st2;" d=" M  3067.99,   265.24  L  3050.99,   265.24  L  3050.99,   273.74  L  3067.99,   273.74  L  3067.99,   265.24 " /><text style="&st8;" transform="matrix(&st16;  3054.37  271.61 )"><tspan x="0" style="&st18;" y="0">EF2</tspan></text></a><a ewd:figtype="gp" style="cursor:pointer;" ewd:code="EA" ewd:figID="57"><path style="&st2;" d=" M   320.82,   681.67  L   342.07,   681.67  L   331.44,   697.25  L   320.82,   681.67 " /><text style="&st8;" transform="matrix(&st16;  327.64  689.46 )"><tspan x="0" style="&st18;" y="0">EA</tspan></text></a><a ewd:figtype="gp" style="cursor:pointer;" ewd:code="EA" ewd:figID="58"><path style="&st2;" d=" M   762.75,   681.67  L   783.99,   681.67  L   773.37,   697.25  L   762.75,   681.67 " /><text style="&st8;" transform="matrix(&st16;  769.57  689.46 )"><tspan x="0" style="&st18;" y="0">EA</tspan></text></a><a ewd:figtype="gp" style="cursor:pointer;" ewd:code="LB" ewd:figID="59"><path style="&st2;" d=" M   949.72,   681.67  L   970.96,   681.67  L   960.34,   697.25  L   949.72,   681.67 " /><text style="&st8;" transform="matrix(&st16;  956.69  689.46 )"><tspan x="0" style="&st18;" y="0">LB</tspan></text></a><a ewd:figtype="gp" style="cursor:pointer;" ewd:code="AA" ewd:figID="60"><path style="&st2;" d=" M  1612.61,   681.67  L  1633.85,   681.67  L  1623.23,   697.25  L  1612.61,   681.67 " /><text style="&st8;" transform="matrix(&st16;  1619.24  689.46 )"><tspan x="0" style="&st18;" y="0">AA</tspan></text></a><a ewd:figtype="gp" style="cursor:pointer;" ewd:code="AC" ewd:figID="61"><path style="&st2;" d=" M  1706.09,   681.67  L  1727.34,   681.67  L  1716.71,   697.25  L  1706.09,   681.67 " /><text style="&st8;" transform="matrix(&st16;  1712.61  689.46 )"><tspan x="0" style="&st18;" y="0">AC</tspan></text></a><a ewd:figtype="gp" style="cursor:pointer;" ewd:code="EC" ewd:figID="62"><path style="&st2;" d=" M  1850.57,   681.67  L  1871.81,   681.67  L  1861.19,   697.25  L  1850.57,   681.67 " /><text style="&st8;" transform="matrix(&st16;  1857.28  689.46 )"><tspan x="0" style="&st18;" y="0">EC</tspan></text></a><a ewd:figtype="gp" style="cursor:pointer;" ewd:code="EA" ewd:figID="63"><path style="&st2;" d=" M  2105.52,   681.67  L  2126.77,   681.67  L  2116.15,   697.25  L  2105.52,   681.67 " /><text style="&st8;" transform="matrix(&st16;  2112.35  689.46 )"><tspan x="0" style="&st18;" y="0">EA</tspan></text></a><a ewd:figtype="gp" style="cursor:pointer;" ewd:code="EB" ewd:figID="64"><path style="&st2;" d=" M  2530.45,   681.67  L  2551.70,   681.67  L  2541.08,   697.25  L  2530.45,   681.67 " /><text style="&st8;" transform="matrix(&st16;  2537.39  689.46 )"><tspan x="0" style="&st18;" y="0">EB</tspan></text></a><a ewd:figtype="gp" style="cursor:pointer;" ewd:code="ED" ewd:figID="65"><path style="&st2;" d=" M  2742.92,   681.67  L  2764.16,   681.67  L  2753.54,   697.25  L  2742.92,   681.67 " /><text style="&st8;" transform="matrix(&st16;  2749.66  689.46 )"><tspan x="0" style="&st18;" y="0">ED</tspan></text></a><a ewd:figtype="gp" style="cursor:pointer;" ewd:code="ED" ewd:figID="66"><path style="&st2;" d=" M  3048.87,   681.67  L  3070.11,   681.67  L  3059.49,   697.25  L  3048.87,   681.67 " /><text style="&st8;" transform="matrix(&st16;  3055.61  689.46 )"><tspan x="0" style="&st18;" y="0">ED</tspan></text></a><a ewd:figtype="gp" style="cursor:pointer;" ewd:code="ED" ewd:figID="67"><path style="&st2;" d=" M  3482.29,   681.67  L  3503.54,   681.67  L  3492.92,   697.25  L  3482.29,   681.67 " /><text style="&st8;" transform="matrix(&st16;  3489.04  689.46 )"><tspan x="0" style="&st18;" y="0">ED</tspan></text></a><a ewd:figtype="sp" style="cursor:pointer;" ewd:code="SP71" ewd:figID="68"><path style="&st2;" d=" M   956.09,   545.69  L   964.59,   545.69  L   968.84,   549.94  L   968.84,   558.44  L   964.59,   562.69  L   956.09,   562.69  L   951.84,   558.44  L   951.84,   549.94  L   956.09,   545.69 " /></a><a ewd:figtype="sp" style="cursor:pointer;" ewd:code="SP71" ewd:figID="69"><path style="&st2;" d=" M  1092.07,   545.69  L  1100.57,   545.69  L  1104.82,   549.94  L  1104.82,   558.44  L  1100.57,   562.69  L  1092.07,   562.69  L  1087.82,   558.44  L  1087.82,   549.94  L  1092.07,   545.69 " /></a><a ewd:figtype="sp" style="cursor:pointer;" ewd:code="SP69" ewd:figID="70"><path style="&st2;" d=" M  1092.07,   341.73  L  1100.57,   341.73  L  1104.82,   345.98  L  1104.82,   354.48  L  1100.57,   358.73  L  1092.07,   358.73  L  1087.82,   354.48  L  1087.82,   345.98  L  1092.07,   341.73 " /></a><a ewd:figtype="sp" style="cursor:pointer;" ewd:code="SP69" ewd:figID="71"><path style="&st2;" d=" M  1143.06,   341.73  L  1151.56,   341.73  L  1155.81,   345.98  L  1155.81,   354.48  L  1151.56,   358.73  L  1143.06,   358.73  L  1138.81,   354.48  L  1138.81,   345.98  L  1143.06,   341.73 " /></a><a ewd:figtype="sp" style="cursor:pointer;" ewd:code="SP70" ewd:figID="72"><path style="&st2;" d=" M  1211.05,   545.69  L  1219.55,   545.69  L  1223.80,   549.94  L  1223.80,   558.44  L  1219.55,   562.69  L  1211.05,   562.69  L  1206.80,   558.44  L  1206.80,   549.94  L  1211.05,   545.69 " /></a><a ewd:figtype="sp" style="cursor:pointer;" ewd:code="SP69" ewd:figID="73"><path style="&st2;" d=" M  1211.05,   341.73  L  1219.55,   341.73  L  1223.80,   345.98  L  1223.80,   354.48  L  1219.55,   358.73  L  1211.05,   358.73  L  1206.80,   354.48  L  1206.80,   345.98  L  1211.05,   341.73 " /></a><a ewd:figtype="sp" style="cursor:pointer;" ewd:code="SP70" ewd:figID="74"><path style="&st2;" d=" M  1296.03,   545.69  L  1304.53,   545.69  L  1308.78,   549.94  L  1308.78,   558.44  L  1304.53,   562.69  L  1296.03,   562.69  L  1291.78,   558.44  L  1291.78,   549.94  L  1296.03,   545.69 " /></a><a ewd:figtype="sp" style="cursor:pointer;" ewd:code="SP69" ewd:figID="75"><path style="&st2;" d=" M  1296.03,   341.73  L  1304.53,   341.73  L  1308.78,   345.98  L  1308.78,   354.48  L  1304.53,   358.73  L  1296.03,   358.73  L  1291.78,   354.48  L  1291.78,   345.98  L  1296.03,   341.73 " /></a><a ewd:figtype="sp" style="cursor:pointer;" ewd:code="SP70" ewd:figID="76"><path style="&st2;" d=" M  1381.02,   545.69  L  1389.52,   545.69  L  1393.77,   549.94  L  1393.77,   558.44  L  1389.52,   562.69  L  1381.02,   562.69  L  1376.77,   558.44  L  1376.77,   549.94  L  1381.02,   545.69 " /></a><a ewd:figtype="sp" style="cursor:pointer;" ewd:code="SP69" ewd:figID="77"><path style="&st2;" d=" M  1381.02,   341.73  L  1389.52,   341.73  L  1393.77,   345.98  L  1393.77,   354.48  L  1389.52,   358.73  L  1381.02,   358.73  L  1376.77,   354.48  L  1376.77,   345.98  L  1381.02,   341.73 " /></a><a ewd:figtype="sp" style="cursor:pointer;" ewd:code="SP2" ewd:figID="78"><path style="&st2;" d=" M  1618.98,   571.19  L  1627.48,   571.19  L  1631.73,   575.44  L  1631.73,   583.94  L  1627.48,   588.19  L  1618.98,   588.19  L  1614.73,   583.94  L  1614.73,   575.44  L  1618.98,   571.19 " /></a><a ewd:figtype="sp" style="cursor:pointer;" ewd:code="SP4" ewd:figID="79"><path style="&st2;" d=" M  1712.46,   571.19  L  1720.96,   571.19  L  1725.21,   575.44  L  1725.21,   583.94  L  1720.96,   588.19  L  1712.46,   588.19  L  1708.21,   583.94  L  1708.21,   575.44  L  1712.46,   571.19 " /></a></g></svg>