﻿<?xml version="1.0"?>
<!-- Generator: Adobe Illustrator 10.0, SVG Export Plug-In . SVG Version: 3.0.0 Build 77)  -->
<!DOCTYPE svg PUBLIC "-//W3C//DTD SVG 1.0//EN" "http://www.w3.org/TR/2001/REC-SVG-20010904/DTD/svg10.dtd"[
	<!ENTITY ns_flows "http://ns.adobe.com/Flows/1.0/">
	<!ENTITY ns_svg "http://www.w3.org/2000/svg">
	<!ENTITY ns_xlink "http://www.w3.org/1999/xlink">
	<!ENTITY st0 "fill:none;stroke:#000000;stroke-width:0.5;">
	<!ENTITY st1 "fill:none;stroke:#FFFFFF;stroke-width:2;">
	<!ENTITY st2 "fill:none;stroke:#000000;stroke-width:0.35;stroke-linecap:round;stroke-linejoin:round;">
	<!ENTITY st3 "fill:none;stroke:#FFFFFF;stroke-width:0.525;stroke-linecap:round;stroke-linejoin:round;">
	<!ENTITY st4 "font-family:'Arial';">
	<!ENTITY st5 "font-size:10px;">
	<!ENTITY st6 "fill:none;stroke:#FFFFFF;stroke-width:0.2;">
	<!ENTITY st7 "fill:none;stroke:#000000;stroke-width:0.175;stroke-linecap:round;stroke-linejoin:round;">
	<!ENTITY st8 "fill:#FFFFFF;stroke:#000000;stroke-width:0.35;stroke-linecap:round;stroke-linejoin:round;">
	<!ATTLIST svg
		xmlns:ewd CDATA #FIXED "http://shcl.co.jp/ewd"
		xmlns:a CDATA #FIXED "http://ns.adobe.com/AdobeSVGViewerExtensions/3.0/"
		ewd:ver CDATA #IMPLIED>
	<!ATTLIST a
		ewd:innerGroupID CDATA #IMPLIED
		ewd:figtype CDATA #IMPLIED
		ewd:code CDATA #IMPLIED
		ewd:pinNo CDATA #IMPLIED>
]>
<svg width="518.94" height="312.01" viewBox="0 0 518.94 312.01" style="overflow:visible;enable-background:new 0 0 518.94 312.01" xml:space="preserve" onload="call_execInitLoadProc_svg('location')" ewd:ver="2.1.2.9" xmlns="&ns_svg;" xmlns:ewd="http://shcl.co.jp/ewd" xmlns:a="http://ns.adobe.com/AdobeSVGViewerExtensions/3.0/" xmlns:xlink="&ns_xlink;">
<script type="text/javascript" xlink:href="../../../../../system/js/ewd/fig/svgfig.js"/>
<g id="台紙">
	<path style="&st6;" d="M518.84,311.911V0.1H0.1v311.811H518.84z"/>
	<g>
	</g>
</g>
<g id="シルエット">
	<path style="&st7;" d="M265.023,141.245l1.645,3.659c0.076,0.204,0.02,0.494-0.174,0.737l-2.053,2.707"/>
	<path style="&st2;" d="M267.126,141.579l1.699,3.812c0.105,0.244,0.104,0.636-0.08,0.875l-1.979,2.61    c-0.143,0.172-0.355,0.344-0.703,0.262l-1.475-0.385c-0.359-0.094-0.6-0.183-0.721-0.493l-1.664-3.702    c-0.207-0.412-0.247-0.669-0.021-1.014l2.028-2.674c0.109-0.158,0.332-0.302,0.762-0.227l1.684,0.44    C266.841,141.113,267.05,141.395,267.126,141.579z"/>
	<path style="&st7;" d="M265.656,147.367l0.168,0.434c0.072,0.181,0.133,0.284,0.381,0.357l0.967,0.252"/>
	<path style="&st7;" d="M266.972,145.329l1.684,0.44"/>
	<path style="&st7;" d="M265.656,147.367l0.748-0.989c0.098-0.125,0.328-0.24,0.52-0.183l0.883,0.231"/>
	<path style="&st7;" d="M267.806,146.427l0.24,0.615"/>
	<path style="&st7;" d="M266.218,147.77l0.596-0.787c0.098-0.125,0.328-0.24,0.518-0.182l0.266,0.069"/>
	<path style="&st7;" d="M353.58,110.779l3.367,1.858c0.178,0.113,0.311,0.39,0.316,0.724l0.143,3.631"/>
	<path style="&st2;" d="M355.291,109.6l3.498,1.946c0.223,0.127,0.453,0.45,0.467,0.771l0.137,3.502    c0.002,0.239-0.049,0.527-0.348,0.7l-1.289,0.703c-0.316,0.17-0.541,0.263-0.814,0.094l-3.404-1.881    c-0.395-0.194-0.578-0.377-0.621-0.816l-0.141-3.587c-0.016-0.204,0.059-0.476,0.41-0.711l1.475-0.802    C354.808,109.415,355.126,109.502,355.291,109.6z"/>
	<path style="&st7;" d="M357.816,116.204l0.381,0.239c0.16,0.097,0.266,0.141,0.488,0.029l0.652-0.355"/>
	<path style="&st7;" d="M357.419,112.774l1.473-0.802"/>
	<path style="&st7;" d="M357.816,116.204l-0.051-0.976c-0.004-0.168,0.09-0.423,0.264-0.506l0.771-0.421"/>
	<path style="&st7;" d="M358.8,114.301l0.539,0.337"/>
	<path style="&st7;" d="M358.46,116.144l-0.041-0.704c-0.006-0.168,0.092-0.423,0.264-0.506l0.232-0.127"/>
	<g>
		<g>
			<path style="&st7;" d="M226.763,63.471l0.478-0.096"/>
		</g>
		<g>
			<path style="&st2;" d="M233.605,61.525l0.478-0.155h0.478l2.233-0.776c0.559-0.036,1.181,0.114,1.531,0.618      c0.483,0.696,0.393,1.991-0.531,2.323l-0.808,0.293l0.027,0.224l-0.132,0.505l-0.707,0.16l-0.009,0.287l-0.367,0.107v0.367      c-0.385,0.922-2.479,1.075-4.057,0.806c0,0-0.293,0.061-0.446,0.086c-0.068,0.011-0.274,0-0.35-0.06      c-0.066-0.051-0.153-0.084-0.255-0.051c0,0-0.79,0.161-0.849,0.169c-0.119,0.018-0.212-0.025-0.297-0.067l-1.672-0.977      c0,0-0.271,0.06-0.297,0.068c-0.026,0.008-0.195,0.042-0.306-0.034c0,0-0.823-0.492-0.925-0.56      c-0.102-0.068-0.153-0.212-0.153-0.408c0,0,0.009-0.721,0.009-0.789s0.068-0.17,0.152-0.179l0.417-0.084v-0.417      c0-0.144,0.031-0.358,0.306-0.43l5.704-1.345L233.605,61.525z"/>
		</g>
		<g>
			<path style="&st7;" d="M227.323,62.73l1.687,1.003l0.485-0.107l3.521-1.283l1.336,0.476"/>
		</g>
		<g>
			<path style="&st7;" d="M228.996,63.973v0.418"/>
		</g>
		<g>
			<path style="&st7;" d="M230.787,63.71l-1.863,0.716"/>
		</g>
		<g>
			<path style="&st7;" d="M229.235,65.338c-0.163,0.013-0.333-0.171-0.388-0.428c-0.058-0.271,0.034-0.52,0.205-0.556      c0.134-0.029,0.277,0.082,0.36,0.263"/>
		</g>
		<g>
			<path style="&st7;" d="M235.261,63.821c0.181,0.114,0.284,0.244,0.282,0.381c-0.003,0.445-1.098,0.797-2.444,0.788      c-1.346-0.01-2.434-0.379-2.431-0.824c0.002-0.333,0.619-0.616,1.494-0.731"/>
		</g>
		<g>
			<path style="&st7;" d="M234.083,64.25c0.001-0.099-0.001-1.048,0-1.146c0.001-0.179-0.436-0.327-0.975-0.331      c-0.54-0.004-0.979,0.137-0.98,0.316c0,0.099,0.001,1.048,0,1.146"/>
		</g>
		<g>
			<path style="&st7;" d="M229.175,65.334l0.131,0.024c0.036,0.119,0.203,0.179,0.323,0.215s1.075,0.155,1.075,0.155      c0.167,0.179,0.573,0.406,1.17,0.501"/>
		</g>
		<g>
			<path style="&st7;" d="M230.667,65.74c0.156,0.024,0.334-0.012,0.334-0.012l0.92-0.213"/>
		</g>
		<g>
			<path style="&st7;" d="M231.969,65.059v0.263"/>
		</g>
		<g>
			<path style="&st7;" d="M229.736,65.621v0.49"/>
		</g>
		<g>
			<path style="&st7;" d="M235.719,64.725l0.788-0.179"/>
		</g>
		<g>
			<path style="&st7;" d="M235.719,65.19v-0.968"/>
		</g>
		<g>
			<path style="&st7;" d="M234.19,63.352l1.278-0.287"/>
		</g>
		<g>
			<path style="&st7;" d="M232.967,61.378l2.573,1.03v0.585l0.597,0.239l0.538,0.083c0.119,0.024,0.239,0.131,0.239,0.215      s0,0.298,0,0.298"/>
		</g>
		<g>
			<path style="&st7;" d="M235.767,64.199l0.955-0.191c0.066-0.028,0.187-0.073,0.202-0.118"/>
		</g>
		<g>
			<path style="&st7;" d="M229.271,65.286v-0.394c0-0.143,0.144-0.274,0.323-0.322l0.702-0.166"/>
		</g>
		<g>
			<path style="&st7;" d="M227.348,63.34l1.146,0.68v1.147"/>
		</g>
		<g>
			<path style="&st7;" d="M226.584,63.686l0.8,0.478c0.096,0.072,0.144,0.227,0.144,0.311s0,0.74,0,0.74"/>
		</g>
		<g>
			<path style="&st7;" d="M227.646,64.295l0.848-0.203"/>
		</g>
		<g>
			<path style="&st7;" d="M234.341,62.823l0.434-0.128l0.013-0.046l0.512-0.152"/>
		</g>
		<g>
			<path style="&st7;" d="M229.458,65.007c0.137,0.078,0.39,0.117,0.39,0.117l1.012,0.137l0.856-0.175"/>
		</g>
	</g>
	<g>
		<path style="&st8;" d="M209.122,66.834l3.084,2.062c0.145,0.097,0.507,0.106,0.507,0.106c0.145,0.234,0.316,0.382,0.404,0.458     c0.037,0.032,0.245,0.171,0.532,0.359c0.167,0.095,0.359,0.287,0.865,0.209c0.12,0.387,0.368,0.597,0.663,0.779     c0.225,0.14,0.417,0.263,0.543,0.345c0.348,0.205,0.546,0.209,0.725,0.175c0.18-0.033,7.652-2.182,7.652-2.182     c0.209-0.092,0.348-0.253,0.358-0.367l0.08-1.25c0.247,0,0.543-0.022,0.673-0.335c0.146-0.351,0.337-0.761,0.358-1.291     l0.046-2.189c0.275-0.079,0.456-0.092,0.439-0.393l-0.002-0.961c-0.014-0.263,0.03-0.619-0.398-0.623l-6.271,0.322l-0.015-0.273     l-0.245-0.086l-10.271,2.845c-0.032,0.01-0.055,0.06-0.052,0.108c0.002,0.048,0.017,0.309,0.017,0.309l-0.142,0.04     c-0.142,0.031-0.17,0.139-0.181,0.256c-0.01,0.117,0.016,0.908,0.016,0.908c0.005,0.242,0.158,0.334,0.286,0.433L209.122,66.834z     "/>
		<path style="&st7;" d="M208.936,66.638l5.771-0.11c0.252-0.02,0.649-0.116,1.025-0.199c0.147-0.033,1.707-0.46,3.542-0.968     l0.017,1.232c0.007,0.131,0.102,0.226,0.155,0.266c0.053,0.04,0.146,0.105,0.146,0.105c0.105,0.05,0.28-0.022,0.28-0.022     l0.591-0.163c0.102-0.008,0.158-0.159,0.154-0.217c-0.003-0.059,0.018-1.578,0.018-1.578c2.468-0.683,4.94-1.371,4.94-1.371"/>
		<path style="&st7;" d="M217.622,70.906c0.264-0.079,0.237-0.34,0.237-0.34l0.182-1.813c0.03-0.148,0.141-0.23,0.203-0.25"/>
		<path style="&st7;" d="M220.51,69.426l0.76,0.448"/>
		<path style="&st7;" d="M220.111,70.17c0.277-0.08,0.301-0.345,0.319-0.478c0.018-0.133,0.086-1.001,0.086-1.001     c0.005-0.146,0.117-0.199,0.155-0.202c0.025-0.001,0.156-0.043,0.244-0.071"/>
		<path style="&st7;" d="M220.959,68.408c0.162-0.076,0.275-0.423,0.268-0.564"/>
		<path style="&st7;" d="M218.414,69.881l-0.005-0.999l1.471-0.42"/>
		<path style="&st7;" d="M220.363,67.953c0.007,0.132,0.125,0.31,0.125,0.31"/>
		<path style="&st7;" d="M215.823,69.858c0.148-0.012,0.302-0.213,0.336-0.5l0.033-0.306"/>
		<path style="&st7;" d="M214.452,69.909l0.413-0.015"/>
		<path style="&st7;" d="M214.814,69.673l0.072,0.113l0.021,0.204c0.012,0.226,0.899,0.232,0.882-0.08"/>
		<path style="&st7;" d="M212.037,68.102l0.591,0.355c0,0,0.12,0.498,0.429,0.769"/>
		<path style="&st7;" d="M216.365,69.008l7.718-2.209"/>
		<path style="&st7;" d="M224.326,64.142l0.148,2.395l0.002,0.379l-0.038,0.658"/>
		<path style="&st7;" d="M214.959,69.509c0.108,0.09,0.685-0.014,0.685-0.014l0.128,0.146"/>
		<path style="&st7;" d="M215.253,69.251c-0.058-0.113-0.069-0.328-0.073-0.386c-0.003-0.059,0.01-2.334,0.01-2.334"/>
		<path style="&st7;" d="M209.04,65.248l5.53-0.061c0.41-0.013,0.782-0.101,1.104-0.185c0.321-0.083,9.737-2.724,9.737-2.724     c0.254-0.04,0.419-0.17,0.413-0.287"/>
		<path style="&st7;" d="M221.453,67.656l-0.093,1.736"/>
		<path style="&st7;" d="M218.651,68.882l1.069,0.649"/>
	</g>
	<g>
		<path style="&st3;" d="M253.794,221.759c-3.932-12.848-12.516-21.613-19.171-19.576c-6.655,2.039-8.861,14.105-4.929,26.953     c3.933,12.846,12.516,21.611,19.171,19.574C255.521,246.671,257.728,234.605,253.794,221.759z"/>
		<path style="&st3;" d="M249.229,256.285c0.958,0.018,1.896-0.107,2.808-0.387c5.971-1.828,9.23-9.768,9.079-19.99"/>
		<path style="&st3;" d="M242.305,196.042c-3.096-1.834-6.221-2.465-9.077-1.59c-1.217,0.373-2.321,0.998-3.307,1.846"/>
		<path style="&st3;" d="M236.792,192.556c-3.044,1.033-5.868,2.57-7.784,4.627c-5.366,5.822-6.535,19-2.291,32.863     c4.271,13.957,12.699,24.264,20.446,25.984c2.167,0.459,4.98,0.459,10.959-1.381c2.39-0.729,4.686-1.467,6.055-2.232"/>
		<path style="&st3;" d="M121.779,135.564c-2.856-10.72-8.973-18.398-13.661-17.148c-4.688,1.249-6.172,10.952-3.316,21.673     c2.857,10.719,8.972,18.397,13.661,17.147C123.151,155.989,124.636,146.285,121.779,135.564z"/>
		<path style="&st3;" d="M118.055,163.335c1.007,0.266,1.993,0.287,2.936,0.035c3.982-1.059,6.223-6.712,6.328-14.375"/>
		<path style="&st3;" d="M117.338,117.387c-3.309-4.203-6.937-6.39-10.081-5.552c-0.962,0.257-1.822,0.781-2.575,1.537"/>
		<path style="&st3;" d="M111.145,110.103c-4.475,1.302-5.72,2.41-7.269,4.222c-3.42,4.713-4.005,15.079-1.021,26.282     c2.989,11.216,8.665,19.924,13.982,22.297c1.965,0.695,2.884,1.281,10.047-0.318c6.378-1.427,7.311-2.263,8.984-4.21"/>
		<path style="&st3;" d="M224.624,219.771c-1.495-0.23-2.3-0.689-3.335-1.494c-1.035-0.805-9.314-6.783-16.788-12.074     c-7.474-5.289-61.748-43.234-64.278-45.075c-2.53-1.839-7.474-4.943-7.474-4.943s-1.84-1.495-2.76-6.209     c-2.07-9.774-10.694-36.911-21.732-41.74c-6.6-2.888-9.429,3.22-10.004,7.129"/>
		<path style="&st3;" d="M101.895,136.751c-1.074-0.23-5.827-5.596-7.129-10.579c0-2.912-0.307-4.829-0.614-7.205     c-0.306-2.376-1.61-8.355-0.996-13.109c0.57-4.42,1.686-7.589,5.366-13.338c0.174-0.234,0.214-0.556,0.295-1.101     c0.081-0.544,0.181-2.942,0.645-3.89c0.464-0.946,1.592-2.076,4.333-3.304c0.967-1.068,1.632-1.653,2.68-2.317     c1.048-0.666,6.066-3.083,8.464-3.829c2.397-0.746,5.12-1.505,10.519-3.849c10.8-4.689,26.611-11.301,57.693-12.413     c2.336-0.083,5.138-0.403,7.657-0.927c2.519-0.523,4.998-0.886,10.015-1.168s16.615-0.427,25.24,0.62"/>
		<path style="&st3;" d="M98.771,92.481c1.379,0.345,3.679,0.058,5.347-2.645c0.26-0.42,0.46-1.208,0.115-1.609     c-0.344-0.403-2.66-1.966-0.438-4.001"/>
		<path style="&st3;" d="M100.38,92.596c-0.863,2.07-1.38,5.979-1.208,9.141c0.042,0.748,2.932,5.692,3.393,6.094"/>
		<path style="&st3;" d="M258.377,113.978c-15.616-15.883-33.639-26.844-42.953-31.271c-9.314-4.427-20.813-8.796-34.036-8.221     c-13.224,0.574-35.244,7.646-40.073,9.142c-4.83,1.495-9.774,1.092-9.947-0.23c1.438-0.345,3.001-1.072,5.462-2.242     c16.443-7.819,47.604-16.673,79.398-18.858"/>
		<path style="&st3;" d="M181.963,74.428l0.115-0.403c5.06-2.529,27.828-11.096,48.18-14.431"/>
		<path style="&st3;" d="M104.117,83.972c1.552-1.208,4.484-1.266,7.589-0.863c3.105,0.403,8.682,1.553,10.809,1.783     s4.657-0.173,7.014-1.323c0.258-0.126,1.839-0.172,1.839-0.172"/>
		<path style="&st3;" d="M220.259,204.484c0.377-9.988,6.284-16.148,14.58-13.01c9.574,3.623,22.247,17.6,28.28,41.605     l-0.313,0.441c0,0,1.148,17.178,1.338,18.436c0.188,1.256,1.131,1.822,2.576,1.633c1.445-0.188,10.881-3.695,11.195-3.883"/>
		<path style="&st3;" d="M138.911,89.622c-0.808,0.351-5.905,3.762-7.557,5.835c-1.652,2.073-2.707,3.584-2.847,4.147     c-0.141,0.562-0.176,1.055-0.176,1.055s-0.562,0.457-0.598,0.633c-0.035,0.175-0.316,0.632-0.281,1.3     c0.035,0.667,0.913,1.266,0.913,1.266s0.598,0.702,1.02,1.088c0.422,0.387,2.706,1.512,3.62,1.652     c1.439,0.222,4.042-0.175,5.94-1.652c0.685-0.531,0.949-0.949,1.371-1.688c0.422-0.738,2.179-7.204,2.355-11.423     c0.017-0.386-0.316-0.984-0.703-1.406c-0.387-0.421-2.039-0.984-2.391-0.984C139.227,89.446,138.911,89.622,138.911,89.622z"/>
		<path style="&st3;" d="M133.727,106.107c-0.863,0-1.552-0.748-1.552-2.012s1.092-4.772,2.932-6.957     c1.84-2.185,5.749-5.117,6.209-5.289c0.46-0.172,0.748-0.288,0.805,0.345"/>
		<path style="&st3;" d="M140.338,92.653c0.115,2.013-0.115,6.497-1.092,10.233c-0.212,0.811-0.747,1.208-0.978,1.438     c-0.23,0.229-3.277,1.15-3.909,1.265s-1.38,0-1.783-0.287"/>
		<path style="&st3;" d="M140.626,102.485c0.959,0.448,47.062,22.791,85.187,41.258c2.907,1.408,5.39,1.627,7.5,1.803     c3.358,0.28,13.575,0.84,13.575,0.84"/>
		<path style="&st3;" d="M130.277,96.851c-0.632-0.978-0.194-2.728,1.955-3.852c9.774-5.117,24.628-10.473,32.886-12.189     c11.901-2.472,21.083-1.398,30.875,2.548c4.209,1.697,8.924,4.024,13.925,6.771"/>
		<path style="&st3;" d="M130.143,105.514c-0.345,0.613-0.652,1.533-0.729,1.839c-0.076,0.307-0.153,0.422-0.153,0.997     c0,0.575-0.512,6.094-0.997,10.733c-0.805,7.703,0.575,17.209,2.492,22.843c0.491,1.445,2.721,9.276,3.257,10.733     c1.035,2.184,1.993,2.95,4.332,4.83c2.338,1.878,73.687,50.484,76.292,52.477"/>
		<path style="&st3;" d="M184.723,189.453l-2.185-6.018c0-2.299-0.958-8.93-1.955-14.719c-1.75-10.156-1.124-17.556,0.307-24.146     c0.882-4.063,1.775-9.756,1.916-11.23c0.077-0.806,1.227-2.606,1.418-2.875c0.192-0.268,2.185-2.645,2.492-3.181     c0.307-0.537,0.997-1.456,1.341-1.534"/>
		<path style="&st3;" d="M188.25,125.481c0,0,0-1.04,1.12-1.36c2.146-6.248,8.691-23.707,17.238-35.474l0.298-0.116"/>
		<path style="&st3;" d="M150.112,85.543l-0.958,2.224l-0.039,0.727c-2.683,6.363-5.251,13.416-5.251,13.416     c-0.689,0.153-1.265,0.651-1.494,1.265"/>
		<path style="&st3;" d="M203.965,86.962l-0.345,0.115c-10.042,13.338-16.482,29.552-18.284,34.917"/>
		<path style="&st3;" d="M193.846,126.21c1.801-5.902,5.251-17.555,14.872-33.614l0.077-0.46l1.106-1.97"/>
		<path style="&st3;" d="M202.163,89.184c-14.642-7.474-24.761-8.165-37.026-5.634c-4.02,0.83-14.144,4.14-16.022,4.944"/>
		<path style="&st3;" d="M134.704,91.752c-0.23-0.154-0.422-0.958-0.269-1.534c0.153-0.575,1.648-4.751,3.449-5.826"/>
		<path style="&st3;" d="M221.404,160.582c0.029-0.604-0.086-1.466-0.403-1.523c-0.316-0.058-2.041-0.489-2.472-0.489     c-0.431,0-0.546-0.029-0.719,0.202c-0.172,0.229-0.46,0.661-0.46,0.833c0,0.172-0.115,1.15-0.029,1.38     c0.086,0.229,1.265,1.321,2.587,2.3c0,0,0.316-0.029,0.402,0c0.086,0.029,4.916,2.529,5.117,2.674     c0.201,0.143,1.523,0.947,1.523,0.947s2.041,0.979,2.674,1.035c0.632,0.059,0.891-0.086,1.178-0.43     c0.288-0.346,0.374-1.15,0.374-1.727c0-0.574-0.345-1.264-0.575-1.523c-0.23-0.258-2.127-1.639-2.443-1.754     c-0.316-0.113-0.144-0.172-0.604-0.027c-0.46,0.143-1.696,0.086-2.013-0.029c-0.316-0.115-3.967-1.495-4.8-2.213"/>
		<path style="&st3;" d="M228.389,162.652c0-0.661-0.833-2.903-1.638-3.795c-0.805-0.891-2.099-1.926-4.283-2.011"/>
		<path style="&st3;" d="M227.7,167.453c-1.553,1.264-3.306,1.896-4.858,0.92s-2.961-2.473-2.961-2.473"/>
		<path style="&st3;" d="M171.988,135.285c0-0.517-0.259-1.178-0.374-1.38c-0.115-0.201-0.144-0.46-0.575-0.546     c-0.432-0.087-1.955-0.403-2.243-0.316s-0.575,0.345-0.661,0.604c-0.086,0.258-0.058,1.552-0.058,1.667     c0,0.115,0.719,1.15,2.473,2.271c0,0,0.057-0.172,0.258-0.029c0.201,0.144,4.514,2.645,4.686,2.76     c0.172,0.116,1.367,0.855,1.696,0.978c0.92,0.345,1.983,0.403,2.156,0.345c0.172-0.058,0.23-0.086,0.258-0.202     c0.029-0.115,0.23-1.667,0.172-1.983c-0.057-0.317-0.172-0.776-0.402-1.006c-0.23-0.23-2.53-1.811-2.53-1.811     s-0.086-0.172-0.489-0.029s-1.179,0.258-1.351,0.229c-0.172-0.028-3.047-1.494-3.565-1.983"/>
		<path style="&st3;" d="M177.364,136.809c0-0.632-1.064-2.875-1.438-3.364c-0.374-0.489-1.236-1.926-3.967-2.069"/>
		<path style="&st3;" d="M176.99,141.265c-1.208,1.523-2.53,1.667-3.421,1.121c-0.891-0.546-2.616-2.042-3.018-2.53"/>
		<path style="&st3;" d="M263.112,233.548c0.194,0,1.167,0.68,1.167,0.68c0.777,1.992,2.262,7.953,3.488,10.84     c0.525,1.242,1.486,1.75,2.625,2.188"/>
		<path style="&st3;" d="M376.05,174.572c0.613-2.73-1.439-4.818-4.584-4.668c-3.143,0.152-6.191,2.488-6.803,5.215     c-0.613,2.73,1.438,4.818,4.584,4.668C372.39,179.636,375.437,177.3,376.05,174.572z"/>
		<path style="&st3;" d="M251.552,56.611c2.821-0.469,8.524-0.764,10.112-0.705c1.587,0.059,22.109,5.22,45.382,17.46     c14.104,7.417,25.941,15.085,34.014,21.139"/>
		<path style="&st3;" d="M147.64,81.557c27.195-11.614,76.5-21.103,87.621-22.825c8.912-1.38,16.731-2.185,16.731-2.185     c4.656-1.38,10.086-1.733,16.04-0.632c6.844,1.265,21.074,5.738,40.418,15.178c18.756,9.152,31.67,17.896,47.457,31.385     c4.457,3.808,19.639,18.284,32.5,31.429"/>
		<path style="&st3;" d="M270.392,247.255c1.807,0.416,15.945,5.229,17.586,5.775c4.727,1.574,6.998,1.951,12.514,2.188     c4.918,0.211,12.73,0.266,15.4-0.088c2.244-0.295,5.609-2.975,8.137-3.412c34.387-5.949,68.016-17.471,85.182-29.082     c1.641-1.107,3.178-0.682,4.607-1.396c0.619-0.309,2.779-2.365,3.693-4.051c0.914-1.688,2.063-6.713,2.059-7.414     c-0.01-1.213-0.904-1.793-0.904-1.793l0.105-1.713c0,0,1.373-1.605,1.361-2.186c-0.119-5.6-0.238-9.65,0.238-14.656     c0.68-7.135-0.652-16.289-4.41-21.449"/>
		<path style="&st3;" d="M214.638,209.964c1.744,1.242,2.705,1.004,2.793-2.055c0.3-10.416,2.398-14.988,6.744-19.109     c1.109-1.053,3.373-2.473,4.163-3.664c1.831-2.758,10.248-16.969,10.511-17.549c0.264-0.58,1.342-1.914,1.501-2.127     c0.158-0.209,3.066-3.916,5.752-7.753c1.751-2.501,1.783-4.626,1.5-7.377c-0.474-4.637-4.219-21.733-7.711-33.193     c-1.388-4.553-1.82-6.647-8.788-12.478c-4.629-3.873-11.199-8.429-21.202-14.493"/>
		<path style="&st3;" d="M208.822,92.435c9.529,5.756,16.494,10.537,21.063,14.555c6.625,5.827,6.564,6.491,8.047,11.545     c1.54,5.248,5.017,19.491,6.347,25.998"/>
		<path style="&st3;" d="M143.979,102.063l82.476,40.125c2.519,1.05,4.677,1.434,6.787,1.61c3.359,0.28,13.369,0.909,13.369,0.909"/>
		<path style="&st3;" d="M229.674,143.237c0.685-1.792,5.694-13.859,9.435-20.499"/>
		<path style="&st3;" d="M227.785,142.607c1.399-3.429,6.736-15.932,10.477-22.571"/>
		<path style="&st3;" d="M390.093,137.953c-18.797,9.075-66.828,22.284-101.896,28.344"/>
		<path style="&st3;" d="M411.361,173.474c0.73-2.691,1.402-7.516,1.402-8.244c0-1.686-0.336-3.029-0.336-3.029l-0.561-0.617     c-0.52-1.152-1.121-2.635-1.121-2.635c-1.055-2.477-3.281-7.45-3.703-8.188c-0.396-0.696-2.355-2.412-1.457-1.739     c0.119,0.09-13.473-9.626-15.492-11.068"/>
		<path style="&st3;" d="M315.103,206.015c3.617,3.732,11.02,8.969,16.236,10.973c5.217,2.002,10.561,0.74,14.047-0.119     c10.479-2.584,42.631-13.635,50.832-17.707c3.34-1.66,6.004-4.152,9.029-9.367c2.846-4.904,5.461-11.047,6.113-16.32"/>
		<path style="&st3;" d="M390.093,137.953c-12.404-13.617-32.141-32.017-44.594-41.833c-2.252-1.774-3.51-1.78-5.152-1.394     c-6.602,1.555-21.35,6.521-37.766,10.071c-21.979,4.754-44.024,9.231-45.351,9.532c-2.319,0.527-2.313,2.104-1.212,3.741     c1.95,2.897,19.866,31.55,23.606,36.819c3.742,5.27,6.781,10.144,8.572,11.407c1.791,1.266,16.535,11.361,17.201,11.926     c1.082,0.918,1.555,1.576,1.924,2.209c0.369,0.631,4.379,9.309,5.379,11.207c0.455,0.543,0.771,1.043,0.854,1.422     c0.145,0.664,0.385,1.85,0.617,3.504c0.42,3.004-0.818,9.1,2.449,12.25"/>
		<path style="&st3;" d="M346.753,194.001l-0.527-0.475c0,0-7.705-5.021-8.074-5.232s-0.844-0.369-1.527-0.369     c-0.686,0-20.512,0.959-25.254,0.59s-11.859-1.402-16.916-3.035c-2.641-0.852-10.889-3.51-13.418-3.615s-5.34-0.348-5.973-0.189     c-0.631,0.158-0.986,0.836-0.631,1.527c1,1.949,5.215,6.48,6.953,8.695c1.74,2.213,9.049,10.813,14.16,14.658     c0.328,0.248,0.779,0.389,1.475,0.158c3.15-1.051,8.918-1.805,17.383-2.684c12.367-1.283,25.459-3.074,25.551-3.074     c0.158,0,0.738-0.211,0.738-0.211c0.369-0.684,2.951-3.793,3.637-4.637C345.013,195.267,346.068,194.371,346.753,194.001z"/>
		<path style="&st3;" d="M248.455,202.214c0,0,5.773,2.521,6.405,2.627c2.371,0.264,15.928,4.449,17.702,4.809     c2.871,0.582,4.295,0.057,6.693-0.316c1.797-0.281,9.098-2.521,9.625-2.785s1.055-0.58,1.055-0.58l2.475-1.949"/>
		<path style="&st3;" d="M409.96,151.545c0,0-1.627-2.075-2.58-3.253c-1.941-2.398-3.311-3.813-4.824-5.16     c-2.117-1.882-17.492-14.327-21.705-16.882"/>
		<path style="&st3;" d="M346.753,194.001c1.896-0.895,2.91-0.951,5.9-1.791c13.551-3.813,28.6-8.48,37.822-12.119     c2.318-0.914,2.998-1.068,3.947-0.279c0.949,0.791,2.773,2.369,2.773,2.369c0.264,0.211,0.896,0.369,1.266,0.211     c0.367-0.158,9.703-6.281,12.451-8.637c2.08-1.783,3.135-2.957,3.869-3.479c0.777-0.549,1.178-0.402,1.178-0.672     c0.057-3.703,0.113-6.619-0.168-9.703c-0.332-3.658-1.533-5.299-2.412-6.001c-0.938-0.75-3.309-2.748-4.094-3.253"/>
		<path style="&st3;" d="M393.884,179.39l0.596-0.139l1.352-0.924c0.211-0.178,0.387-0.422,0.387-0.422s2.797-6.539,2.973-7.066     s0.141-0.844,0.141-0.844c0-0.949,0.543-1.381,0.949-1.652c6.201-4.123,9.375-7.428,10.465-9.395     c1.088-1.967,1.178-4.991-0.785-7.403"/>
		<path style="&st3;" d="M406.539,149.246c0.279-1.178-0.488-2.616-1.906-4.094"/>
		<path style="&st3;" d="M307.941,179.205c1.494,0.051,3.066-0.043,4.766-0.121c21.402-0.975,78.355-18.251,90.859-26.136     c1.059-0.668,2.186-1.297,2.668-2.242"/>
		<path style="&st3;" d="M255.953,153.335c10.373,6.405,24.501,14.596,29.945,17.786c7.455,4.365,12.654,7.063,19.125,7.857"/>
		<path style="&st3;" d="M339.179,188.898c0-0.307,0.127-0.246,0.459-0.307c21.16-3.811,39.922-10.068,59.201-18.398     c0.205-0.088,0.49-0.154,0.428,0.398"/>
		<path style="&st3;" d="M339.955,200.957c0,0-5.25,8.441-7.234,12.291"/>
		<path style="&st3;" d="M398.517,183.064c0.898,1.795,2.525,5.891,3.086,7.516"/>
		<path style="&st3;" d="M316.621,208.814c3.004,3.004,7.232,6.883,15.918,11.273c5.959,3.01,10.217,2.777,16.281,1.211     c14-3.617,39.201-11.9,49.117-16.451c10.053-4.613,11.266-7.955,12.863-26.045"/>
		<path style="&st3;" d="M413.027,211.644c1.791-1.344,4.98-4.426,5.744-5.375"/>
		<path style="&st3;" d="M418.638,207.876l-0.078,1.291"/>
		<path style="&st3;" d="M414.818,210.142l0.449,1.871c0.105,0.262,0.369,0.156,0.58,0c0.209-0.158,2.635-2.002,2.713-2.846"/>
		<path style="&st3;" d="M409.648,206.466c0.631,1.475,2.918,8.326,4.289,13.225"/>
		<path style="&st3;" d="M400.853,227.773l1.799,1.357c0.975,0.803,6.201-2.717,5.189-3.504c-0.475-0.369-1.445-1.004-1.445-1.004"/>
		<path style="&st3;" d="M318.896,244.865c-5.309,0.408-15.697,0.344-18.295,0.344c-2.6,0-4.289,0.061-5.307-0.035     c-1.123-0.105-2.352-0.246-2.352-0.246c-0.773-0.105-1.236-0.092-1.617,0.668c-0.281,0.563-0.316,1.336-0.422,1.791     c-0.104,0.457,0.162,0.957,1.02,1.195c3.303,0.912,12.051,1.127,15.422,0.6c1.855-0.289,2.25-1.174,2.742-2.158     s0.668-1.334,0.738-1.758"/>
		<path style="&st3;" d="M312.66,254.238c3.125-0.104,5.059-0.947,6.463-3.301c1.404-2.355,10.682-17.564,11.848-19.256"/>
		<path style="&st3;" d="M324.378,250.755c5.775-4.842,7.15-5.459,12.775-6.533c26.6-5.074,55.416-16.334,67.6-23.814     c2.643-1.621,3.857-1.605,5.402,0.361"/>
		<path style="&st3;" d="M403.007,228.867c-0.643-0.855,3.557-3.779,4.373-2.965"/>
		<path style="&st3;" d="M255.128,205.167c3.286,5.129,6.137,10.326,8.176,14.963c4.666,10.617,8.535,12.941,14.816,16.158     c2.391,1.225,8.225,3.559,11.783,4.959c2.299,0.904,6.125,1.871,9.391,1.926c3.268,0.053,16.77-0.063,21.934-0.643"/>
		<path style="&st3;" d="M229.547,185.441c9.033-0.535,18.289,8.57,25.136,19.039"/>
		<path style="&st3;" d="M279.31,189.349c10.432,14.596,18.234,28.449,17.068,47.057"/>
		<path style="&st3;" d="M305.771,229.056c7.467,0.174,23.867-0.48,37.449-3.326c17.268-3.615,48.65-15.049,60.316-20.182     c8.158-3.59,12.215-7.721,15.166-12.428"/>
	</g>
	<g>
		<path style="&st7;" d="M253.794,221.759c-3.932-12.848-12.516-21.613-19.171-19.576c-6.655,2.039-8.861,14.105-4.929,26.953     c3.933,12.846,12.516,21.611,19.171,19.574C255.521,246.671,257.728,234.605,253.794,221.759z"/>
		<path style="&st7;" d="M249.229,256.285c0.958,0.018,1.896-0.107,2.808-0.387c5.971-1.828,9.23-9.768,9.079-19.99"/>
		<path style="&st7;" d="M242.305,196.042c-3.096-1.834-6.221-2.465-9.077-1.59c-1.217,0.373-2.321,0.998-3.307,1.846"/>
		<path style="&st7;" d="M236.792,192.556c-3.044,1.033-5.868,2.57-7.784,4.627c-5.366,5.822-6.535,19-2.291,32.863     c4.271,13.957,12.699,24.264,20.446,25.984c2.167,0.459,4.98,0.459,10.959-1.381c2.39-0.729,4.686-1.467,6.055-2.232"/>
		<path style="&st7;" d="M121.779,135.564c-2.856-10.72-8.973-18.398-13.661-17.148c-4.688,1.249-6.172,10.952-3.316,21.673     c2.857,10.719,8.972,18.397,13.661,17.147C123.151,155.989,124.636,146.285,121.779,135.564z"/>
		<path style="&st7;" d="M118.055,163.335c1.007,0.266,1.993,0.287,2.936,0.035c3.982-1.059,6.223-6.712,6.328-14.375"/>
		<path style="&st7;" d="M117.338,117.387c-3.309-4.203-6.937-6.39-10.081-5.552c-0.962,0.257-1.822,0.781-2.575,1.537"/>
		<path style="&st7;" d="M111.145,110.103c-4.475,1.302-5.72,2.41-7.269,4.222c-3.42,4.713-4.005,15.079-1.021,26.282     c2.989,11.216,8.665,19.924,13.982,22.297c1.965,0.695,2.884,1.281,10.047-0.318c6.378-1.427,7.311-2.263,8.984-4.21"/>
		<path style="&st7;" d="M224.624,219.771c-1.495-0.23-2.3-0.689-3.335-1.494c-1.035-0.805-9.314-6.783-16.788-12.074     c-7.474-5.289-61.748-43.234-64.278-45.075c-2.53-1.839-7.474-4.943-7.474-4.943s-1.84-1.495-2.76-6.209     c-2.07-9.774-10.694-36.911-21.732-41.74c-6.6-2.888-9.429,3.22-10.004,7.129"/>
		<path style="&st7;" d="M101.895,136.751c-1.074-0.23-5.827-5.596-7.129-10.579c0-2.912-0.307-4.829-0.614-7.205     c-0.306-2.376-1.61-8.355-0.996-13.109c0.57-4.42,1.686-7.589,5.366-13.338c0.174-0.234,0.214-0.556,0.295-1.101     c0.081-0.544,0.181-2.942,0.645-3.89c0.464-0.946,1.592-2.076,4.333-3.304c0.967-1.068,1.632-1.653,2.68-2.317     c1.048-0.666,6.066-3.083,8.464-3.829c2.397-0.746,5.12-1.505,10.519-3.849c10.8-4.689,26.611-11.301,57.693-12.413     c2.336-0.083,5.138-0.403,7.657-0.927c2.519-0.523,4.998-0.886,10.015-1.168s16.615-0.427,25.24,0.62"/>
		<path style="&st7;" d="M98.771,92.481c1.379,0.345,3.679,0.058,5.347-2.645c0.26-0.42,0.46-1.208,0.115-1.609     c-0.344-0.403-2.66-1.966-0.438-4.001"/>
		<path style="&st7;" d="M100.38,92.596c-0.863,2.07-1.38,5.979-1.208,9.141c0.042,0.748,2.932,5.692,3.393,6.094"/>
		<path style="&st7;" d="M258.377,113.978c-15.616-15.883-33.639-26.844-42.953-31.271c-9.314-4.427-20.813-8.796-34.036-8.221     c-13.224,0.574-35.244,7.646-40.073,9.142c-4.83,1.495-9.774,1.092-9.947-0.23c1.438-0.345,3.001-1.072,5.462-2.242     c16.443-7.819,47.604-16.673,79.398-18.858"/>
		<path style="&st7;" d="M181.963,74.428l0.115-0.403c5.06-2.529,27.828-11.096,48.18-14.431"/>
		<path style="&st7;" d="M104.117,83.972c1.552-1.208,4.484-1.266,7.589-0.863c3.105,0.403,8.682,1.553,10.809,1.783     s4.657-0.173,7.014-1.323c0.258-0.126,1.839-0.172,1.839-0.172"/>
		<path style="&st7;" d="M220.259,204.484c0.377-9.988,6.284-16.148,14.58-13.01c9.574,3.623,22.247,17.6,28.28,41.605     l-0.313,0.441c0,0,1.148,17.178,1.338,18.436c0.188,1.256,1.131,1.822,2.576,1.633c1.445-0.188,10.881-3.695,11.195-3.883"/>
		<path style="&st7;" d="M138.911,89.622c-0.808,0.351-5.905,3.762-7.557,5.835c-1.652,2.073-2.707,3.584-2.847,4.147     c-0.141,0.562-0.176,1.055-0.176,1.055s-0.562,0.457-0.598,0.633c-0.035,0.175-0.316,0.632-0.281,1.3     c0.035,0.667,0.913,1.266,0.913,1.266s0.598,0.702,1.02,1.088c0.422,0.387,2.706,1.512,3.62,1.652     c1.439,0.222,4.042-0.175,5.94-1.652c0.685-0.531,0.949-0.949,1.371-1.688c0.422-0.738,2.179-7.204,2.355-11.423     c0.017-0.386-0.316-0.984-0.703-1.406c-0.387-0.421-2.039-0.984-2.391-0.984C139.227,89.446,138.911,89.622,138.911,89.622z"/>
		<path style="&st7;" d="M133.727,106.107c-0.863,0-1.552-0.748-1.552-2.012s1.092-4.772,2.932-6.957     c1.84-2.185,5.749-5.117,6.209-5.289c0.46-0.172,0.748-0.288,0.805,0.345"/>
		<path style="&st7;" d="M140.338,92.653c0.115,2.013-0.115,6.497-1.092,10.233c-0.212,0.811-0.747,1.208-0.978,1.438     c-0.23,0.229-3.277,1.15-3.909,1.265s-1.38,0-1.783-0.287"/>
		<path style="&st7;" d="M140.626,102.485c0.959,0.448,47.062,22.791,85.187,41.258c2.907,1.408,5.39,1.627,7.5,1.803     c3.358,0.28,13.575,0.84,13.575,0.84"/>
		<path style="&st7;" d="M130.277,96.851c-0.632-0.978-0.194-2.728,1.955-3.852c9.774-5.117,24.628-10.473,32.886-12.189     c11.901-2.472,21.083-1.398,30.875,2.548c4.209,1.697,8.924,4.024,13.925,6.771"/>
		<path style="&st7;" d="M130.143,105.514c-0.345,0.613-0.652,1.533-0.729,1.839c-0.076,0.307-0.153,0.422-0.153,0.997     c0,0.575-0.512,6.094-0.997,10.733c-0.805,7.703,0.575,17.209,2.492,22.843c0.491,1.445,2.721,9.276,3.257,10.733     c1.035,2.184,1.993,2.95,4.332,4.83c2.338,1.878,73.687,50.484,76.292,52.477"/>
		<path style="&st7;" d="M184.723,189.453l-2.185-6.018c0-2.299-0.958-8.93-1.955-14.719c-1.75-10.156-1.124-17.556,0.307-24.146     c0.882-4.063,1.775-9.756,1.916-11.23c0.077-0.806,1.227-2.606,1.418-2.875c0.192-0.268,2.185-2.645,2.492-3.181     c0.307-0.537,0.997-1.456,1.341-1.534"/>
		<path style="&st7;" d="M188.25,125.481c0,0,0-1.04,1.12-1.36c2.146-6.248,8.691-23.707,17.238-35.474l0.298-0.116"/>
		<path style="&st7;" d="M150.112,85.543l-0.958,2.224l-0.039,0.727c-2.683,6.363-5.251,13.416-5.251,13.416     c-0.689,0.153-1.265,0.651-1.494,1.265"/>
		<path style="&st7;" d="M203.965,86.962l-0.345,0.115c-10.042,13.338-16.482,29.552-18.284,34.917"/>
		<path style="&st7;" d="M193.846,126.21c1.801-5.902,5.251-17.555,14.872-33.614l0.077-0.46l1.106-1.97"/>
		<path style="&st7;" d="M202.163,89.184c-14.642-7.474-24.761-8.165-37.026-5.634c-4.02,0.83-14.144,4.14-16.022,4.944"/>
		<path style="&st7;" d="M134.704,91.752c-0.23-0.154-0.422-0.958-0.269-1.534c0.153-0.575,1.648-4.751,3.449-5.826"/>
		<path style="&st7;" d="M221.404,160.582c0.029-0.604-0.086-1.466-0.403-1.523c-0.316-0.058-2.041-0.489-2.472-0.489     c-0.431,0-0.546-0.029-0.719,0.202c-0.172,0.229-0.46,0.661-0.46,0.833c0,0.172-0.115,1.15-0.029,1.38     c0.086,0.229,1.265,1.321,2.587,2.3c0,0,0.316-0.029,0.402,0c0.086,0.029,4.916,2.529,5.117,2.674     c0.201,0.143,1.523,0.947,1.523,0.947s2.041,0.979,2.674,1.035c0.632,0.059,0.891-0.086,1.178-0.43     c0.288-0.346,0.374-1.15,0.374-1.727c0-0.574-0.345-1.264-0.575-1.523c-0.23-0.258-2.127-1.639-2.443-1.754     c-0.316-0.113-0.144-0.172-0.604-0.027c-0.46,0.143-1.696,0.086-2.013-0.029c-0.316-0.115-3.967-1.495-4.8-2.213"/>
		<path style="&st7;" d="M228.389,162.652c0-0.661-0.833-2.903-1.638-3.795c-0.805-0.891-2.099-1.926-4.283-2.011"/>
		<path style="&st7;" d="M227.7,167.453c-1.553,1.264-3.306,1.896-4.858,0.92s-2.961-2.473-2.961-2.473"/>
		<path style="&st7;" d="M171.988,135.285c0-0.517-0.259-1.178-0.374-1.38c-0.115-0.201-0.144-0.46-0.575-0.546     c-0.432-0.087-1.955-0.403-2.243-0.316s-0.575,0.345-0.661,0.604c-0.086,0.258-0.058,1.552-0.058,1.667     c0,0.115,0.719,1.15,2.473,2.271c0,0,0.057-0.172,0.258-0.029c0.201,0.144,4.514,2.645,4.686,2.76     c0.172,0.116,1.367,0.855,1.696,0.978c0.92,0.345,1.983,0.403,2.156,0.345c0.172-0.058,0.23-0.086,0.258-0.202     c0.029-0.115,0.23-1.667,0.172-1.983c-0.057-0.317-0.172-0.776-0.402-1.006c-0.23-0.23-2.53-1.811-2.53-1.811     s-0.086-0.172-0.489-0.029s-1.179,0.258-1.351,0.229c-0.172-0.028-3.047-1.494-3.565-1.983"/>
		<path style="&st7;" d="M177.364,136.809c0-0.632-1.064-2.875-1.438-3.364c-0.374-0.489-1.236-1.926-3.967-2.069"/>
		<path style="&st7;" d="M176.99,141.265c-1.208,1.523-2.53,1.667-3.421,1.121c-0.891-0.546-2.616-2.042-3.018-2.53"/>
		<path style="&st7;" d="M263.112,233.548c0.194,0,1.167,0.68,1.167,0.68c0.777,1.992,2.262,7.953,3.488,10.84     c0.525,1.242,1.486,1.75,2.625,2.188"/>
		<path style="&st7;" d="M376.05,174.572c0.613-2.73-1.439-4.818-4.584-4.668c-3.143,0.152-6.191,2.488-6.803,5.215     c-0.613,2.73,1.438,4.818,4.584,4.668C372.39,179.636,375.437,177.3,376.05,174.572z"/>
		<path style="&st7;" d="M251.552,56.611c2.821-0.469,8.524-0.764,10.112-0.705c1.587,0.059,22.109,5.22,45.382,17.46     c14.104,7.417,25.941,15.085,34.014,21.139"/>
		<path style="&st7;" d="M147.64,81.557c27.195-11.614,76.5-21.103,87.621-22.825c8.912-1.38,16.731-2.185,16.731-2.185     c4.656-1.38,10.086-1.733,16.04-0.632c6.844,1.265,21.074,5.738,40.418,15.178c18.756,9.152,31.67,17.896,47.457,31.385     c4.457,3.808,19.639,18.284,32.5,31.429"/>
		<path style="&st7;" d="M270.392,247.255c1.807,0.416,15.945,5.229,17.586,5.775c4.727,1.574,6.998,1.951,12.514,2.188     c4.918,0.211,12.73,0.266,15.4-0.088c2.244-0.295,5.609-2.975,8.137-3.412c34.387-5.949,68.016-17.471,85.182-29.082     c1.641-1.107,3.178-0.682,4.607-1.396c0.619-0.309,2.779-2.365,3.693-4.051c0.914-1.688,2.063-6.713,2.059-7.414     c-0.01-1.213-0.904-1.793-0.904-1.793l0.105-1.713c0,0,1.373-1.605,1.361-2.186c-0.119-5.6-0.238-9.65,0.238-14.656     c0.68-7.135-0.652-16.289-4.41-21.449"/>
		<path style="&st7;" d="M214.638,209.964c1.744,1.242,2.705,1.004,2.793-2.055c0.3-10.416,2.398-14.988,6.744-19.109     c1.109-1.053,3.373-2.473,4.163-3.664c1.831-2.758,10.248-16.969,10.511-17.549c0.264-0.58,1.342-1.914,1.501-2.127     c0.158-0.209,3.066-3.916,5.752-7.753c1.751-2.501,1.783-4.626,1.5-7.377c-0.474-4.637-4.219-21.733-7.711-33.193     c-1.388-4.553-1.82-6.647-8.788-12.478c-4.629-3.873-11.199-8.429-21.202-14.493"/>
		<path style="&st7;" d="M208.822,92.435c9.529,5.756,16.494,10.537,21.063,14.555c6.625,5.827,6.564,6.491,8.047,11.545     c1.54,5.248,5.017,19.491,6.347,25.998"/>
		<path style="&st7;" d="M143.979,102.063l82.476,40.125c2.519,1.05,4.677,1.434,6.787,1.61c3.359,0.28,13.369,0.909,13.369,0.909"/>
		<path style="&st7;" d="M229.674,143.237c0.685-1.792,5.694-13.859,9.435-20.499"/>
		<path style="&st7;" d="M227.785,142.607c1.399-3.429,6.736-15.932,10.477-22.571"/>
		<path style="&st7;" d="M390.093,137.953c-18.797,9.075-66.828,22.284-101.896,28.344"/>
		<path style="&st7;" d="M411.361,173.474c0.73-2.691,1.402-7.516,1.402-8.244c0-1.686-0.336-3.029-0.336-3.029l-0.561-0.617     c-0.52-1.152-1.121-2.635-1.121-2.635c-1.055-2.477-3.281-7.45-3.703-8.188c-0.396-0.696-2.355-2.412-1.457-1.739     c0.119,0.09-13.473-9.626-15.492-11.068"/>
		<path style="&st7;" d="M315.103,206.015c3.617,3.732,11.02,8.969,16.236,10.973c5.217,2.002,10.561,0.74,14.047-0.119     c10.479-2.584,42.631-13.635,50.832-17.707c3.34-1.66,6.004-4.152,9.029-9.367c2.846-4.904,5.461-11.047,6.113-16.32"/>
		<path style="&st7;" d="M390.093,137.953c-12.404-13.617-32.141-32.017-44.594-41.833c-2.252-1.774-3.51-1.78-5.152-1.394     c-6.602,1.555-21.35,6.521-37.766,10.071c-21.979,4.754-44.024,9.231-45.351,9.532c-2.319,0.527-2.313,2.104-1.212,3.741     c1.95,2.897,19.866,31.55,23.606,36.819c3.742,5.27,6.781,10.144,8.572,11.407c1.791,1.266,16.535,11.361,17.201,11.926     c1.082,0.918,1.555,1.576,1.924,2.209c0.369,0.631,4.379,9.309,5.379,11.207c0.455,0.543,0.771,1.043,0.854,1.422     c0.145,0.664,0.385,1.85,0.617,3.504c0.42,3.004-0.818,9.1,2.449,12.25"/>
		<path style="&st7;" d="M346.753,194.001l-0.527-0.475c0,0-7.705-5.021-8.074-5.232s-0.844-0.369-1.527-0.369     c-0.686,0-20.512,0.959-25.254,0.59s-11.859-1.402-16.916-3.035c-2.641-0.852-10.889-3.51-13.418-3.615s-5.34-0.348-5.973-0.189     c-0.631,0.158-0.986,0.836-0.631,1.527c1,1.949,5.215,6.48,6.953,8.695c1.74,2.213,9.049,10.813,14.16,14.658     c0.328,0.248,0.779,0.389,1.475,0.158c3.15-1.051,8.918-1.805,17.383-2.684c12.367-1.283,25.459-3.074,25.551-3.074     c0.158,0,0.738-0.211,0.738-0.211c0.369-0.684,2.951-3.793,3.637-4.637C345.013,195.267,346.068,194.371,346.753,194.001z"/>
		<path style="&st7;" d="M248.455,202.214c0,0,5.773,2.521,6.405,2.627c2.371,0.264,15.928,4.449,17.702,4.809     c2.871,0.582,4.295,0.057,6.693-0.316c1.797-0.281,9.098-2.521,9.625-2.785s1.055-0.58,1.055-0.58l2.475-1.949"/>
		<path style="&st7;" d="M409.96,151.545c0,0-1.627-2.075-2.58-3.253c-1.941-2.398-3.311-3.813-4.824-5.16     c-2.117-1.882-17.492-14.327-21.705-16.882"/>
		<path style="&st7;" d="M346.753,194.001c1.896-0.895,2.91-0.951,5.9-1.791c13.551-3.813,28.6-8.48,37.822-12.119     c2.318-0.914,2.998-1.068,3.947-0.279c0.949,0.791,2.773,2.369,2.773,2.369c0.264,0.211,0.896,0.369,1.266,0.211     c0.367-0.158,9.703-6.281,12.451-8.637c2.08-1.783,3.135-2.957,3.869-3.479c0.777-0.549,1.178-0.402,1.178-0.672     c0.057-3.703,0.113-6.619-0.168-9.703c-0.332-3.658-1.533-5.299-2.412-6.001c-0.938-0.75-3.309-2.748-4.094-3.253"/>
		<path style="&st7;" d="M393.884,179.39l0.596-0.139l1.352-0.924c0.211-0.178,0.387-0.422,0.387-0.422s2.797-6.539,2.973-7.066     s0.141-0.844,0.141-0.844c0-0.949,0.543-1.381,0.949-1.652c6.201-4.123,9.375-7.428,10.465-9.395     c1.088-1.967,1.178-4.991-0.785-7.403"/>
		<path style="&st7;" d="M406.539,149.246c0.279-1.178-0.488-2.616-1.906-4.094"/>
		<path style="&st7;" d="M307.941,179.205c1.494,0.051,3.066-0.043,4.766-0.121c21.402-0.975,78.355-18.251,90.859-26.136     c1.059-0.668,2.186-1.297,2.668-2.242"/>
		<path style="&st7;" d="M255.953,153.335c10.373,6.405,24.501,14.596,29.945,17.786c7.455,4.365,12.654,7.063,19.125,7.857"/>
		<path style="&st7;" d="M339.179,188.898c0-0.307,0.127-0.246,0.459-0.307c21.16-3.811,39.922-10.068,59.201-18.398     c0.205-0.088,0.49-0.154,0.428,0.398"/>
		<path style="&st7;" d="M339.955,200.957c0,0-5.25,8.441-7.234,12.291"/>
		<path style="&st7;" d="M398.517,183.064c0.898,1.795,2.525,5.891,3.086,7.516"/>
		<path style="&st7;" d="M316.621,208.814c3.004,3.004,7.232,6.883,15.918,11.273c5.959,3.01,10.217,2.777,16.281,1.211     c14-3.617,39.201-11.9,49.117-16.451c10.053-4.613,11.266-7.955,12.863-26.045"/>
		<path style="&st7;" d="M413.027,211.644c1.791-1.344,4.98-4.426,5.744-5.375"/>
		<path style="&st7;" d="M418.638,207.876l-0.078,1.291"/>
		<path style="&st7;" d="M414.818,210.142l0.449,1.871c0.105,0.262,0.369,0.156,0.58,0c0.209-0.158,2.635-2.002,2.713-2.846"/>
		<path style="&st7;" d="M409.648,206.466c0.631,1.475,2.918,8.326,4.289,13.225"/>
		<path style="&st7;" d="M400.853,227.773l1.799,1.357c0.975,0.803,6.201-2.717,5.189-3.504c-0.475-0.369-1.445-1.004-1.445-1.004"/>
		<path style="&st7;" d="M318.896,244.865c-5.309,0.408-15.697,0.344-18.295,0.344c-2.6,0-4.289,0.061-5.307-0.035     c-1.123-0.105-2.352-0.246-2.352-0.246c-0.773-0.105-1.236-0.092-1.617,0.668c-0.281,0.563-0.316,1.336-0.422,1.791     c-0.104,0.457,0.162,0.957,1.02,1.195c3.303,0.912,12.051,1.127,15.422,0.6c1.855-0.289,2.25-1.174,2.742-2.158     s0.668-1.334,0.738-1.758"/>
		<path style="&st7;" d="M312.66,254.238c3.125-0.104,5.059-0.947,6.463-3.301c1.404-2.355,10.682-17.564,11.848-19.256"/>
		<path style="&st7;" d="M324.378,250.755c5.775-4.842,7.15-5.459,12.775-6.533c26.6-5.074,55.416-16.334,67.6-23.814     c2.643-1.621,3.857-1.605,5.402,0.361"/>
		<path style="&st7;" d="M403.007,228.867c-0.643-0.855,3.557-3.779,4.373-2.965"/>
		<path style="&st7;" d="M255.128,205.167c3.286,5.129,6.137,10.326,8.176,14.963c4.666,10.617,8.535,12.941,14.816,16.158     c2.391,1.225,8.225,3.559,11.783,4.959c2.299,0.904,6.125,1.871,9.391,1.926c3.268,0.053,16.77-0.063,21.934-0.643"/>
		<path style="&st7;" d="M229.547,185.441c9.033-0.535,18.289,8.57,25.136,19.039"/>
		<path style="&st7;" d="M279.31,189.349c10.432,14.596,18.234,28.449,17.068,47.057"/>
		<path style="&st7;" d="M305.771,229.056c7.467,0.174,23.867-0.48,37.449-3.326c17.268-3.615,48.65-15.049,60.316-20.182     c8.158-3.59,12.215-7.721,15.166-12.428"/>
	</g>
</g>
<g id="キャプション">
	<g>
		<path style="&st1;" d="M144.849,263.417v-16.5l119.819-101.966"/>
		<path style="&st0;" d="M144.849,263.417v-16.5l119.819-101.966"/>
	</g>
	<text transform="matrix(1 0 0 1 32.8613 283.564)"><tspan x="0" y="0" style="&st4; &st5;">Door Control Receiver (*2 *3)</tspan></text>
	<text transform="matrix(1 0 0 1 32.8613 273.6431)"><tspan x="0" y="0" style="&st4; &st5;">Door Control ECU with Receiver Assembly (*1 *3)</tspan></text>
	<text transform="matrix(1 0 0 1 8.604 17.6343)"><tspan x="0" y="0" style="&st4; &st5;">Sliding Roof Control ECU </tspan><tspan x="0" y="10" style="&st4; &st5;">(Sliding Roof Drive Gear Sub-Assembly)</tspan></text>
	<g>
		<path style="&st1;" d="M406.583,38.5V55l-50.638,57.638"/>
		<path style="&st0;" d="M406.583,38.5V55l-50.638,57.638"/>
	</g>
	<text transform="matrix(1 0 0 1 326.0151 273.729)"><tspan x="0" y="0" style="&st4; &st5;">* 1:w/ Smart Entry &amp; Start System</tspan></text>
	<text transform="matrix(1 0 0 1 326.0151 283.6509)"><tspan x="0" y="0" style="&st4; &st5;">* 2:w/o Smart Entry &amp; Start System</tspan></text>
	<text transform="matrix(1 0 0 1 326.0151 293.5718)"><tspan x="0" y="0" style="&st4; &st5;">* 3:TMT Made, Kuozui Motors, Ltd. Made</tspan></text>
	<text transform="matrix(1 0 0 1 326.0151 303.4927)"><tspan x="0" y="0" style="&st4; &st5;">* 4:TDB Made, TDV Made</tspan></text>
	<text transform="matrix(1 0 0 1 32.8613 293.4858)"><tspan x="0" y="0" style="&st4; &st5;">No. 2 Door Control Receiver Sub-Assembly (*1 *4)</tspan></text>
	<text transform="matrix(1 0 0 1 32.8613 303.4067)"><tspan x="0" y="0" style="&st4; &st5;">Door Control Receiver Sub-Assembly (*2 *4)</tspan></text>
	<text transform="matrix(1 0 0 1 313.8081 17.2393)"><tspan x="0" y="0" style="&st4; &st5;">Tire Pressure Warning ECU and Receiver </tspan><tspan x="0" y="10" style="&st4; &st5;">(Electrical Key &amp; Tire Pressure </tspan><tspan x="0" y="20" style="&st4; &st5;">Monitoring System Receiver Assembly) </tspan></text>
	<text transform="matrix(1 0 0 1 8.604 47.748)"><tspan x="0" y="0" style="&st4; &st5;">Pre-Collision City Sensor</tspan></text>
	<g>
		<path style="&st1;" d="M122.586,44.372h16.5l77.205,20.223"/>
		<path style="&st0;" d="M122.586,44.372h16.5l77.205,20.223"/>
	</g>
	<g>
		<path style="&st1;" d="M190.389,19.258h16.5l24.701,44.269"/>
		<path style="&st0;" d="M190.389,19.258h16.5l24.701,44.269"/>
	</g>
</g>
</svg>